<kml xmlns:xsd="http://schemas.opengis.net/kml/2.2.0/ogckml22.xsd" xmlns:xmlns="http://www.opengis.net/kml/2.2/" version="1.0">
  <Document>
    <name>ITAUEIRA</name>
    <open>1</open>
    <Folder>
      <name>2205102</name>
      <Style id="line1">
        <LineStyle>
          <color>#ff000000</color>
          <width>3</width>
        </LineStyle>
        <BalloonStyle>
          <text>$[description]</text>
        </BalloonStyle>
      </Style>
      <Placemark>
        <name>4</name>
        <styleUrl>#line1</styleUrl>
        <LineString>
          <extrude>0</extrude>
          <altitudeMode>clampToGround</altitudeMode>
          <coordinates>-42.842318335,-7.35435736723979,0
 -42.7983312799999,-7.38635937524088,0
 -42.8171242629999,-7.42175631724202,0
 -42.8237004119999,-7.43414267024236,0
 -42.804302682,-7.56154488424649,0
 -42.861495512,-7.61922511324821,0
 -42.886523106,-7.62023290124829,0
 -42.926968739,-7.65119462824928,0
 -42.968277438,-7.68281943225033,0
 -43.035358335,-7.73418082525201,0
 -43.044123656,-7.7227445992515,0
 -43.0608960790001,-7.70085474225088,0
 -43.064933433,-7.69475063725066,0
 -43.073276914,-7.68319986325027,0
 -43.08186559,-7.6760936452501,0
 -43.0831139979999,-7.67535974425004,0
 -43.083830423,-7.67479205624996,0
 -43.084405535,-7.67393827825002,0
 -43.087283185,-7.6713078992499,0
 -43.11762807,-7.65548094924945,0
 -43.1280982739999,-7.6500183412492,0
 -43.1963891419999,-7.61436945924809,0
 -43.207274974,-7.62420768724845,0
 -43.2863401339999,-7.69567515225078,0
 -43.3038658349999,-7.71151673725119,0
 -43.367141681,-7.70157273225087,0
 -43.507286187,-7.67954856925023,0
 -43.480118992,-7.57874745324698,0
 -43.473470959,-7.55409355724618,0
 -43.4201138549999,-7.50042296324448,0
 -43.3249436899999,-7.40401088624147,0
 -43.225546495,-7.28342857123753,0
 -43.14766992,-7.22209255623567,0
 -43.126556382,-7.24888504123648,0
 -43.1261619930001,-7.24938584923653,0
 -43.075005515,-7.31425721223861,0
 -43.03789356,-7.32296936223888,0
 -43.033316552,-7.32404229623884,0
 -42.897637501,-7.35584608723995,0
 -42.897541804,-7.35586862323986,0
 -42.885009452,-7.35880205524002,0
 -42.842318335,-7.35435736723979,0</coordinates>
        </LineString>
      </Placemark>
    </Folder>
  </Document>
</kml>