<kml xmlns:xsd="http://schemas.opengis.net/kml/2.2.0/ogckml22.xsd" xmlns:xmlns="http://www.opengis.net/kml/2.2/" version="1.0">
  <Document>
    <name>CRATEUS</name>
    <open>1</open>
    <Folder>
      <name>2304103</name>
      <Style id="line1">
        <LineStyle>
          <color>#ff000000</color>
          <width>3</width>
        </LineStyle>
        <BalloonStyle>
          <text>$[description]</text>
        </BalloonStyle>
      </Style>
      <Placemark>
        <name>7</name>
        <styleUrl>#line1</styleUrl>
        <LineString>
          <extrude>0</extrude>
          <altitudeMode>clampToGround</altitudeMode>
          <coordinates>-40.414564439,-5.2293340661714,0
 -40.479460853,-5.27428214517295,0
 -40.4814439540001,-5.2796114661731,0
 -40.481444045,-5.27961171017303,0
 -40.487264089,-5.2952565871736,0
 -40.4872641649999,-5.29525679317361,0
 -40.5003566129999,-5.33045600217465,0
 -40.523847194,-5.3897148301766,0
 -40.5238473,-5.38971482817669,0
 -40.523847526,-5.3897148251766,0
 -40.53955428,-5.38947566717662,0
 -40.540055998,-5.39096796517664,0
 -40.542945988,-5.3935354631768,0
 -40.545086076,-5.3963403781768,0
 -40.547436363,-5.39790048317691,0
 -40.547436469,-5.39790055317692,0
 -40.5488005359999,-5.39880601217696,0
 -40.550739259,-5.40165509417707,0
 -40.55056486,-5.40471833817721,0
 -40.549392715,-5.40659539917718,0
 -40.54921943,-5.40932501217725,0
 -40.550268643,-5.41267435617736,0
 -40.554581113,-5.41932416017769,0
 -40.555125119,-5.42133778817777,0
 -40.5553637409999,-5.42336506617772,0
 -40.555193883,-5.42501465017779,0
 -40.554707623,-5.42669208817776,0
 -40.554707542,-5.42669236917787,0
 -40.554707477,-5.42669259317789,0
 -40.554707524,-5.42669259317789,0
 -40.596614934,-5.42668336417783,0
 -40.603824088,-5.42668177617779,0
 -40.603824183,-5.42668177517788,0
 -40.603824286,-5.42668177617779,0
 -40.6425075989999,-5.42667325717789,0
 -40.64250777,-5.42667325717789,0
 -40.64606657,-5.4266723161779,0
 -40.647619118,-5.42988925617797,0
 -40.6485021039999,-5.43293770317805,0
 -40.650790936,-5.43507502417814,0
 -40.650722738,-5.43650639217818,0
 -40.649519544,-5.43803835617819,0
 -40.6496623049999,-5.43911759717822,0
 -40.651602199,-5.44039321417834,0
 -40.654837717,-5.44052371117839,0
 -40.6570217029999,-5.44158091617838,0
 -40.658890424,-5.44353492517841,0
 -40.65936872,-5.44647353617846,0
 -40.6610354759999,-5.44833692817853,0
 -40.6663608659999,-5.44933690017859,0
 -40.669027914,-5.44781351017848,0
 -40.6712010899999,-5.44742262817856,0
 -40.6727971679999,-5.44761027217854,0
 -40.6764758219999,-5.44939379117859,0
 -40.682501538,-5.44931224017859,0
 -40.684548663,-5.45003453517857,0
 -40.685162347,-5.45289532217867,0
 -40.684759005,-5.4561076451788,0
 -40.684439859,-5.45753819617886,0
 -40.682945062,-5.46019407617896,0
 -40.681951161,-5.46667594017917,0
 -40.681951156,-5.46667597417908,0
 -40.681951149,-5.46667602117918,0
 -40.681951329,-5.4666761131791,0
 -40.691506581,-5.47156757517934,0
 -40.691565828,-5.47156015417935,0
 -40.691565952,-5.47155992917933,0
 -40.692098411,-5.47059573017931,0
 -40.691586605,-5.46565920217907,0
 -40.69239572,-5.46395557217906,0
 -40.695247731,-5.46284123117906,0
 -40.6977863840001,-5.46402433617907,0
 -40.700411786,-5.46367579117909,0
 -40.70254278,-5.46452332117905,0
 -40.706543364,-5.4670874531792,0
 -40.710495524,-5.46782895517927,0
 -40.71581964,-5.4678882841792,0
 -40.718307736,-5.46686106817912,0
 -40.721198796,-5.46480920117908,0
 -40.722552348,-5.46293294717909,0
 -40.7246338,-5.46224660117897,0
 -40.731213268,-5.46758928817916,0
 -40.731362515,-5.47184217017932,0
 -40.7310074339999,-5.47431172517938,0
 -40.731792949,-5.4799297131796,0
 -40.731354177,-5.48503412417979,0
 -40.7320368969999,-5.48622405717975,0
 -40.73376047,-5.48652646717981,0
 -40.7403194359999,-5.48526652917975,0
 -40.743581375,-5.48559772717979,0
 -40.746337806,-5.48303626817969,0
 -40.751044539,-5.4822559061797,0
 -40.7529863349999,-5.48071723017957,0
 -40.762086054,-5.48047589017958,0
 -40.762086486,-5.48047587817958,0
 -40.762608749,-5.48046202717959,0
 -40.762608926,-5.4804621221796,0
 -40.762609016,-5.48046217017961,0
 -40.7634382229999,-5.48090720417957,0
 -40.766171522,-5.48331851417969,0
 -40.767759245,-5.48416506617965,0
 -40.770763102,-5.48477516917977,0
 -40.772201444,-5.48636655517973,0
 -40.771998609,-5.49428049018003,0
 -40.772363282,-5.49504433118008,0
 -40.773177521,-5.49504251918002,0
 -40.774398563,-5.49384767318001,0
 -40.776025194,-5.49316202418004,0
 -40.779107021,-5.49391927718008,0
 -40.78377116,-5.49407536118002,0
 -40.784948715,-5.49373155417999,0
 -40.786760165,-5.49398119218004,0
 -40.791071368,-5.49711583618015,0
 -40.793922118,-5.49710944418006,0
 -40.797097328,-5.49317824718005,0
 -40.798432731,-5.49231525617987,0
 -40.801847626,-5.49146176317996,0
 -40.803562165,-5.48966930617979,0
 -40.807314714,-5.48994124217991,0
 -40.807315117,-5.48994127117992,0
 -40.810311154,-5.4901590131799,0
 -40.81229945,-5.48887817017988,0
 -40.812476776,-5.48776987917984,0
 -40.811794113,-5.48640870417975,0
 -40.811879265,-5.48453706017979,0
 -40.8134075479998,-5.48129877817955,0
 -40.815262729,-5.4803569051796,0
 -40.817445821,-5.48045485817962,0
 -40.819531111,-5.48121428517958,0
 -40.823931364,-5.48400974117968,0
 -40.825304293,-5.48433266217975,0
 -40.8270570169999,-5.48381595017963,0
 -40.8270573289999,-5.48381585817971,0
 -40.830221708,-5.48288358017967,0
 -40.835294515,-5.48320826417962,0
 -40.837962833,-5.48243350717964,0
 -40.840710283,-5.48264396917974,0
 -40.842307499,-5.48157036817964,0
 -40.842758062,-5.4806317151796,0
 -40.844609642,-5.47960583817954,0
 -40.845516866,-5.4796023461796,0
 -40.848419685,-5.4815505601796,0
 -40.852583577,-5.48146783717959,0
 -40.853511479,-5.48223861817969,0
 -40.854865883,-5.48562385117974,0
 -40.855284984,-5.48581546817978,0
 -40.855285161,-5.4858155491797,0
 -40.8552852679999,-5.48581559817971,0
 -40.857082974,-5.48663752717977,0
 -40.85739193,-5.48677878417973,0
 -40.857480461,-5.48699101017979,0
 -40.858844349,-5.49026049317995,0
 -40.861411882,-5.49124431717991,0
 -40.862214987,-5.49155205017996,0
 -40.862442185,-5.49163910817997,0
 -40.863341101,-5.49198355317996,0
 -40.863853709,-5.49217997317996,0
 -40.863868,-5.49219174317996,0
 -40.864261036,-5.49251543018001,0
 -40.865609638,-5.49362608117998,0
 -40.866077883,-5.49367592318001,0
 -40.866605511,-5.49373208618004,0
 -40.8670009149999,-5.49377417418006,0
 -40.867071756,-5.49378171418006,0
 -40.868661307,-5.49395091218003,0
 -40.868661526,-5.49395093618003,0
 -40.868661702,-5.49395095418003,0
 -40.8691657839999,-5.49400461118003,0
 -40.874008121,-5.49369848618002,0
 -40.882953584,-5.48727906017982,0
 -40.885011469,-5.48659496217979,0
 -40.886764421,-5.48687835917971,0
 -40.890726819,-5.48522121417982,0
 -40.891959743,-5.48376135317973,0
 -40.893081512,-5.48027254517955,0
 -40.894366626,-5.47959123917958,0
 -40.8992085429999,-5.47909332017959,0
 -40.900442238,-5.47841000217954,0
 -40.900801532,-5.47763398917954,0
 -40.899455213,-5.47570121517941,0
 -40.89930767,-5.47455637017936,0
 -40.899922955,-5.47387756517942,0
 -40.899949254,-5.47387763017943,0
 -40.899956861,-5.47387760317942,0
 -40.90851456,-5.47384781717945,0
 -40.90851461,-5.47384781717945,0
 -40.918440218,-5.47381326917943,0
 -40.918471003,-5.47381316217943,0
 -40.918470935,-5.47381300417941,0
 -40.916103607,-5.4683349859292,0
 -40.9158579369999,-5.46651055217907,0
 -40.915813613,-5.46618138617911,0
 -40.915813603,-5.4661813081791,0
 -40.916192454,-5.46382145617907,0
 -40.92120178,-5.45084594717856,0
 -40.922583198,-5.44824101017851,0
 -40.9251454499999,-5.44664841617854,0
 -40.932089441,-5.44334110817845,0
 -40.9360725124999,-5.44009181617827,0
 -40.937020889,-5.4385720701783,0
 -40.937020925,-5.43857201017829,0
 -40.941764546,-5.43097048317799,0
 -40.943803418,-5.42358633617773,0
 -40.9435309009999,-5.42164359717776,0
 -40.942461318,-5.41970614217759,0
 -40.94025806,-5.41731815117753,0
 -40.938191582,-5.41635339017747,0
 -40.93506552,-5.41629824517752,0
 -40.93054551,-5.41754324217751,0
 -40.9273514929999,-5.41774757117754,0
 -40.921295847,-5.41744290917755,0
 -40.917699196,-5.41629078317753,0
 -40.915297656,-5.41422408417741,0
 -40.911549383,-5.40737663817716,0
 -40.912919038,-5.39805127817696,0
 -40.91489962,-5.39314377617671,0
 -40.917016148,-5.3894476711767,0
 -40.922118088,-5.3832159671765,0
 -40.929042599,-5.37582659517625,0
 -40.934316136,-5.36914468167597,0
 -40.936103206,-5.36596751417586,0
 -40.936092826,-5.36286044417582,0
 -40.934393748,-5.35140808117539,0
 -40.933722275,-5.34940431817525,0
 -40.930849528,-5.34552992417522,0
 -40.9235874619999,-5.34186248217518,0
 -40.918452918,-5.33825518517496,0
 -40.9184529,-5.33825511517495,0
 -40.9135457229999,-5.31960421717436,0
 -40.9121249152499,-5.31420409767409,0
 -40.912509262,-5.3094139601741,0
 -40.912509274,-5.30941380717408,0
 -40.91273345,-5.30897502117411,0
 -40.9132053509999,-5.30805121017396,0
 -40.9134812359998,-5.30786470917398,0
 -40.923459372,-5.30111940017383,0
 -40.926907648,-5.29696674417361,0
 -40.926757417,-5.29204704017342,0
 -40.926153608,-5.2902370721735,0
 -40.923154039,-5.28830294217335,0
 -40.921944303,-5.28435773517332,0
 -40.924447542,-5.27651814417304,0
 -40.924243327,-5.27483719817287,0
 -40.921240937,-5.27180476517287,0
 -40.919642215,-5.27116108017282,0
 -40.912790499,-5.27131154417283,0
 -40.911858532,-5.27092483617281,0
 -40.910991748,-5.26989242117274,0
 -40.911207187,-5.26795306017277,0
 -40.9117130679999,-5.26665346917262,0
 -40.918852387,-5.26209747217243,0
 -40.921460584,-5.25646208817236,0
 -40.92265258,-5.25497014517228,0
 -40.929883904,-5.24886114917211,0
 -40.933065552,-5.24522681417196,0
 -40.935900912,-5.24328950617189,0
 -40.935920989,-5.24327578817191,0
 -40.9393706349999,-5.24274849817189,0
 -40.939377001,-5.2427475251719,0
 -40.9411033389999,-5.24196450917186,0
 -40.942230164,-5.24047455417186,0
 -40.941691458,-5.23872590017177,0
 -40.940398025,-5.23776683617174,0
 -40.939691777,-5.23724377817162,0
 -40.934170586,-5.23687318617169,0
 -40.9312555449999,-5.23528608517164,0
 -40.926621503,-5.23208602017146,0
 -40.923238953,-5.22913891917142,0
 -40.922028033,-5.22645110417134,0
 -40.922619204,-5.22400354617133,0
 -40.9250072629999,-5.2200269021712,0
 -40.925007339,-5.2200267751711,0
 -40.924660467,-5.21546289617095,0
 -40.9254495,-5.21248154017083,0
 -40.930017146,-5.20541203417068,0
 -40.931998861,-5.20126365517054,0
 -40.932044275,-5.19875467417043,0
 -40.930328713,-5.1927525561703,0
 -40.92789939,-5.18701030217009,0
 -40.926432843,-5.1857844451701,0
 -40.925290258,-5.18209673216989,0
 -40.92560737,-5.17685336916975,0
 -40.9289639729999,-5.17170794716954,0
 -40.928987709,-5.17167156216955,0
 -40.93180982,-5.16906851316956,0
 -40.934472938,-5.16738738316946,0
 -40.934491117,-5.16737590716949,0
 -40.937746238,-5.16658871916945,0
 -40.948384599,-5.16733342316943,0
 -40.948390522,-5.16733383816947,0
 -40.949320237,-5.16687638916945,0
 -40.957332715,-5.15560782116906,0
 -40.958493796,-5.15451923716896,0
 -40.9619741885,-5.15125776966889,0
 -40.964391457,-5.1501893371689,0
 -40.964594342,-5.15009966216894,0
 -40.964630928,-5.15008349116894,0
 -40.9684194929999,-5.14936027516878,0
 -40.974937335,-5.1495343831688,0
 -40.977002626,-5.15043350516894,0
 -40.980404441,-5.15353192716898,0
 -40.982436138,-5.15352284016902,0
 -40.9824623869999,-5.15352272316902,0
 -40.984453039,-5.15131657316891,0
 -40.9862205329999,-5.14218491516866,0
 -40.987012191,-5.14036922516862,0
 -40.988603622,-5.13874666216849,0
 -40.990939248,-5.13770596816853,0
 -40.9909735909999,-5.13769066616851,0
 -40.995079947,-5.13666357416844,0
 -40.9951148609999,-5.13665484116842,0
 -41.000075833,-5.13045224116823,0
 -41.000081644,-5.13044497616825,0
 -41.0051488499999,-5.12904969116827,0
 -41.00517213,-5.12904328116818,0
 -41.00913211,-5.12672755116807,0
 -41.011835847,-5.12360112916802,0
 -41.013110346,-5.10851835016751,0
 -41.014075151,-5.1058053821674,0
 -41.015921307,-5.10466789916743,0
 -41.015951627,-5.1046492181674,0
 -41.017483765,-5.1048478571674,0
 -41.020224017,-5.10626878216755,0
 -41.02188772,-5.10788545516755,0
 -41.0235514219999,-5.10950212716756,0
 -41.025083858,-5.11003943716761,0
 -41.026366659,-5.10970684316762,0
 -41.026405172,-5.1096968581676,0
 -41.029723927,-5.10232246516725,0
 -41.032823117,-5.09269465716699,0
 -41.033992552,-5.09107590416699,0
 -41.0340010199999,-5.091064182167,0
 -41.0377580169999,-5.09044297416693,0
 -41.040266361,-5.09138385016698,0
 -41.043335676,-5.0938800531671,0
 -41.050404639,-5.10226445016734,0
 -41.052413751,-5.1034028941673,0
 -41.053774429,-5.10319806816732,0
 -41.053802664,-5.10319381816732,0
 -41.058565693,-5.09860458516722,0
 -41.058577118,-5.09859357716728,0
 -41.0673381079999,-5.09680383316717,0
 -41.069729277,-5.09586359816709,0
 -41.06976961,-5.0958477391672,0
 -41.072753845,-5.09299279616705,0
 -41.074528503,-5.09212171316693,0
 -41.074559684,-5.09210640816699,0
 -41.080097374,-5.091097518167,0
 -41.0801250759999,-5.09109247116694,0
 -41.081303074,-5.09007289816696,0
 -41.081921749,-5.08763279916685,0
 -41.080162853,-5.08055322816658,0
 -41.080432377,-5.07869112616652,0
 -41.0825122759999,-5.07662840716647,0
 -41.082513605,-5.07662708916654,0
 -41.084042073,-5.07602510516647,0
 -41.084082073,-5.07600935116641,0
 -41.0873476389999,-5.07331476616648,0
 -41.087347714,-5.07331470416638,0
 -41.0870427349999,-5.06898910516624,0
 -41.088168031,-5.06561314816615,0
 -41.089291126,-5.06377463516609,0
 -41.090297727,-5.06306980816613,0
 -41.090312169,-5.06305969616609,0
 -41.095825696,-5.06162685416602,0
 -41.095864149,-5.06161686116599,0
 -41.096512682,-5.06018367216598,0
 -41.096568011,-5.05367280816568,0
 -41.096568018,-5.05367193816579,0
 -41.0969911739999,-5.05316526916579,0
 -41.097005183,-5.05314849416573,0
 -41.101322852,-5.05306375416573,0
 -41.106646444,-5.05368146016568,0
 -41.106653734,-5.05368230616567,0
 -41.111820014,-5.05097272716565,0
 -41.111837907,-5.05096334316568,0
 -41.115931865,-5.04962053316559,0
 -41.123991764,-5.04818764216552,0
 -41.126621862,-5.04796501916557,0
 -41.1319705569999,-5.04856586116555,0
 -41.132018798,-5.04857128016555,0
 -41.132019724,-5.04857138416556,0
 -41.131875815,-5.04805601516555,0
 -41.129620247,-5.03998136116527,0
 -41.128156324,-5.03781985316531,0
 -41.127540989,-5.03589088416522,0
 -41.125021429,-5.03239277316516,0
 -41.123755741,-5.02924618816495,0
 -41.121846183,-5.02677006416489,0
 -41.121226103,-5.02394650916468,0
 -41.121184105,-5.02386911916476,0
 -41.108255758,-5.0239070231647,0
 -41.10391221,-5.02391975816478,0
 -41.051857355,-5.02407237516479,0
 -41.051824253,-5.0240724721648,0
 -41.031429132,-5.02003937716461,0
 -41.031428903,-5.0200393321647,0
 -41.031428405,-5.02003923416469,0
 -41.03108798,-5.01997216116465,0
 -41.0310877209999,-5.01997211016464,0
 -40.875649003,-4.98923697816366,0
 -40.8756484789999,-4.98923687416374,0
 -40.865262119,-4.98718422516364,0
 -40.865261503,-4.98718410316363,0
 -40.831486362,-4.98050435416339,0
 -40.826838783,-4.97920910416333,0
 -40.82683822,-4.97920894716332,0
 -40.7798114859999,-4.96610325116288,0
 -40.779811079,-4.96610313816287,0
 -40.7154952509999,-4.9481792091623,0
 -40.715495045,-4.94817915216238,0
 -40.715177915,-4.94809104916238,0
 -40.714829108,-4.9479935331623,0
 -40.714829073,-4.9479935541623,0
 -40.652227674,-4.98580464116362,0
 -40.635980555,-4.92475870116159,0
 -40.6357780929999,-4.92473885216155,0
 -40.594740502,-4.95063391516246,0
 -40.566979389,-5.01894154116464,0
 -40.566979246,-5.01894189216467,0
 -40.566978958,-5.01894190316467,0
 -40.5657977019999,-5.0189851401646,0
 -40.564427256,-5.01792157316462,0
 -40.556622203,-5.01444132216444,0
 -40.554672341,-5.01456514016446,0
 -40.549924373,-5.01608798816461,0
 -40.548768742,-5.01588350316448,0
 -40.546723803,-5.01455384616451,0
 -40.544562685,-5.01447094116449,0
 -40.541359586,-5.01323165416454,0
 -40.538403023,-5.01344880616447,0
 -40.535152117,-5.01532363516452,0
 -40.5305239529999,-5.0159869071646,0
 -40.521111821,-5.02196004516473,0
 -40.5142955169999,-5.02136975516474,0
 -40.5115293169999,-5.02347749216469,0
 -40.50998958,-5.02412861116483,0
 -40.5060416669999,-5.02408876816482,0
 -40.504649972,-5.02499190616485,0
 -40.501947198,-5.02798525716489,0
 -40.50132622,-5.03080048416503,0
 -40.495585849,-5.03579532216522,0
 -40.492351645,-5.0368556231652,0
 -40.479433307,-5.03948369916531,0
 -40.472145837,-5.04160049116539,0
 -40.469118589,-5.04280813516539,0
 -40.464929495,-5.0455154171654,0
 -40.462928136,-5.04602130216551,0
 -40.457072438,-5.04623517316553,0
 -40.454349862,-5.04574085716548,0
 -40.451625558,-5.04434634716548,0
 -40.450802847,-5.04319808416542,0
 -40.449417387,-5.03546282816515,0
 -40.448932365,-5.03493825816509,0
 -40.448200328,-5.03462162516509,0
 -40.447430037,-5.03453651316516,0
 -40.446544344,-5.03466288016504,0
 -40.444068537,-5.03598360816525,0
 -40.439097707,-5.0414964861654,0
 -40.437721466,-5.04520009916542,0
 -40.432807182,-5.04849476916553,0
 -40.432137432,-5.05111543516565,0
 -40.432137383,-5.05111562816558,0
 -40.43189058,-5.05208089216568,0
 -40.4305601849999,-5.0543343941658,0
 -40.430412331,-5.05607524316577,0
 -40.423156252,-5.06348514716603,0
 -40.422411822,-5.06460141016611,0
 -40.4219647799999,-5.06581523616617,0
 -40.42200005,-5.06856803416621,0
 -40.421611266,-5.07140894716635,0
 -40.417270886,-5.07610197616652,0
 -40.413016974,-5.07960975216658,0
 -40.404104267,-5.08356555516669,0
 -40.4026694079999,-5.08562026516678,0
 -40.402342925,-5.09008887216694,0
 -40.399981639,-5.09273063816713,0
 -40.395568234,-5.09380908816701,0
 -40.38737247,-5.09736958316708,0
 -40.380452785,-5.09900668116718,0
 -40.378152608,-5.10135462716738,0
 -40.37659674,-5.10239486016729,0
 -40.374508496,-5.10302209116733,0
 -40.373840894,-5.10432604316739,0
 -40.373817965,-5.10614733616745,0
 -40.374562388,-5.10760534216747,0
 -40.376923588,-5.10900965516758,0
 -40.377314975,-5.11094333116761,0
 -40.37553003,-5.1121036791677,0
 -40.3732482089999,-5.11547825616775,0
 -40.373248125,-5.11547838016777,0
 -40.373291573,-5.11559715316773,0
 -40.373291624,-5.11559729516775,0
 -40.3910426219999,-5.1644969001694,0
 -40.391042781,-5.16449733716934,0
 -40.391965478,-5.16703963116946,0
 -40.391965557,-5.16703985016948,0
 -40.414564439,-5.2293340661714,0</coordinates>
        </LineString>
      </Placemark>
    </Folder>
  </Document>
</kml>