<kml xmlns:xsd="http://schemas.opengis.net/kml/2.2.0/ogckml22.xsd" xmlns:xmlns="http://www.opengis.net/kml/2.2/" version="1.0">
  <Document>
    <name>ICO</name>
    <open>1</open>
    <Folder>
      <name>2305407</name>
      <Style id="line1">
        <LineStyle>
          <color>#ff000000</color>
          <width>3</width>
        </LineStyle>
        <BalloonStyle>
          <text>$[description]</text>
        </BalloonStyle>
      </Style>
      <Placemark>
        <name>8</name>
        <styleUrl>#line1</styleUrl>
        <LineString>
          <extrude>0</extrude>
          <altitudeMode>clampToGround</altitudeMode>
          <coordinates>-38.601472453,-6.17666332620205,0
 -38.599675892,-6.17750471320213,0
 -38.599001481,-6.17940089920216,0
 -38.598663107,-6.18182256220225,0
 -38.600007516,-6.18477246620234,0
 -38.5973115199999,-6.18792977420237,0
 -38.592934165,-6.18992826620252,0
 -38.5922574319999,-6.19582453820268,0
 -38.591357331,-6.19645596020279,0
 -38.590345263,-6.19887782620271,0
 -38.588773163,-6.20119313520279,0
 -38.584955758,-6.20392822120296,0
 -38.582710129,-6.20624283320307,0
 -38.579455813,-6.20761044120299,0
 -38.571375572,-6.20802495820309,0
 -38.572494497,-6.21118494020325,0
 -38.57238235,-6.21297523920322,0
 -38.5715486519999,-6.21485687020331,0
 -38.571547847,-6.21485868720328,0
 -38.568559383,-6.22160684020358,0
 -38.5637297019999,-6.22634264720364,0
 -38.561033506,-6.22971183120379,0
 -38.557666354,-6.2307595952038,0
 -38.55475006,-6.23075837720388,0
 -38.552840515,-6.23191449420388,0
 -38.552166256,-6.23359967920396,0
 -38.549698342,-6.2331781732039,0
 -38.5496973749999,-6.23317800820388,0
 -38.548169748,-6.23220760920379,0
 -38.544873978,-6.2301177322038,0
 -38.543916681,-6.22979958820368,0
 -38.542967429,-6.22948411920369,0
 -38.540049988,-6.2291139482037,0
 -38.537132561,-6.22874377920372,0
 -38.526306006,-6.22425766420362,0
 -38.526248314,-6.22424698920354,0
 -38.52624821,-6.22424697020362,0
 -38.519711764,-6.22303755820356,0
 -38.5234423859999,-6.22831888320373,0
 -38.524708043,-6.23286621720393,0
 -38.5282026149998,-6.23673211420396,0
 -38.528202661,-6.23673288320403,0
 -38.528347977,-6.23917622820413,0
 -38.528965348,-6.23987027320409,0
 -38.528965367,-6.23987029420409,0
 -38.531597428,-6.24154074320419,0
 -38.5357567920001,-6.24539428520427,0
 -38.538465329,-6.24689674820433,0
 -38.54086537,-6.24618082820442,0
 -38.542916603,-6.24670807220435,0
 -38.542926926,-6.24671072520439,0
 -38.5446404739999,-6.24560611020421,0
 -38.544660084,-6.24559346920432,0
 -38.5458511969999,-6.24542642920427,0
 -38.548548704,-6.25069675420441,0
 -38.550147697,-6.25731984320458,0
 -38.551904231,-6.25921453020467,0
 -38.553473627,-6.25921630920473,0
 -38.554278538,-6.25974730120471,0
 -38.554801128,-6.26154848820479,0
 -38.554420966,-6.26339563220494,0
 -38.559787116,-6.26716275020497,0
 -38.562912042,-6.26795877520502,0
 -38.565009677,-6.26849336120511,0
 -38.56971783,-6.27153559520512,0
 -38.572660464,-6.27412258220529,0
 -38.575321304,-6.27775029620533,0
 -38.576223612,-6.27834963420536,0
 -38.579092822,-6.27908262520535,0
 -38.579545663,-6.2796264042054,0
 -38.578714266,-6.28030664820546,0
 -38.577128154,-6.28160439320546,0
 -38.576029706,-6.2835220792055,0
 -38.57599858,-6.28352547220551,0
 -38.573082578,-6.28384334120553,0
 -38.571513039,-6.28444305120549,0
 -38.57151298,-6.28444385720547,0
 -38.57102557,-6.29112632520576,0
 -38.570377364,-6.29295021720576,0
 -38.57003759,-6.29438036920588,0
 -38.570550102,-6.29884025420603,0
 -38.570296421,-6.29999344620606,0
 -38.569494902,-6.3004866032061,0
 -38.569478621,-6.30048846920607,0
 -38.566628793,-6.30081515120601,0
 -38.566624936,-6.30082643920606,0
 -38.566022684,-6.30258866520612,0
 -38.566717825,-6.30441506520624,0
 -38.571380891,-6.3059549502062,0
 -38.575296081,-6.30863482620633,0
 -38.576712766,-6.31048979420643,0
 -38.578663766,-6.3147630942065,0
 -38.580605659,-6.31551718720655,0
 -38.581296235,-6.3162101782066,0
 -38.582098522,-6.31927277120669,0
 -38.580712462,-6.32538136320683,0
 -38.581542289,-6.33104607520702,0
 -38.579718762,-6.3351144572072,0
 -38.578907258,-6.3415790772074,0
 -38.577075353,-6.34742753720751,0
 -38.574292387,-6.34860666920764,0
 -38.57428693,-6.34860807220767,0
 -38.568072262,-6.35020640920767,0
 -38.568043606,-6.35021913620765,0
 -38.564427659,-6.35182512720775,0
 -38.563187764,-6.3527498932077,0
 -38.562611858,-6.35464442220787,0
 -38.562611798,-6.3546446182078,0
 -38.562857176,-6.35555189720782,0
 -38.562505941,-6.35565169420781,0
 -38.563308198,-6.35603202320784,0
 -38.56330837,-6.35603217220785,0
 -38.564006117,-6.35636296970782,0
 -38.565259195,-6.35669348920795,0
 -38.566737503,-6.35708341520797,0
 -38.567353272,-6.36152547320798,0
 -38.569222128,-6.36206569620809,0
 -38.573969094,-6.36192919820799,0
 -38.57607531,-6.36269193620812,0
 -38.577103072,-6.36424354120808,0
 -38.576871866,-6.36565495520824,0
 -38.5768717999999,-6.36565510620816,0
 -38.5759331529999,-6.36781787320832,0
 -38.572793708,-6.37118678220835,0
 -38.572793609,-6.37118688820836,0
 -38.57227457,-6.37230966820836,0
 -38.572217602,-6.37322574020848,0
 -38.573108052,-6.37491836220846,0
 -38.576131692,-6.37539947520839,0
 -38.576131781,-6.37539944720848,0
 -38.579613008,-6.37431066020845,0
 -38.582963283,-6.37404408920843,0
 -38.583856185,-6.37441826220847,0
 -38.585050276,-6.37620704420851,0
 -38.588246584,-6.37601023620848,0
 -38.592466291,-6.37824614620856,0
 -38.592797708,-6.37892003620863,0
 -38.592967727,-6.37926574420863,0
 -38.593156963,-6.38141370120863,0
 -38.593157007,-6.38141420520859,0
 -38.594943419,-6.38657006520877,0
 -38.598909179,-6.38723566520886,0
 -38.60073988,-6.38796098120883,0
 -38.602047277,-6.38962221520888,0
 -38.602047305,-6.3896224312089,0
 -38.602214394,-6.39089443220899,0
 -38.60221448,-6.39089508320904,0
 -38.601801542,-6.39171104220896,0
 -38.594127954,-6.39686161020915,0
 -38.592341706,-6.39659830320912,0
 -38.591730273,-6.39655977320923,0
 -38.59156037,-6.39654906720914,0
 -38.591356898,-6.39652430220913,0
 -38.591195242,-6.3965046242091,0
 -38.5910692197499,-6.39648928120916,0
 -38.590478195,-6.39618331520916,0
 -38.5893200259999,-6.3955837442092,0
 -38.5871749529999,-6.39427406520902,0
 -38.587174485,-6.39427378120909,0
 -38.587143083,-6.39429237020912,0
 -38.5835713709999,-6.39640673220917,0
 -38.5835554850001,-6.39640930020912,0
 -38.583236938,-6.39646079620912,0
 -38.581546509,-6.39673406920917,0
 -38.581542019,-6.39674289820919,0
 -38.581101874,-6.39760838920921,0
 -38.582215754,-6.39935392220922,0
 -38.582357288,-6.40031071520925,0
 -38.580994157,-6.40176356120929,0
 -38.580958966,-6.40177561620931,0
 -38.5777249699999,-6.4028834462094,0
 -38.57344675,-6.40379251320939,0
 -38.5719683899999,-6.40410664520945,0
 -38.569075002,-6.40288583120933,0
 -38.565436832,-6.40006475020924,0
 -38.564352964,-6.39972771020924,0
 -38.558801262,-6.40025907920924,0
 -38.554960859,-6.40016248920924,0
 -38.551522524,-6.39816718220926,0
 -38.548660644,-6.39886293720919,0
 -38.5486605409999,-6.39886302720928,0
 -38.54865135,-6.39887106220924,0
 -38.544774146,-6.4022607882094,0
 -38.544757012,-6.40225845220938,0
 -38.542715498,-6.40198010120935,0
 -38.538131848,-6.39932554520927,0
 -38.536269589,-6.39898160020923,0
 -38.533491171,-6.3975834752092,0
 -38.532934927,-6.39685230220918,0
 -38.532685622,-6.39552154020912,0
 -38.532213553,-6.394317888209,0
 -38.531477104,-6.3935064142091,0
 -38.53083318,-6.39312628720909,0
 -38.5293998859999,-6.39288999320907,0
 -38.529371796,-6.39290671520913,0
 -38.526313865,-6.39472712620911,0
 -38.524520445,-6.39611199720913,0
 -38.524798103,-6.40121579420935,0
 -38.524797964,-6.40121589920936,0
 -38.518856577,-6.40573179520944,0
 -38.51793217,-6.40682226120951,0
 -38.517932136,-6.40682230120952,0
 -38.5179093419999,-6.4087317172095,0
 -38.518712573,-6.40934088020963,0
 -38.519759483,-6.40934633720955,0
 -38.519771388,-6.40934639920964,0
 -38.523439341,-6.40722479620951,0
 -38.523460056,-6.4072128142095,0
 -38.524516845,-6.40708305620951,0
 -38.5245176179999,-6.4070829612095,0
 -38.530019626,-6.41220971820967,0
 -38.533965455,-6.41765103620985,0
 -38.536235141,-6.4198543932099,0
 -38.538412636,-6.42126584920998,0
 -38.542609105,-6.42283918820996,0
 -38.542609234,-6.42283931020997,0
 -38.5470434,-6.42701782121011,0
 -38.551658402,-6.43020292321021,0
 -38.5516585359999,-6.43020301521022,0
 -38.554265385,-6.43276306821029,0
 -38.55544527,-6.43750977221046,0
 -38.55601845,-6.44175247421059,0
 -38.555800877,-6.44506839821068,0
 -38.556404837,-6.44764259221077,0
 -38.564927886,-6.45119960821091,0
 -38.565655832,-6.45150341021092,0
 -38.567021027,-6.45207333321091,0
 -38.567875391,-6.4529298512109,0
 -38.56981655,-6.45487590421098,0
 -38.5705221599999,-6.45816664921112,0
 -38.56940357,-6.46401836621133,0
 -38.570410106,-6.47019513921151,0
 -38.575777123,-6.47796511721172,0
 -38.578612925,-6.48132901321187,0
 -38.580422081,-6.48330574221191,0
 -38.5823480589999,-6.48541011421194,0
 -38.594972105,-6.50044189221259,0
 -38.5949724609999,-6.50044231521253,0
 -38.598560683,-6.50383668121263,0
 -38.601883679,-6.50572906921271,0
 -38.606406311,-6.50717905321269,0
 -38.606771677,-6.50758716921271,0
 -38.608164718,-6.50981849821277,0
 -38.60840062,-6.51043329121283,0
 -38.612288204,-6.51319132321286,0
 -38.6130132030001,-6.51471310621292,0
 -38.613075721,-6.5201578052131,0
 -38.615567204,-6.52333256121324,0
 -38.61611152,-6.52814523421345,0
 -38.616087224,-6.52817153021341,0
 -38.6154037209999,-6.52891128621341,0
 -38.615367464,-6.52892424021342,0
 -38.613543047,-6.52957608221345,0
 -38.613539553,-6.52957860221338,0
 -38.611887432,-6.53077005921356,0
 -38.611887387,-6.53077011021347,0
 -38.6105200149999,-6.53229304321354,0
 -38.611975904,-6.53289843821354,0
 -38.611978209,-6.53289939621352,0
 -38.61822113,-6.53360762921359,0
 -38.622622356,-6.53017830021336,0
 -38.627191409,-6.53185457721349,0
 -38.631586472,-6.53440968221361,0
 -38.6330808179999,-6.53441006321355,0
 -38.635389621,-6.53523890521365,0
 -38.636495124,-6.53694287321368,0
 -38.637600632,-6.53864685521372,0
 -38.6404707789999,-6.53830260721366,0
 -38.641267242,-6.53886765021369,0
 -38.641552013,-6.54075404521381,0
 -38.6422474299999,-6.54165765321379,0
 -38.647219253,-6.54263498221392,0
 -38.649773513,-6.54574054421392,0
 -38.653439539,-6.54791983021403,0
 -38.656826601,-6.54869325221407,0
 -38.658156059,-6.54696701721397,0
 -38.659937179,-6.54612851121396,0
 -38.661199095,-6.54711310521398,0
 -38.661830038,-6.54760539521403,0
 -38.662460981,-6.54809768521409,0
 -38.66339238,-6.54953372621407,0
 -38.66405064,-6.55054864021411,0
 -38.665335192,-6.55075076021414,0
 -38.666607955,-6.55202442221409,0
 -38.6727633789999,-6.55574982721431,0
 -38.672764023,-6.55575021621434,0
 -38.678248282,-6.5581939192143,0
 -38.680004438,-6.55928663221438,0
 -38.680005241,-6.55928713221442,0
 -38.680005798,-6.55928747921445,0
 -38.682236967,-6.5606748062144,0
 -38.683070412,-6.56109953121446,0
 -38.6860828499999,-6.56193714321449,0
 -38.687139142,-6.56281489421445,0
 -38.687139207,-6.56281494821446,0
 -38.687139827,-6.56281546321451,0
 -38.689713766,-6.56495361621458,0
 -38.695346593,-6.56099858421437,0
 -38.700173955,-6.55838788821445,0
 -38.700175618,-6.55838698921438,0
 -38.70306018,-6.55610591721429,0
 -38.703060825,-6.55610622521431,0
 -38.719677621,-6.5640327942146,0
 -38.7350537359999,-6.57044845521474,0
 -38.735294456,-6.57054889521471,0
 -38.735415932,-6.57059958121472,0
 -38.735492399,-6.57063148721479,0
 -38.735560838,-6.57066004321475,0
 -38.735579353,-6.57066776821477,0
 -38.735577917,-6.57378564821482,0
 -38.736556297,-6.57562512121496,0
 -38.734839734,-6.57746379721495,0
 -38.735084052,-6.58003839221499,0
 -38.736553548,-6.58138816121511,0
 -38.736552957,-6.58273826221509,0
 -38.734468147,-6.58457563021523,0
 -38.732630103,-6.58445233621524,0
 -38.731648879,-6.58580054821515,0
 -38.7345898739999,-6.58788502221532,0
 -38.7376539839999,-6.58886860021534,0
 -38.745738331,-6.59022238821535,0
 -38.748498613,-6.59152035821537,0
 -38.751298053,-6.59205831621547,0
 -38.7527431139999,-6.5936399602155,0
 -38.754545802,-6.59466325121553,0
 -38.755955272,-6.59645711721554,0
 -38.75595566,-6.59645761021558,0
 -38.756520811,-6.59717646821564,0
 -38.756912648,-6.60026607421575,0
 -38.757415828,-6.60121431721578,0
 -38.759655319,-6.60302316021578,0
 -38.761076294,-6.6059798172159,0
 -38.762620015,-6.60709694021588,0
 -38.764765001,-6.60692613221587,0
 -38.7663941429999,-6.6061536212159,0
 -38.76802528,-6.6063285572159,0
 -38.770340763,-6.60753143421594,0
 -38.771884717,-6.60907510721604,0
 -38.773340289,-6.61199624621606,0
 -38.774199928,-6.61251111221603,0
 -38.7759144,-6.6125967672161,0
 -38.777801936,-6.61079613921597,0
 -38.782322852,-6.60810570421594,0
 -38.784327997,-6.60592647821593,0
 -38.791242051,-6.60093679021573,0
 -38.796058441,-6.59940752721559,0
 -38.796380993,-6.59930515021564,0
 -38.797949541,-6.5991372202156,0
 -38.8028804669999,-6.59970558021565,0
 -38.812777785,-6.59793582321559,0
 -38.821214633,-6.59716043321556,0
 -38.8234568349999,-6.59738024821563,0
 -38.830726979,-6.59429646521547,0
 -38.833175701,-6.59436580221561,0
 -38.833177408,-6.59436585021562,0
 -38.83387069,-6.59438534621545,0
 -38.834211177,-6.59600307921554,0
 -38.835230201,-6.59761978021564,0
 -38.840426986,-6.59833971921561,0
 -38.8404287359999,-6.59833996121563,0
 -38.84977335,-6.59810391421564,0
 -38.854740677,-6.5974733882157,0
 -38.858269721,-6.59284684621543,0
 -38.860324739,-6.58921653321535,0
 -38.862886794,-6.58717395421528,0
 -38.868668856,-6.58628709121526,0
 -38.877119329,-6.58175851121511,0
 -38.880269209,-6.58059322721506,0
 -38.8842474269999,-6.58040260521501,0
 -38.8861056269999,-6.58145377421512,0
 -38.888113341,-6.58176604821512,0
 -38.889995873,-6.5808609232151,0
 -38.890580052,-6.58010760021503,0
 -38.893854353,-6.57986134221499,0
 -38.8947203229999,-6.58017608621501,0
 -38.895777869,-6.579970869215,0
 -38.896350352,-6.57924428621501,0
 -38.898575781,-6.57895160821504,0
 -38.9024167859999,-6.57965840321499,0
 -38.903882495,-6.57944758621504,0
 -38.904190805,-6.57813521021508,0
 -38.904915165,-6.57758704521493,0
 -38.908819768,-6.57690778021495,0
 -38.910442016,-6.57789696621499,0
 -38.911001058,-6.5771358172149,0
 -38.913721358,-6.57563923421488,0
 -38.915377911,-6.57531147621494,0
 -38.9158572069999,-6.57449550221484,0
 -38.9165501,-6.56930338021468,0
 -38.918779667,-6.56661257721462,0
 -38.919463339,-6.56565034621458,0
 -38.919706221,-6.56545814521458,0
 -38.925114799,-6.55997574621438,0
 -38.925115476,-6.55997506021441,0
 -38.925115496,-6.55997504021441,0
 -38.9489433969999,-6.53581166121361,0
 -38.94894893,-6.53580605021359,0
 -38.957460225,-6.52717492221337,0
 -38.9574926200001,-6.52714967421332,0
 -38.957492719,-6.52714959721332,0
 -38.963961543,-6.52210789521316,0
 -38.963961671,-6.52210779521315,0
 -38.98710127,-6.5040692162126,0
 -38.98710231,-6.50406840521262,0
 -38.987102335,-6.50406838521262,0
 -39.006713796,-6.48877426121212,0
 -39.006714935,-6.48877337221214,0
 -39.045651694,-6.4583918492111,0
 -39.045658952,-6.45838618721117,0
 -39.045659115,-6.45838605921116,0
 -39.04630255,-6.45788426821112,0
 -39.046308415,-6.45787969421109,0
 -39.046309607,-6.45787876521111,0
 -39.06187304,-6.4457299492107,0
 -39.062472635,-6.44597578521079,0
 -39.06247473,-6.44597664421069,0
 -39.062474923,-6.44597672321078,0
 -39.065979122,-6.44741356321074,0
 -39.069118343,-6.44816750921086,0
 -39.074758729,-6.44868958321089,0
 -39.077063689,-6.44939629021084,0
 -39.079820807,-6.45164474721089,0
 -39.086543584,-6.45214661721094,0
 -39.094627743,-6.4518187952109,0
 -39.095464277,-6.45324277921095,0
 -39.093430994,-6.45772580821115,0
 -39.094425592,-6.45915673321115,0
 -39.0944263439999,-6.45915781521124,0
 -39.096317367,-6.45946512121117,0
 -39.098320341,-6.46110607621124,0
 -39.0995999169999,-6.46093132721126,0
 -39.102046013,-6.46145660621119,0
 -39.102736604,-6.46013708321117,0
 -39.102737684,-6.4583166312111,0
 -39.103623633,-6.45708924721106,0
 -39.104511959,-6.45732535221106,0
 -39.105097916,-6.45826612421109,0
 -39.10534455,-6.46093650321124,0
 -39.1062131539999,-6.46198079421131,0
 -39.10656914,-6.46380696021124,0
 -39.107375382,-6.46500441321137,0
 -39.1088149119999,-6.46464958821133,0
 -39.110019732,-6.46546267021137,0
 -39.111130349,-6.46558256221134,0
 -39.112103927,-6.46354442721128,0
 -39.114100331,-6.46301632021128,0
 -39.116847563,-6.46372337921125,0
 -39.118766439,-6.4627352742113,0
 -39.119612171,-6.46291500421134,0
 -39.120875523,-6.46603264821137,0
 -39.122101691,-6.46676853221141,0
 -39.126435214,-6.46548101821138,0
 -39.128108406,-6.4654631062114,0
 -39.128108643,-6.46546310321131,0
 -39.129199109,-6.46545155721134,0
 -39.130341516,-6.46432583221127,0
 -39.132380889,-6.46320873821131,0
 -39.13497581,-6.46241642721129,0
 -39.134979266,-6.46241226121131,0
 -39.137545126,-6.45926595621122,0
 -39.139730758,-6.45803390721115,0
 -39.142570152,-6.45486289221097,0
 -39.14531908,-6.45393551721098,0
 -39.145240036,-6.45233925421098,0
 -39.1438794180001,-6.44977188721082,0
 -39.145819028,-6.44227188521067,0
 -39.142830418,-6.44008649921059,0
 -39.1405534639999,-6.43761423121049,0
 -39.136057598,-6.43062399521023,0
 -39.134620841,-6.42924517021019,0
 -39.132262627,-6.42841204021027,0
 -39.130140872,-6.42659031721017,0
 -39.13014064,-6.42431357721009,0
 -39.130822346,-6.42294796621007,0
 -39.130973168,-6.42143087720996,0
 -39.13067005,-6.4200647202099,0
 -39.131123819,-6.41885200320984,0
 -39.136692879,-6.41725857020989,0
 -39.139193708,-6.41269722620969,0
 -39.1386633079999,-6.41075830920958,0
 -39.133714671,-6.40896426020947,0
 -39.131691968,-6.4076733192095,0
 -39.130384579,-6.40601555420947,0
 -39.129941596,-6.40179369620938,0
 -39.1271428,-6.40197699520927,0
 -39.124167037,-6.4008630692093,0
 -39.124165373,-6.40086244620934,0
 -39.122806989,-6.39597523220917,0
 -39.120639143,-6.39436350820905,0
 -39.118027798,-6.39056257220897,0
 -39.11802578,-6.39056180720891,0
 -39.116302776,-6.38990860020895,0
 -39.1124128129999,-6.38962553320889,0
 -39.11050205,-6.38855587420894,0
 -39.1051039349999,-6.3820864642087,0
 -39.103082904,-6.38193364820875,0
 -39.09686879,-6.38022116020864,0
 -39.094659406,-6.37885355420863,0
 -39.091627416,-6.37499758020844,0
 -39.089135641,-6.37069908420841,0
 -39.084597328,-6.36705148420815,0
 -39.082437741,-6.36390451320809,0
 -39.081162021,-6.36377698320811,0
 -39.077252896,-6.36635524620818,0
 -39.0763828590001,-6.3674020652082,0
 -39.075746673,-6.36937866020823,0
 -39.073389666,-6.37212093920837,0
 -39.071010051,-6.37409681020844,0
 -39.064583391,-6.37755537920852,0
 -39.0638079359999,-6.3783667122085,0
 -39.063557502,-6.38105228320866,0
 -39.059878439,-6.38485359920877,0
 -39.058806483,-6.38501952420881,0
 -39.056528999,-6.38537298820884,0
 -39.053217413,-6.38421946820879,0
 -39.051750514,-6.38218234720873,0
 -39.0509136119999,-6.38167934220867,0
 -39.044522652,-6.38102654820866,0
 -39.043416833,-6.38040940520867,0
 -39.043182119,-6.38027841420867,0
 -39.0413056330001,-6.37699002920854,0
 -39.040729269,-6.37666350620853,0
 -39.038691041,-6.37550880820847,0
 -39.035937138,-6.37692683320856,0
 -39.033356375,-6.37546407020849,0
 -39.031048017,-6.37649382120852,0
 -39.02971997,-6.37648365020857,0
 -39.028635092,-6.37574448220843,0
 -39.0258551539999,-6.37688080720856,0
 -39.022055646,-6.37660082720849,0
 -39.019166203,-6.37466309420848,0
 -39.01377419,-6.37444859520841,0
 -39.006273811,-6.3764441452085,0
 -39.004136285,-6.37610494920859,0
 -39.001308641,-6.37799203720849,0
 -38.999134763,-6.37817581120851,0
 -38.992522311,-6.37728108320856,0
 -38.991471287,-6.37674323720855,0
 -38.991194837,-6.37567082820846,0
 -38.9903551939999,-6.37532264620843,0
 -38.989774167,-6.37543051120839,0
 -38.987411046,-6.37809195720859,0
 -38.987409879,-6.37809327120852,0
 -38.986565672,-6.3786276022085,0
 -38.984218002,-6.37902946820862,0
 -38.9836920299999,-6.38050700320857,0
 -38.980777216,-6.38012481020857,0
 -38.980664741,-6.37919527320857,0
 -38.981856925,-6.37438357420844,0
 -38.981889424,-6.37237954120837,0
 -38.981304322,-6.3698883842083,0
 -38.983910892,-6.359786755208,0
 -38.983911192,-6.35978559020799,0
 -38.9839112029999,-6.35978552320799,0
 -38.984363281,-6.35698329320785,0
 -38.984408283,-6.35455183420785,0
 -38.984129587,-6.35233260820772,0
 -38.98343949,-6.35032578820768,0
 -38.982557479,-6.34863113420762,0
 -38.981441331,-6.34727020720755,0
 -38.980367223,-6.34626036820757,0
 -38.974410628,-6.3398110502073,0
 -38.9736349359999,-6.33944117520726,0
 -38.9706129199999,-6.33954017820727,0
 -38.968999256,-6.33815577920731,0
 -38.966346483,-6.33714463820722,0
 -38.957696163,-6.33479423620717,0
 -38.956049529,-6.33550028420724,0
 -38.954996723,-6.33679323920719,0
 -38.953289556,-6.33761913420731,0
 -38.9497431519999,-6.33893655520733,0
 -38.947302849,-6.33859781720729,0
 -38.946303247,-6.33785170420728,0
 -38.941084572,-6.33586071420722,0
 -38.939831637,-6.33627859220715,0
 -38.937691225,-6.33832713820727,0
 -38.936108736,-6.33921587720727,0
 -38.934827211,-6.33822047720724,0
 -38.9344978679999,-6.33621720420722,0
 -38.933703385,-6.33547600320718,0
 -38.926861125,-6.33342341220708,0
 -38.9268590849999,-6.33342280020712,0
 -38.925495531,-6.33244963620715,0
 -38.925529908,-6.33171773920699,0
 -38.92646927,-6.33068416420701,0
 -38.926546645,-6.32929494220699,0
 -38.924061104,-6.32517787120687,0
 -38.920999136,-6.31817630720665,0
 -38.917964882,-6.31487660120648,0
 -38.9157589730001,-6.30988225720643,0
 -38.915758368,-6.3098808882064,0
 -38.883937413,-6.32895299320703,0
 -38.883935895,-6.32895390320693,0
 -38.883935824,-6.32895384820701,0
 -38.8407622,-6.29590356920597,0
 -38.8386074389999,-6.29572945620586,0
 -38.837141602,-6.29503791820584,0
 -38.835893529,-6.29374144120586,0
 -38.834684676,-6.29011725620575,0
 -38.831668356,-6.28408830320554,0
 -38.828193235,-6.27999339420548,0
 -38.82577055,-6.2777873662053,0
 -38.82326367,-6.2767451122053,0
 -38.821667884,-6.27467243920523,0
 -38.820463544,-6.27208103120522,0
 -38.8204229869999,-6.27030750720503,0
 -38.820422959,-6.2703062992051,0
 -38.8203879489999,-6.2687722832051,0
 -38.820387925,-6.26877123420501,0
 -38.820992799,-6.267699871205,0
 -38.825940529,-6.26232415120484,0
 -38.827710163,-6.25869866920471,0
 -38.830207031,-6.25180833620446,0
 -38.830603441,-6.24799057920441,0
 -38.830258846,-6.24514259120423,0
 -38.829051992,-6.24376103220431,0
 -38.8285356670001,-6.24229206820419,0
 -38.829441969,-6.24021846620403,0
 -38.8311656969999,-6.23875152920407,0
 -38.831512292,-6.23711076220394,0
 -38.829477425,-6.23299022520398,0
 -38.825199039,-6.21627957420333,0
 -38.825198757,-6.21627847120342,0
 -38.811579331,-6.16310941620156,0
 -38.81157904,-6.16310827920165,0
 -38.800976699,-6.12175472920033,0
 -38.798529389,-6.12218594520039,0
 -38.79369244,-6.12093046820025,0
 -38.790010196,-6.12084278020028,0
 -38.787803923,-6.12053416820024,0
 -38.786598735,-6.11926888120017,0
 -38.786176397,-6.11855989720022,0
 -38.7852750989999,-6.11581896420009,0
 -38.784643279,-6.11504046020008,0
 -38.783714308,-6.11506747920009,0
 -38.781075596,-6.11599244120006,0
 -38.7804929439999,-6.11866735320023,0
 -38.776630406,-6.11940665820021,0
 -38.775132922,-6.12111871820029,0
 -38.7740989109999,-6.12161997520028,0
 -38.766521687,-6.1240656992004,0
 -38.766520101,-6.12406621120036,0
 -38.764937603,-6.12300472920037,0
 -38.7640262089999,-6.12108516520026,0
 -38.761303991,-6.1177492432002,0
 -38.759639575,-6.1169258822002,0
 -38.758827608,-6.11534816120005,0
 -38.758080314,-6.11322257020003,0
 -38.756314347,-6.11262890620003,0
 -38.75022106,-6.11253446520003,0
 -38.7459368299999,-6.11157818020004,0
 -38.7450511549999,-6.11220051720002,0
 -38.745353052,-6.11307211020002,0
 -38.746384238,-6.11363427919999,0
 -38.746803422,-6.11445055020012,0
 -38.746189017,-6.11531712120014,0
 -38.7441094449999,-6.11606310420014,0
 -38.74174941,-6.11765943320023,0
 -38.7377995209999,-6.11735879020023,0
 -38.73702633,-6.1178522592002,0
 -38.737025079,-6.11785305720018,0
 -38.7354124800001,-6.12047464520028,0
 -38.734746299,-6.12383606720041,0
 -38.733744647,-6.1243415322004,0
 -38.7296365569999,-6.12295293320035,0
 -38.727382183,-6.12122212620032,0
 -38.7231071639999,-6.12187611320024,0
 -38.722383422,-6.12127868720029,0
 -38.721860821,-6.11935874920024,0
 -38.7206647229999,-6.11734273420023,0
 -38.7206640869999,-6.11734166320014,0
 -38.71538553,-6.1151792522001,0
 -38.710915704,-6.11042916319992,0
 -38.710914304,-6.11042767519989,0
 -38.710855652,-6.11456027120013,0
 -38.711247482,-6.1164083712001,0
 -38.713355166,-6.11879990820018,0
 -38.715775955,-6.12064966920029,0
 -38.717695191,-6.12308764220039,0
 -38.718994203,-6.12779856520053,0
 -38.720114244,-6.13488684520073,0
 -38.7201143199999,-6.13488732320068,0
 -38.7201144429999,-6.13488809920074,0
 -38.7249675569999,-6.143332732201,0
 -38.730623416,-6.14957004820113,0
 -38.731808413,-6.15105407020126,0
 -38.732063319,-6.15185797620125,0
 -38.732226064,-6.15593943720145,0
 -38.732826084,-6.15804693120138,0
 -38.733213701,-6.15901004720158,0
 -38.735420458,-6.16344602920171,0
 -38.736022361,-6.16591973720175,0
 -38.736073403,-6.16692424720181,0
 -38.7355736179999,-6.17010144820188,0
 -38.7350975419999,-6.17123378620187,0
 -38.734833555,-6.17240781820193,0
 -38.734340169,-6.17863262620219,0
 -38.7343400789999,-6.1786337622021,0
 -38.734245176,-6.17983519020213,0
 -38.733523813,-6.1829782362023,0
 -38.731878304,-6.18662336120236,0
 -38.731350167,-6.1870080232024,0
 -38.731349033,-6.18700884920237,0
 -38.730344001,-6.18774285920244,0
 -38.728382746,-6.19154687820259,0
 -38.7271112679999,-6.19297943520255,0
 -38.728434665,-6.1980158472028,0
 -38.728132247,-6.1991074892028,0
 -38.72642022,-6.20079423420282,0
 -38.725132579,-6.20120749120282,0
 -38.722715357,-6.20019742920283,0
 -38.721028056,-6.20000104320283,0
 -38.7172686229999,-6.20116411420288,0
 -38.712680148,-6.205057903203,0
 -38.710743561,-6.20500740320308,0
 -38.70838047,-6.20642152120303,0
 -38.7077071699999,-6.20656961220302,0
 -38.704244102,-6.20656997720305,0
 -38.702466453,-6.20750411420307,0
 -38.699353282,-6.206369725203,0
 -38.697293699,-6.20622924720301,0
 -38.6953521149999,-6.20680668520301,0
 -38.69438101,-6.20699885420301,0
 -38.692523727,-6.20775159920312,0
 -38.691632386,-6.20824213920312,0
 -38.68954858,-6.21017401120309,0
 -38.68632454,-6.21104661820317,0
 -38.685580889,-6.21176925920319,0
 -38.681633871,-6.21162658320319,0
 -38.6796582959999,-6.21087685220324,0
 -38.679130334,-6.20977886720308,0
 -38.6795488019999,-6.20782591320314,0
 -38.679287272,-6.20691883020305,0
 -38.677046822,-6.2044277282029,0
 -38.676214176,-6.20259708220296,0
 -38.674989198,-6.20198981920281,0
 -38.67327406,-6.20301025420295,0
 -38.669605877,-6.20114411120282,0
 -38.669166727,-6.19707169620276,0
 -38.6658311219999,-6.19557204820266,0
 -38.665831064,-6.19557202220266,0
 -38.66582943,-6.19557128820269,0
 -38.661937056,-6.19572466020268,0
 -38.661106179,-6.19230444220257,0
 -38.660433083,-6.19155891220262,0
 -38.659440351,-6.1915050002026,0
 -38.657852851,-6.19267395620259,0
 -38.656802931,-6.19238347420254,0
 -38.656469161,-6.18691406620235,0
 -38.655051521,-6.18468910220228,0
 -38.650270037,-6.1846806462023,0
 -38.6456908019999,-6.18143561420221,0
 -38.643676857,-6.18064052920224,0
 -38.635522516,-6.17899293120207,0
 -38.632772793,-6.17749435920216,0
 -38.630962884,-6.17392243320202,0
 -38.625941019,-6.17318066420202,0
 -38.624717768,-6.17221032320194,0
 -38.619103627,-6.17012982320193,0
 -38.6172971559999,-6.16919739920187,0
 -38.615277845,-6.1691978582019,0
 -38.611015853,-6.17045705420182,0
 -38.609216413,-6.17277433320197,0
 -38.6028216939999,-6.17413712320202,0
 -38.602364194,-6.17582196620207,0
 -38.601472453,-6.17666332620205,0</coordinates>
        </LineString>
      </Placemark>
    </Folder>
  </Document>
</kml>