<kml xmlns:xsd="http://schemas.opengis.net/kml/2.2.0/ogckml22.xsd" xmlns:xmlns="http://www.opengis.net/kml/2.2/" version="1.0">
  <Document>
    <name>ITAPIPOCA</name>
    <open>1</open>
    <Folder>
      <name>2306405</name>
      <Style id="line1">
        <LineStyle>
          <color>#ff000000</color>
          <width>3</width>
        </LineStyle>
        <BalloonStyle>
          <text>$[description]</text>
        </BalloonStyle>
      </Style>
      <Placemark>
        <name>10</name>
        <styleUrl>#line1</styleUrl>
        <LineString>
          <extrude>0</extrude>
          <altitudeMode>clampToGround</altitudeMode>
          <coordinates>-39.384337864,-3.1841154191047,0
 -39.383548947,-3.18535084810478,0
 -39.383548414,-3.18619952110474,0
 -39.384361318,-3.18704628610482,0
 -39.3859297389999,-3.18735258310485,0
 -39.386960709,-3.18736593810488,0
 -39.388735848,-3.18693937510476,0
 -39.391985883,-3.18487864310479,0
 -39.392995765,-3.1850440921048,0
 -39.396730195,-3.18771008110494,0
 -39.396730268,-3.18771004810485,0
 -39.399878311,-3.18629076410483,0
 -39.400508541,-3.18638967010475,0
 -39.402120968,-3.19082469410498,0
 -39.405072323,-3.19188411910498,0
 -39.406170367,-3.18999065410498,0
 -39.406831663,-3.1869323061048,0
 -39.4087317959999,-3.18644783010477,0
 -39.409525048,-3.18803631010493,0
 -39.409944072,-3.19180421310494,0
 -39.409944082,-3.19180430310503,0
 -39.410267513,-3.19470889310502,0
 -39.409907861,-3.19643651810514,0
 -39.408523728,-3.19913276110521,0
 -39.406718296,-3.20034545810528,0
 -39.406794041,-3.20126797510531,0
 -39.409716097,-3.20429010110543,0
 -39.410502963,-3.20823833310552,0
 -39.4109272979999,-3.20894759610559,0
 -39.411531133,-3.2093159851056,0
 -39.412404307,-3.20941569510559,0
 -39.4130361719999,-3.2090294111056,0
 -39.416668396,-3.20488570510541,0
 -39.42039027,-3.20275082710534,0
 -39.420390343,-3.20275083110534,0
 -39.425268718,-3.20302068610529,0
 -39.427543105,-3.2038528161054,0
 -39.4315128639999,-3.20760189710553,0
 -39.431512928,-3.20760202410546,0
 -39.4324628009999,-3.20946998510556,0
 -39.432461927,-3.20979609510562,0
 -39.432461926,-3.20979646010557,0
 -39.438506262,-3.20902856710563,0
 -39.440404538,-3.20930015110562,0
 -39.442572139,-3.21023688810559,0
 -39.445866658,-3.2071645891055,0
 -39.449918575,-3.20659862410557,0
 -39.450851912,-3.20714331710551,0
 -39.450702633,-3.20850794810553,0
 -39.449648646,-3.21002388010555,0
 -39.449739952,-3.2110527901056,0
 -39.450418876,-3.21164303810568,0
 -39.4523437019999,-3.21194566610567,0
 -39.455267614,-3.21409494410569,0
 -39.456969376,-3.21283589810569,0
 -39.457630735,-3.21283629610573,0
 -39.460253006,-3.21450220010581,0
 -39.4631645699999,-3.21433226310578,0
 -39.464271951,-3.21360551110569,0
 -39.4632444290001,-3.21266696110566,0
 -39.458953641,-3.21101827310559,0
 -39.456395761,-3.2106245391056,0
 -39.456442984,-3.20990941210559,0
 -39.457154859,-3.20934015310565,0
 -39.461096051,-3.20827936510554,0
 -39.46641676,-3.20764674810551,0
 -39.47285026,-3.20197219210531,0
 -39.4749683369999,-3.20103847810532,0
 -39.476596286,-3.19977292610524,0
 -39.478102022,-3.19955972610528,0
 -39.479062612,-3.1996500621052,0
 -39.481665122,-3.20169591510537,0
 -39.482516039,-3.20484358310539,0
 -39.483945326,-3.20625384410546,0
 -39.484272212,-3.20692340010552,0
 -39.48476332,-3.20937218910564,0
 -39.482323913,-3.21052294310554,0
 -39.4823235329999,-3.21052312210556,0
 -39.4820675559999,-3.21111452910556,0
 -39.482835731,-3.21181910210568,0
 -39.485020028,-3.21147602410571,0
 -39.487661558,-3.21274625210565,0
 -39.488617421,-3.21172989410567,0
 -39.4890821079999,-3.20801934110552,0
 -39.48628191,-3.20714390210547,0
 -39.485709513,-3.20590228710542,0
 -39.485537062,-3.20394243810544,0
 -39.4865035889999,-3.20249422610534,0
 -39.487799878,-3.20239204410532,0
 -39.487800129,-3.20239202510532,0
 -39.490194272,-3.20220334410534,0
 -39.491158574,-3.20253645410528,0
 -39.491610703,-3.20338299710542,0
 -39.491310316,-3.20650002210549,0
 -39.492286899,-3.20729247110551,0
 -39.49352413,-3.20673033810554,0
 -39.493734548,-3.2044882921054,0
 -39.4942455910001,-3.20349027610542,0
 -39.495042422,-3.20307977510529,0
 -39.499107311,-3.20304725710535,0
 -39.499831326,-3.20244383710534,0
 -39.500113939,-3.20024565610519,0
 -39.501138391,-3.19939749410518,0
 -39.5027941879999,-3.19969980010523,0
 -39.505249053,-3.20137835710529,0
 -39.505871523,-3.20433652610545,0
 -39.506613471,-3.20442648610543,0
 -39.506898479,-3.2041920571054,0
 -39.50752422,-3.20272498310533,0
 -39.508878182,-3.20224061610531,0
 -39.510023837,-3.20260252010533,0
 -39.510295093,-3.20345101610545,0
 -39.509181237,-3.20551077910544,0
 -39.509764652,-3.20648888810555,0
 -39.509764497,-3.20648904010547,0
 -39.508264992,-3.20796845910549,0
 -39.50769353,-3.20972545210555,0
 -39.508267624,-3.21066225110562,0
 -39.508912115,-3.21064660510557,0
 -39.509787203,-3.20973855210566,0
 -39.51096009,-3.21070903110558,0
 -39.510812075,-3.21174016210572,0
 -39.509141351,-3.21272398610567,0
 -39.509651479,-3.21447751110572,0
 -39.511058578,-3.21455477910581,0
 -39.51135358,-3.21475164210575,0
 -39.5115067540001,-3.21673510810582,0
 -39.510271427,-3.21809910410588,0
 -39.5092496379999,-3.21807095710586,0
 -39.5084953649999,-3.21858543510589,0
 -39.506808493,-3.2171933281059,0
 -39.506342219,-3.2173297181059,0
 -39.50571173,-3.22011550510601,0
 -39.507549233,-3.2202977881059,0
 -39.50812012,-3.2212047751059,0
 -39.506088486,-3.22113108810593,0
 -39.506359753,-3.22328177110606,0
 -39.505607846,-3.22412924910601,0
 -39.50586568,-3.22571365910611,0
 -39.506617832,-3.22659162010618,0
 -39.507460231,-3.22471399310608,0
 -39.508122001,-3.22456192210602,0
 -39.507264001,-3.2273936311061,0
 -39.508289877,-3.22757523210612,0
 -39.50726911,-3.22879811510623,0
 -39.507268864,-3.22879841010625,0
 -39.507176376,-3.22890929310619,0
 -39.509479927,-3.2294074471062,0
 -39.508788069,-3.2308910761063,0
 -39.506348813,-3.23025694910623,0
 -39.506214321,-3.23339047610641,0
 -39.5067575149999,-3.23390802910643,0
 -39.507258169,-3.23382209810642,0
 -39.50711817,-3.23212012910629,0
 -39.507901174,-3.23248240110633,0
 -39.508938058,-3.2314075501063,0
 -39.509479821,-3.23158945710626,0
 -39.509543935,-3.23343673310642,0
 -39.509090116,-3.23383002610637,0
 -39.508217099,-3.23340778510634,0
 -39.507960861,-3.23451012210642,0
 -39.506546646,-3.23504604110644,0
 -39.505373232,-3.23635030510653,0
 -39.504395531,-3.24096790710659,0
 -39.504818075,-3.24365525010663,0
 -39.506733771,-3.24669029310675,0
 -39.508751395,-3.24717324310683,0
 -39.5108248559999,-3.24925975910681,0
 -39.511478171,-3.25030819210696,0
 -39.512293,-3.25348659710704,0
 -39.5148543089999,-3.25457486210702,0
 -39.515636952,-3.25545424910713,0
 -39.516167153,-3.26055756310732,0
 -39.51792834,-3.26362488910735,0
 -39.520070202,-3.26907567410752,0
 -39.520070338,-3.26907602110754,0
 -39.520268245,-3.27208995010761,0
 -39.520991485,-3.27302817110761,0
 -39.5224395989999,-3.27381095210763,0
 -39.52325017,-3.27499141410769,0
 -39.522543834,-3.27652037810781,0
 -39.520075392,-3.2787326311078,0
 -39.519445991,-3.2805351901079,0
 -39.516689375,-3.28165663910788,0
 -39.514913234,-3.28335448410803,0
 -39.513379027,-3.28787048510812,0
 -39.513468012,-3.2896480631082,0
 -39.5117292999999,-3.29081617310822,0
 -39.507136346,-3.2916038891082,0
 -39.505428779,-3.29358646610837,0
 -39.505153872,-3.29915584110857,0
 -39.508309074,-3.30109077210862,0
 -39.508856499,-3.30204407810863,0
 -39.508794386,-3.3036862851087,0
 -39.510054861,-3.30492050510868,0
 -39.509725237,-3.3060918431087,0
 -39.510640551,-3.31045314910887,0
 -39.511838981,-3.31265224110901,0
 -39.511881461,-3.31299944210896,0
 -39.5118815139999,-3.312999872109,0
 -39.512033238,-3.31423589910894,0
 -39.512033251,-3.31423600610896,0
 -39.512063731,-3.31448521010905,0
 -39.511665875,-3.31576336410903,0
 -39.509897003,-3.31846264710917,0
 -39.507703828,-3.32040308210923,0
 -39.504063806,-3.32202488010921,0
 -39.503139473,-3.32336117810938,0
 -39.502040964,-3.32684101210936,0
 -39.5013580309999,-3.32960645210946,0
 -39.5022328,-3.33339754110961,0
 -39.5037475569999,-3.33501059710967,0
 -39.5031250019999,-3.33698210410981,0
 -39.503483695,-3.33778905910979,0
 -39.503171786,-3.33962743610984,0
 -39.504686497,-3.34070073610992,0
 -39.504195676,-3.34504627411003,0
 -39.5030402089999,-3.34720112811015,0
 -39.503219812,-3.34872496311011,0
 -39.504111709,-3.34979987411023,0
 -39.503179302,-3.3529770541103,0
 -39.50317923,-3.35297716411031,0
 -39.5020192169999,-3.35477513811031,0
 -39.500649929,-3.35438735511028,0
 -39.499052826,-3.3556822561104,0
 -39.497729998,-3.35591466611035,0
 -39.496577812,-3.3573053391104,0
 -39.494338464,-3.35851731111049,0
 -39.4948808259999,-3.3609252381106,0
 -39.493960013,-3.36260575011055,0
 -39.4930121760001,-3.36738431411069,0
 -39.494567496,-3.36778888611077,0
 -39.4960659439999,-3.36993116211083,0
 -39.4956057079999,-3.37126343611084,0
 -39.494310667,-3.37245215911096,0
 -39.49332446,-3.37262012111092,0
 -39.491085905,-3.37204788211091,0
 -39.491258464,-3.37372753611088,0
 -39.490371778,-3.37671145211113,0
 -39.4919789969999,-3.37856003611114,0
 -39.4917514709999,-3.37920165611111,0
 -39.48959228,-3.3800421451112,0
 -39.487117047,-3.38172183711118,0
 -39.487177242,-3.38397990711132,0
 -39.486054056,-3.3880643441114,0
 -39.48513273,-3.38887545011146,0
 -39.482887379,-3.38934128411145,0
 -39.4827669819999,-3.39016283811148,0
 -39.4827669159999,-3.39016328411143,0
 -39.482339985,-3.3930765261116,0
 -39.48067281,-3.39481425611167,0
 -39.4817685869999,-3.39655203911175,0
 -39.481535557,-3.39696045711179,0
 -39.481535499,-3.39696055911171,0
 -39.480998298,-3.39790154811168,0
 -39.478687807,-3.39785637111166,0
 -39.4779622999999,-3.39886566611177,0
 -39.474225662,-3.39979934311176,0
 -39.472844579,-3.40142110411192,0
 -39.471807839,-3.40171171011189,0
 -39.47100265,-3.40304485411188,0
 -39.469446568,-3.4030439561119,0
 -39.468305705,-3.40208097111189,0
 -39.4676956649999,-3.40189417011189,0
 -39.466918593,-3.40280100611187,0
 -39.466588565,-3.40366532511189,0
 -39.466136172,-3.40611370311196,0
 -39.465643029,-3.40781323111207,0
 -39.46297666,-3.41119458611216,0
 -39.463669273,-3.41315508511228,0
 -39.463501023,-3.41426532711221,0
 -39.461723172,-3.41457999811222,0
 -39.460757151,-3.41588876311233,0
 -39.4600560869999,-3.41822738111247,0
 -39.459060807,-3.41921327111243,0
 -39.457808164,-3.41920182211246,0
 -39.4561743279999,-3.42191126411254,0
 -39.4564212139999,-3.42282783111254,0
 -39.458002832,-3.42356871711264,0
 -39.4577818139999,-3.42558757311262,0
 -39.4536902949999,-3.43095472111278,0
 -39.451888375,-3.43194961711286,0
 -39.451276042,-3.43313469511294,0
 -39.4516153809999,-3.43563576011302,0
 -39.4512759589999,-3.43953906311313,0
 -39.451918314,-3.44385468711325,0
 -39.451170516,-3.44460054411332,0
 -39.4490574069999,-3.44400845511327,0
 -39.449060116,-3.4449362891133,0
 -39.4482767289999,-3.44600313111329,0
 -39.446102396,-3.44738395711341,0
 -39.446102272,-3.44738400311341,0
 -39.4450821889999,-3.44776127611336,0
 -39.443611235,-3.44743189711338,0
 -39.443307485,-3.44786970511345,0
 -39.443307393,-3.44786983811346,0
 -39.443003604,-3.44830770311346,0
 -39.4417795450001,-3.44888697911342,0
 -39.440058095,-3.44898138811342,0
 -39.438914213,-3.44961353011341,0
 -39.438752547,-3.45057567211352,0
 -39.4396408419999,-3.4520256491135,0
 -39.43930675,-3.45273116311353,0
 -39.4355425859999,-3.45447624811359,0
 -39.435003007,-3.45479409511359,0
 -39.433809915,-3.46060201911381,0
 -39.43256267,-3.4627209331139,0
 -39.430441684,-3.46488194611391,0
 -39.429318924,-3.46772802111403,0
 -39.427998373,-3.46934571911412,0
 -39.427639626,-3.46978519111416,0
 -39.427639547,-3.46978528711416,0
 -39.426226402,-3.47151780911416,0
 -39.426198088,-3.4720613931142,0
 -39.427608141,-3.47288847611424,0
 -39.428031603,-3.47389524811422,0
 -39.427365068,-3.47570650611426,0
 -39.427500406,-3.47689117111431,0
 -39.428276761,-3.47777797711441,0
 -39.429833686,-3.47836464411436,0
 -39.433839292,-3.47823205411441,0
 -39.4342559919999,-3.47886556211442,0
 -39.434092468,-3.48085524511447,0
 -39.434907236,-3.48411063611461,0
 -39.434907137,-3.48411081311454,0
 -39.434170084,-3.4854276451147,0
 -39.432582349,-3.48622899511465,0
 -39.432058496,-3.48697363411471,0
 -39.431757561,-3.49294196311489,0
 -39.431137794,-3.49388837911494,0
 -39.426081287,-3.49615984511504,0
 -39.424614079,-3.49930099011505,0
 -39.4222808599999,-3.50142070911512,0
 -39.419784923,-3.50204521711518,0
 -39.418424578,-3.50195017711523,0
 -39.416614885,-3.50300639411522,0
 -39.41663724,-3.50375570111513,0
 -39.418054411,-3.5058348591153,0
 -39.418277747,-3.50673788711524,0
 -39.418363158,-3.50890463811537,0
 -39.416053351,-3.51152648611549,0
 -39.415531308,-3.51396606411555,0
 -39.415673969,-3.51507284611556,0
 -39.4167994759999,-3.5157302881156,0
 -39.4167994799999,-3.5157303871156,0
 -39.4168193359999,-3.51629385011559,0
 -39.414726994,-3.51751471511562,0
 -39.41426467,-3.51896706911571,0
 -39.414093194,-3.51910899911573,0
 -39.4140930509999,-3.51910911711574,0
 -39.413668164,-3.51945993411572,0
 -39.413497573,-3.52152814911579,0
 -39.412644164,-3.52379795011592,0
 -39.413698837,-3.526642543116,0
 -39.410757002,-3.53072439011605,0
 -39.410011775,-3.53292044911621,0
 -39.409718982,-3.5337823061162,0
 -39.407251588,-3.5352004531163,0
 -39.406004753,-3.53661883211624,0
 -39.405164421,-3.54188619411641,0
 -39.404336148,-3.54358247711652,0
 -39.401583205,-3.54686096211662,0
 -39.4013077819999,-3.54831954711669,0
 -39.4017804549999,-3.54988508911664,0
 -39.40619285,-3.55219350211676,0
 -39.409889074,-3.55206805611678,0
 -39.411614154,-3.55232404411673,0
 -39.4116142459999,-3.55232410411683,0
 -39.412779333,-3.55308563611678,0
 -39.416166139,-3.55294579011684,0
 -39.416166174,-3.55294583811684,0
 -39.418643486,-3.55635991811697,0
 -39.420360925,-3.55748481211697,0
 -39.42288909,-3.55806853811695,0
 -39.424831431,-3.56217189011718,0
 -39.426378779,-3.56278963711713,0
 -39.426378954,-3.56278970711713,0
 -39.4294323469999,-3.56400787111721,0
 -39.432270255,-3.56581852411718,0
 -39.433004489,-3.56712463311734,0
 -39.433001632,-3.56853328511728,0
 -39.432173354,-3.56982759911743,0
 -39.432194063,-3.57116915411741,0
 -39.435169377,-3.57428298211747,0
 -39.435169427,-3.57428303411748,0
 -39.439834609,-3.57916373611764,0
 -39.44162081,-3.58004111811766,0
 -39.443447267,-3.58004128411768,0
 -39.447199463,-3.58220187311775,0
 -39.450907093,-3.58266127211774,0
 -39.450907153,-3.58266132211774,0
 -39.451089195,-3.58281214911779,0
 -39.451089278,-3.5828122191178,0
 -39.453417297,-3.58475018711783,0
 -39.454668393,-3.5852619051178,0
 -39.458282827,-3.58491471511785,0
 -39.462021017,-3.5839823801179,0
 -39.466076252,-3.5840823231179,0
 -39.466076293,-3.58408232411782,0
 -39.466076334,-3.58408232411782,0
 -39.469947304,-3.5841380111178,0
 -39.472317307,-3.58381358311787,0
 -39.4849764440001,-3.5809112511178,0
 -39.489669742,-3.58170907711774,0
 -39.492839512,-3.58175000211775,0
 -39.498211281,-3.58032253111777,0
 -39.500112094,-3.57895551611764,0
 -39.50167181,-3.57729439211759,0
 -39.503051399,-3.5761855961176,0
 -39.50442941,-3.57507806911762,0
 -39.503211633,-3.58156526511774,0
 -39.512919609,-3.58176104011778,0
 -39.5319657180001,-3.58214490611774,0
 -39.550886748,-3.58252652911779,0
 -39.5548924480001,-3.58262745511779,0
 -39.560111435,-3.58825951911793,0
 -39.563643838,-3.59207150711813,0
 -39.5677363189999,-3.59648790411823,0
 -39.571559948,-3.6006141681184,0
 -39.571890897,-3.60097131111838,0
 -39.5722681999999,-3.6013784771184,0
 -39.57304996,-3.60222211211848,0
 -39.5801427879999,-3.6098763341187,0
 -39.584943878,-3.61505782411888,0
 -39.585111028,-3.61523821711879,0
 -39.5869004209999,-3.61716938711889,0
 -39.587663158,-3.61799255711896,0
 -39.588749879,-3.61916555911903,0
 -39.5942757339999,-3.62513139111917,0
 -39.5944694590001,-3.6253389941192,0
 -39.594508883,-3.62531948911918,0
 -39.6001811249999,-3.62571325211917,0
 -39.601355342,-3.62675189411922,0
 -39.60283735,-3.63007910511936,0
 -39.605184932,-3.63092730411937,0
 -39.605751831,-3.63333563711942,0
 -39.606857013,-3.63524559311954,0
 -39.607585244,-3.63574960211958,0
 -39.607585434,-3.63574955311949,0
 -39.610570232,-3.6349823011196,0
 -39.6186690459999,-3.63290193511942,0
 -39.62092205,-3.63186016411947,0
 -39.621838369,-3.6319786861195,0
 -39.620757961,-3.63349103411949,0
 -39.61714321,-3.63557080011953,0
 -39.615030985,-3.63797978311963,0
 -39.613273587,-3.64148927211975,0
 -39.631766099,-3.6379815551196,0
 -39.631766329,-3.6379815111196,0
 -39.631766488,-3.6379814811196,0
 -39.635706121,-3.63723501011956,0
 -39.6437658819999,-3.64291730411987,0
 -39.648113693,-3.64699988611989,0
 -39.649662452,-3.64742377411988,0
 -39.650768182,-3.64891058011997,0
 -39.650628201,-3.65032719212003,0
 -39.648657307,-3.65056490311999,0
 -39.64781033,-3.65188809012004,0
 -39.6481633339999,-3.65271432412001,0
 -39.6510316059999,-3.65187676312008,0
 -39.653569713,-3.65191356412001,0
 -39.653569879,-3.65191356612011,0
 -39.656190608,-3.65195252112004,0
 -39.6577206819999,-3.65041802912,0
 -39.659081801,-3.64975429311997,0
 -39.660967322,-3.64984055312,0
 -39.663472113,-3.6467058331199,0
 -39.665726347,-3.64575773611988,0
 -39.66812051,-3.64571065811989,0
 -39.668120858,-3.64571065011989,0
 -39.670630784,-3.6450944551198,0
 -39.673281705,-3.64544683111991,0
 -39.674275562,-3.64667330911987,0
 -39.679197656,-3.64619880311987,0
 -39.680446585,-3.64829835312003,0
 -39.681337943,-3.64556016711987,0
 -39.686851127,-3.63684206911955,0
 -39.68985059,-3.63024406311933,0
 -39.6939091439999,-3.62450236711917,0
 -39.693414314,-3.62089015511908,0
 -39.690216279,-3.61721015611888,0
 -39.689981361,-3.61456409211888,0
 -39.693477496,-3.61109029511869,0
 -39.696481154,-3.60981460911866,0
 -39.698596078,-3.61137130611876,0
 -39.700876401,-3.61474519611885,0
 -39.702533368,-3.61829226211898,0
 -39.7025336639999,-3.61829289511903,0
 -39.702618129,-3.61847135811905,0
 -39.7044637879999,-3.62008893111895,0
 -39.7062704809999,-3.62048503311904,0
 -39.708350543,-3.62399197711922,0
 -39.708350496,-3.62399211011923,0
 -39.706942868,-3.62802063411922,0
 -39.706942839,-3.62802072011922,0
 -39.70847593,-3.62947921411937,0
 -39.7084775699999,-3.63145268911932,0
 -39.709262669,-3.63239975311944,0
 -39.709578165,-3.63366323911944,0
 -39.708441639,-3.63520344511951,0
 -39.7078147039999,-3.63701900311954,0
 -39.709385789,-3.63891143011962,0
 -39.710285771,-3.64166886711969,0
 -39.7096886379999,-3.6474423361199,0
 -39.7098663849999,-3.65004128712,0
 -39.710338244,-3.65153965212008,0
 -39.713085669,-3.65511691112012,0
 -39.712979506,-3.65293828512007,0
 -39.713670062,-3.65142806512008,0
 -39.717977234,-3.64710380211987,0
 -39.725149007,-3.6414253711197,0
 -39.731082495,-3.63407753011943,0
 -39.733675383,-3.63282794911942,0
 -39.73536235,-3.63097757511936,0
 -39.7399232229999,-3.62319051311907,0
 -39.7499065400001,-3.61173319011868,0
 -39.754118017,-3.60814722111864,0
 -39.75467423,-3.60605818111863,0
 -39.756476012,-3.60376001111845,0
 -39.770112931,-3.59518830411826,0
 -39.7739204719999,-3.59178766411818,0
 -39.775423508,-3.58958202611802,0
 -39.7761704919999,-3.58788166211794,0
 -39.776002098,-3.58366176911783,0
 -39.7753897429999,-3.58179168911774,0
 -39.771806395,-3.57726056611755,0
 -39.7683576459999,-3.57162353611744,0
 -39.7666983929999,-3.57072211911737,0
 -39.766299429,-3.57056293011743,0
 -39.766298855,-3.57056270111741,0
 -39.765825148,-3.57138291611742,0
 -39.76582511,-3.57138298211743,0
 -39.764901215,-3.57238703411755,0
 -39.764539825,-3.57243336611747,0
 -39.764537572,-3.57243365511749,0
 -39.764192577,-3.57257818011746,0
 -39.763744572,-3.57262965911755,0
 -39.763388366,-3.57241733811757,0
 -39.763015399,-3.57217024711746,0
 -39.7628431109999,-3.57195000811736,0
 -39.763034047,-3.57119120711746,0
 -39.763034047,-3.57082756411739,0
 -39.7627263489999,-3.57052919011739,0
 -39.762055008,-3.57032872011742,0
 -39.761654068,-3.57015156011741,0
 -39.76148157,-3.5697692691174,0
 -39.761321799,-3.56899715911729,0
 -39.76136968,-3.56866435311737,0
 -39.7617706199999,-3.56798834911731,0
 -39.762124939,-3.56742889811729,0
 -39.762129601,-3.56679019111729,0
 -39.761896496,-3.56602094611723,0
 -39.7617706199999,-3.56528433511722,0
 -39.7617532110001,-3.56459734511722,0
 -39.761492512,-3.56417936611727,0
 -39.761492497,-3.56417934311727,0
 -39.761492416,-3.56417928811718,0
 -39.7603850149999,-3.56342185811712,0
 -39.7589114849999,-3.56313649511714,0
 -39.757989232,-3.56230763011713,0
 -39.756687099,-3.55912109411708,0
 -39.757589612,-3.55775877611698,0
 -39.762073994,-3.55099171311681,0
 -39.761745549,-3.54372029111655,0
 -39.763684483,-3.53892420711638,0
 -39.765578898,-3.53628739411626,0
 -39.766410838,-3.53384161011622,0
 -39.769188839,-3.53105109111608,0
 -39.769516031,-3.53009626611604,0
 -39.768134733,-3.52514832611592,0
 -39.7681346099999,-3.52514788311588,0
 -39.769828199,-3.52006632311571,0
 -39.7718783499999,-3.51845621111572,0
 -39.773049692,-3.51483188211552,0
 -39.7739139779999,-3.51365326111551,0
 -39.7752139259999,-3.51282771011551,0
 -39.77624202,-3.51094968211547,0
 -39.77582764,-3.50922311311534,0
 -39.7782280929999,-3.50542022811528,0
 -39.778224877,-3.50282502611513,0
 -39.779867196,-3.50243870611524,0
 -39.78168749,-3.5028279501152,0
 -39.7847312819999,-3.50126999411508,0
 -39.785139384,-3.49591974511497,0
 -39.784111022,-3.49425076711491,0
 -39.78409453,-3.49333193411482,0
 -39.786864982,-3.49174875311483,0
 -39.787948249,-3.48907732611478,0
 -39.787809068,-3.48705908711468,0
 -39.785756083,-3.48293951911453,0
 -39.786466201,-3.47911763311441,0
 -39.78614638,-3.47689935911428,0
 -39.788117224,-3.47078668711406,0
 -39.788213214,-3.46874119311401,0
 -39.787735951,-3.46739798411399,0
 -39.786714697,-3.46619597811392,0
 -39.784522114,-3.46483999511399,0
 -39.783805732,-3.46430399111397,0
 -39.7831647,-3.46289788411389,0
 -39.782478246,-3.46258341711389,0
 -39.781674847,-3.46327004511386,0
 -39.780451426,-3.46328638411388,0
 -39.778611822,-3.46103283211384,0
 -39.777533092,-3.46047225611374,0
 -39.776758095,-3.46106716911385,0
 -39.7756293079999,-3.46077958711376,0
 -39.774724401,-3.45926527911379,0
 -39.773425785,-3.45884099811377,0
 -39.770643301,-3.45904688811375,0
 -39.76972617,-3.45821760511379,0
 -39.769479825,-3.45737180311371,0
 -39.769948328,-3.4556240441137,0
 -39.76775251,-3.45430238511359,0
 -39.766418463,-3.45212304611348,0
 -39.766532868,-3.45116847211346,0
 -39.7680830809999,-3.44913030911339,0
 -39.768220835,-3.44823747811342,0
 -39.767474633,-3.4459281141133,0
 -39.7678950549999,-3.44372433811321,0
 -39.767665699,-3.44276388011323,0
 -39.7666989509999,-3.44134528911319,0
 -39.765086046,-3.44027876011314,0
 -39.763201474,-3.43747831511307,0
 -39.762530534,-3.43542365511297,0
 -39.7592818899999,-3.43539404711292,0
 -39.75842328,-3.43438151211299,0
 -39.757835604,-3.43164034311293,0
 -39.756731806,-3.42910312511279,0
 -39.752170315,-3.42470436611264,0
 -39.751617466,-3.42191554811254,0
 -39.751083189,-3.4211174381125,0
 -39.751197631,-3.41883830411248,0
 -39.753582262,-3.4170112781124,0
 -39.753892169,-3.41507706311232,0
 -39.753339919,-3.41409623811226,0
 -39.750639087,-3.41169664611213,0
 -39.747062543,-3.41073450411219,0
 -39.744806718,-3.40872650511205,0
 -39.742393116,-3.40811451011213,0
 -39.741653626,-3.40684081911208,0
 -39.7416535529999,-3.40684069311207,0
 -39.7415052929999,-3.40658504811197,0
 -39.741505124,-3.40658475611203,0
 -39.740341969,-3.404582335112,0
 -39.738728921,-3.4029205281119,0
 -39.737369728,-3.39873350411177,0
 -39.735674375,-3.3972170571117,0
 -39.735403259,-3.39621055911174,0
 -39.736087016,-3.39430289711164,0
 -39.739670682,-3.39292456611164,0
 -39.7413356929999,-3.39165812611148,0
 -39.7413653749999,-3.38858839611142,0
 -39.739001747,-3.38589578011138,0
 -39.738143408,-3.38425193611126,0
 -39.736730829,-3.37885553411108,0
 -39.734265437,-3.37658527311099,0
 -39.733695803,-3.37531314711099,0
 -39.733695966,-3.37415354711096,0
 -39.73450291,-3.37254232511088,0
 -39.7378396409999,-3.37002246911084,0
 -39.738393806,-3.36870408411082,0
 -39.738534959,-3.36756226011076,0
 -39.737516036,-3.36508815211069,0
 -39.737641868,-3.36176195711055,0
 -39.738918002,-3.35763107111044,0
 -39.738778147,-3.35680454011035,0
 -39.736104694,-3.35301714111033,0
 -39.736104534,-3.35301691411031,0
 -39.733418759,-3.34921205911018,0
 -39.730203672,-3.34808846311012,0
 -39.730003181,-3.34575944211006,0
 -39.728884007,-3.34409378111,0
 -39.728883947,-3.34409369110999,0
 -39.727812242,-3.34249967510991,0
 -39.726731873,-3.33831802010977,0
 -39.7241475449999,-3.33719999210981,0
 -39.717370407,-3.33657352910976,0
 -39.714755838,-3.33567613810967,0
 -39.713813165,-3.33430158110971,0
 -39.712749664,-3.33061949310952,0
 -39.709143207,-3.3263069221094,0
 -39.7078129289999,-3.3255856361094,0
 -39.705256165,-3.32510228310937,0
 -39.703697451,-3.32314999510931,0
 -39.703697399,-3.32314993010931,0
 -39.703572009,-3.32299304110929,0
 -39.703571917,-3.32299292510928,0
 -39.703033745,-3.32232054310925,0
 -39.702782367,-3.32001316110921,0
 -39.702782352,-3.32001302110928,0
 -39.702782439,-3.32001276410926,0
 -39.7166506799999,-3.2789623191078,0
 -39.716650691,-3.27896228610779,0
 -39.7166508139999,-3.27896192110785,0
 -39.720101864,-3.26874120910755,0
 -39.72010198,-3.26874086510752,0
 -39.7231182579999,-3.25980753210717,0
 -39.72311832,-3.25980734710715,0
 -39.7280795529999,-3.24510874810672,0
 -39.705013471,-3.24526423110679,0
 -39.702233544,-3.24484708410674,0
 -39.7005545620001,-3.24370927310666,0
 -39.69931237,-3.24135316810667,0
 -39.698894058,-3.23814191910645,0
 -39.700279952,-3.23492475210635,0
 -39.700419019,-3.23268762410626,0
 -39.698331839,-3.2291939121062,0
 -39.6944381409999,-3.22668319710612,0
 -39.691241341,-3.22388917710605,0
 -39.6901545069998,-3.22072422410601,0
 -39.6901544909999,-3.22072417810592,0
 -39.690154434,-3.22072394710599,0
 -39.688734988,-3.21494478010575,0
 -39.6902598149998,-3.21186897110572,0
 -39.691649554,-3.2101918291056,0
 -39.691228359,-3.20753583810549,0
 -39.684837016,-3.20614210910545,0
 -39.679973545,-3.20614339310547,0
 -39.679557119,-3.2053063791054,0
 -39.680805428,-3.20236894710536,0
 -39.681776156,-3.20111057710534,0
 -39.680803087,-3.19929609610522,0
 -39.680457952,-3.19596431310515,0
 -39.680457948,-3.19596427610515,0
 -39.680457914,-3.19596395110512,0
 -39.679963993,-3.19118963310498,0
 -39.677875117,-3.18504030710475,0
 -39.672590356,-3.17637851810456,0
 -39.6710600229999,-3.17470225110443,0
 -39.669110401,-3.16687590810417,0
 -39.667439662,-3.16282496110411,0
 -39.66521552,-3.16198480210396,0
 -39.657155999,-3.16296982510411,0
 -39.657155669,-3.1629697781041,0
 -39.65202668,-3.16224665510396,0
 -39.65202665,-3.16224665010395,0
 -39.652026398,-3.16224661510404,0
 -39.648262302,-3.16171635410404,0
 -39.636280579,-3.15706764810381,0
 -39.636280368,-3.1570675091038,0
 -39.627413156,-3.15124685710359,0
 -39.619490144,-3.14859615310356,0
 -39.617429199,-3.14946060610359,0
 -39.617428868,-3.1494607451036,0
 -39.617428392,-3.14946094410362,0
 -39.6119894040001,-3.15125606410364,0
 -39.609714375,-3.15378886810368,0
 -39.609383346,-3.15415695810368,0
 -39.6093505929999,-3.15419337910367,0
 -39.60849807,-3.15373283710375,0
 -39.604650039,-3.15165409210362,0
 -39.59535935,-3.14663516710358,0
 -39.5860685709999,-3.14161619410335,0
 -39.58606854,-3.14161617710335,0
 -39.586068282,-3.14161603710334,0
 -39.566957599,-3.13129344010305,0
 -39.565560541,-3.12683255710282,0
 -39.565560487,-3.1268323841028,0
 -39.5636476040001,-3.12072484210265,0
 -39.563647504,-3.12072452410272,0
 -39.560398015,-3.11034940110235,0
 -39.560397907,-3.11034905810232,0
 -39.560111435,-3.10943470710225,0
 -39.550811865,-3.07975267410136,0
 -39.549662725,-3.07970420210135,0
 -39.545273372,-3.08249465910139,0
 -39.539419159,-3.08705139910156,0
 -39.539419102,-3.08705144410157,0
 -39.531313788,-3.09336037310177,0
 -39.530287054,-3.09454212110175,0
 -39.530286859,-3.09454234610178,0
 -39.52734301,-3.09793223910194,0
 -39.521556297,-3.10297050310199,0
 -39.520024809,-3.10375983510211,0
 -39.515661644,-3.10456836110212,0
 -39.510675156,-3.1086581651023,0
 -39.507664168,-3.10985789910236,0
 -39.504679895,-3.11043141010229,0
 -39.501449949,-3.11242642610242,0
 -39.496080981,-3.11418856510247,0
 -39.492859188,-3.1164323921025,0
 -39.48746816,-3.11841571910256,0
 -39.481507061,-3.12505350510278,0
 -39.4798105629999,-3.12624245210284,0
 -39.4798105149999,-3.12624255310285,0
 -39.478088277,-3.1298414121029,0
 -39.474582816,-3.13457718110305,0
 -39.4716978030001,-3.13754433710315,0
 -39.468829447,-3.13945500210333,0
 -39.468829205,-3.13945518510334,0
 -39.4640768959999,-3.14304913810343,0
 -39.4637897209999,-3.1432034101034,0
 -39.463502545,-3.14335768110338,0
 -39.462928195,-3.14366622510333,0
 -39.462687883,-3.14379532110344,0
 -39.462005318,-3.14400604610347,0
 -39.460358336,-3.14451451010344,0
 -39.45905203,-3.14491779910341,0
 -39.458789855,-3.14499873910345,0
 -39.458262036,-3.14516169010343,0
 -39.457734218,-3.1453246401035,0
 -39.45766171,-3.1453321041035,0
 -39.457248056,-3.14537468710347,0
 -39.456603852,-3.14544100210345,0
 -39.455521535,-3.14555241710352,0
 -39.455473485,-3.14555736310349,0
 -39.454678884,-3.14548953110346,0
 -39.452747307,-3.1453246401035,0
 -39.452265239,-3.1452913941035,0
 -39.451783171,-3.14525814810342,0
 -39.451018511,-3.14535788710341,0
 -39.45074012,-3.1454233901035,0
 -39.4498881449999,-3.14562385510348,0
 -39.4495025609999,-3.1457958051035,0
 -39.448466533,-3.14625781810353,0
 -39.447826888,-3.14635526910351,0
 -39.447261705,-3.14637189210355,0
 -39.446770444,-3.14633992910348,0
 -39.446307678,-3.14630982010348,0
 -39.444783494,-3.14600135510345,0
 -39.443903851,-3.14582333210346,0
 -39.443671129,-3.14582333210346,0
 -39.443438406,-3.14582333210346,0
 -39.442044033,-3.1466277781035,0
 -39.441709611,-3.14682071410356,0
 -39.440745474,-3.14715317510354,0
 -39.439914323,-3.14725291310353,0
 -39.4394821239999,-3.14725291310353,0
 -39.439049925,-3.14725291310353,0
 -39.439049636,-3.14725303310354,0
 -39.430583386,-3.15078511710367,0
 -39.426469818,-3.15381437710375,0
 -39.42106002,-3.15416113210375,0
 -39.4201782409999,-3.15460461610385,0
 -39.417955207,-3.15673354710379,0
 -39.412163211,-3.16021957610401,0
 -39.410509955,-3.16188578110403,0
 -39.407263196,-3.16657310310417,0
 -39.403802313,-3.17018173510432,0
 -39.402541244,-3.17241375710434,0
 -39.4025411689999,-3.17241388910436,0
 -39.402025174,-3.17332724510435,0
 -39.398685498,-3.17637940610455,0
 -39.396050439,-3.17816851510452,0
 -39.392557739,-3.17940273410459,0
 -39.391423875,-3.18085156710456,0
 -39.384337864,-3.1841154191047,0</coordinates>
        </LineString>
      </Placemark>
    </Folder>
  </Document>
</kml>