<kml xmlns:xsd="http://schemas.opengis.net/kml/2.2.0/ogckml22.xsd" xmlns:xmlns="http://www.opengis.net/kml/2.2/" version="1.0">
  <Document>
    <name>NA</name>
    <open>1</open>
    <Folder>
      <name>2308906</name>
      <Style id="line1">
        <LineStyle>
          <color>#ff000000</color>
          <width>3</width>
        </LineStyle>
        <BalloonStyle>
          <text>$[description]</text>
        </BalloonStyle>
      </Style>
      <Placemark>
        <name>11</name>
        <styleUrl>#line1</styleUrl>
        <LineString>
          <extrude>0</extrude>
          <altitudeMode>clampToGround</altitudeMode>
          <coordinates>-40.004196039,-3.21899355110581,0
 -40.002894714,-3.22070398710594,0
 -40.002894663,-3.22070405410594,0
 -40.0028946469999,-3.22070407610595,0
 -40.002894484,-3.22070429010596,0
 -39.9998403439999,-3.2247185391061,0
 -39.991484383,-3.23657829210648,0
 -39.991484365,-3.23657831610648,0
 -39.991484252,-3.23657847810649,0
 -39.976218066,-3.2582418341072,0
 -39.976218042,-3.25824186910721,0
 -39.9762178999999,-3.25824206910723,0
 -39.962218324,-3.27809621710781,0
 -39.962218103,-3.27809653010784,0
 -39.958640472,-3.28317031410798,0
 -39.95864027,-3.283170600108,0
 -39.958640174,-3.28317073710802,0
 -39.958640027,-3.28317094610794,0
 -39.935396209,-3.31613524210907,0
 -39.9352526229999,-3.31810500110915,0
 -39.933004648,-3.31953991010913,0
 -39.933870502,-3.32171240010929,0
 -39.937257181,-3.32281287010931,0
 -39.937508242,-3.32349936110936,0
 -39.937059928,-3.32550353010936,0
 -39.937605017,-3.32695349410942,0
 -39.93992626,-3.32929377110943,0
 -39.940467808,-3.33148467010961,0
 -39.9405342889999,-3.33273574310957,0
 -39.941017713,-3.33477484510971,0
 -39.941925248,-3.33735451510981,0
 -39.943366312,-3.33857647210975,0
 -39.946734913,-3.34017824310985,0
 -39.950120064,-3.34442202811007,0
 -39.951360316,-3.34441211911005,0
 -39.9540932810001,-3.34597088511006,0
 -39.956089068,-3.34605141911005,0
 -39.95711939,-3.34692621411005,0
 -39.957562015,-3.34984727711024,0
 -39.966456164,-3.35386810911031,0
 -39.96840836,-3.35533797911042,0
 -39.973018851,-3.35539453911039,0
 -39.973750891,-3.35573930411041,0
 -39.977088996,-3.35807591811047,0
 -39.980035588,-3.36097082211054,0
 -39.981618563,-3.36350687911068,0
 -39.981618683,-3.3635070711107,0
 -39.9826123139999,-3.36509868711067,0
 -39.985841637,-3.36606679111075,0
 -39.987784114,-3.36591751111074,0
 -39.988835679,-3.36655558111078,0
 -39.988835859,-3.36655569111079,0
 -39.990647354,-3.36637822911076,0
 -39.992782109,-3.36637388511075,0
 -39.993505055,-3.36542775011072,0
 -39.994177538,-3.36504201511069,0
 -39.9948929,-3.36529614611067,0
 -39.99589568,-3.36435303611061,0
 -39.99603716,-3.36403099011061,0
 -39.997092203,-3.36388681311067,0
 -39.997809898,-3.36466082411068,0
 -39.998899698,-3.36392176211064,0
 -40.000447069,-3.36152808411056,0
 -40.000447339,-3.36152766511052,0
 -40.0031475769999,-3.36205804811053,0
 -40.004594932,-3.36222756511062,0
 -40.006621438,-3.36211626311055,0
 -40.007753057,-3.36171846411059,0
 -40.009297537,-3.36201666611057,0
 -40.012846632,-3.36302873611056,0
 -40.0143431199999,-3.36334735111063,0
 -40.017164062,-3.36374682611064,0
 -40.0209213079999,-3.36337865711064,0
 -40.022475554,-3.36294281511055,0
 -40.023839158,-3.36268258211052,0
 -40.025169928,-3.36270028311056,0
 -40.029012129,-3.3630507611106,0
 -40.029012561,-3.3630507431106,0
 -40.030593384,-3.36298588611056,0
 -40.032309557,-3.36255402511053,0
 -40.03381096,-3.36197600311058,0
 -40.03497634,-3.36228998911063,0
 -40.0376700390001,-3.36389263911072,0
 -40.039199996,-3.36463417311069,0
 -40.041502627,-3.36459604211065,0
 -40.043840062,-3.36414383711072,0
 -40.046370066,-3.36412730611068,0
 -40.048122605,-3.3655315681106,0
 -40.04994987,-3.36612708411077,0
 -40.052890872,-3.36557172911064,0
 -40.054920873,-3.36646080411075,0
 -40.0569233329999,-3.36806974511074,0
 -40.058866882,-3.36939681511085,0
 -40.061622107,-3.36924114811085,0
 -40.070755015,-3.36742994011074,0
 -40.071558488,-3.36719430911078,0
 -40.0733447,-3.3652814511106,0
 -40.0749175559999,-3.36399365311063,0
 -40.075938736,-3.36357656811067,0
 -40.0776397,-3.3613321721106,0
 -40.078829755,-3.35925457111048,0
 -40.079509223,-3.3577583991104,0
 -40.081849388,-3.35655231511036,0
 -40.09279197,-3.35717938911037,0
 -40.0927926589999,-3.35717942911037,0
 -40.089989654,-3.34486748210998,0
 -40.089989582,-3.34486716811004,0
 -40.087604497,-3.33439089610965,0
 -40.087604419,-3.33439055310971,0
 -40.083192067,-3.31500969710902,0
 -40.083192469,-3.31500976810903,0
 -40.0893382529999,-3.31609450010907,0
 -40.091009897,-3.31624742710903,0
 -40.091919821,-3.31614137110904,0
 -40.091920312,-3.31614131310904,0
 -40.092076253,-3.31612324610905,0
 -40.0920766209999,-3.31612320310905,0
 -40.093093036,-3.31600453310909,0
 -40.0938543679999,-3.3160830401091,0
 -40.094871336,-3.31618790610907,0
 -40.0964295929999,-3.31690940610908,0
 -40.098286942,-3.31852233310914,0
 -40.098287497,-3.31852281510918,0
 -40.098310524,-3.31854281110914,0
 -40.099644263,-3.31910576010918,0
 -40.1017543299999,-3.31914962110917,0
 -40.1017548209999,-3.31914963110917,0
 -40.102291011,-3.31916049610909,0
 -40.102291209,-3.31916054310918,0
 -40.1038946010001,-3.31954266610918,0
 -40.1056761949999,-3.31955830310914,0
 -40.106976652,-3.31917288910914,0
 -40.110118657,-3.31724628610916,0
 -40.112060851,-3.31678968610904,0
 -40.113698569,-3.31610136610902,0
 -40.114789598,-3.31525444510902,0
 -40.1164858989999,-3.31444264610909,0
 -40.11650297,-3.31443447710903,0
 -40.117951931,-3.31442617910906,0
 -40.1218985920001,-3.31470154210911,0
 -40.1241966159999,-3.31440788510906,0
 -40.128285973,-3.31354046910896,0
 -40.128286391,-3.31354038010895,0
 -40.130034822,-3.313926249109,0
 -40.1321195709999,-3.31413923610894,0
 -40.1366429769999,-3.31118558510889,0
 -40.1395136569999,-3.30972492310892,0
 -40.141257166,-3.30823480010881,0
 -40.142675071,-3.30654164410879,0
 -40.143504734,-3.30520861310872,0
 -40.144233935,-3.30448838210872,0
 -40.145901902,-3.30359838810871,0
 -40.145902322,-3.30359816410869,0
 -40.158892934,-3.31033236810882,0
 -40.158893347,-3.31033258310884,0
 -40.160035938,-3.31092546010886,0
 -40.160344638,-3.3113681401089,0
 -40.160649499,-3.31214555810892,0
 -40.161813411,-3.31313854610892,0
 -40.162651216,-3.31428263010899,0
 -40.163006304,-3.31526197010902,0
 -40.164369339,-3.31630075410909,0
 -40.1655663409999,-3.31629159610904,0
 -40.166735888,-3.31694989910906,0
 -40.168123838,-3.31680187010907,0
 -40.169704609,-3.31695436110908,0
 -40.171364196,-3.31802270210918,0
 -40.172729862,-3.31944733510911,0
 -40.173116287,-3.3196114541091,0
 -40.174117266,-3.32003657910928,0
 -40.178233803,-3.31842307610909,0
 -40.18011742,-3.31892329910918,0
 -40.1815677639999,-3.3200248591092,0
 -40.182735426,-3.32018139110927,0
 -40.184422784,-3.31928957610911,0
 -40.185932479,-3.31745441410915,0
 -40.185932711,-3.31745413210913,0
 -40.1884838069999,-3.31460023810907,0
 -40.190176606,-3.31306601410896,0
 -40.193150441,-3.31098673210887,0
 -40.194725879,-3.31094311010882,0
 -40.196171078,-3.30986156510885,0
 -40.1980145469999,-3.30765785810878,0
 -40.198014583,-3.30765780510877,0
 -40.198014734,-3.30765758310884,0
 -40.199571153,-3.3053737631087,0
 -40.2004208469999,-3.30512708110872,0
 -40.200421425,-3.30512691310871,0
 -40.20118819,-3.30595376610873,0
 -40.202083582,-3.3074230561088,0
 -40.257253402,-3.31237651710902,0
 -40.257254045,-3.31237657510903,0
 -40.265480834,-3.31311466110899,0
 -40.265481351,-3.31311470710899,0
 -40.274599336,-3.31393344310897,0
 -40.274599646,-3.31393347110897,0
 -40.299982663,-3.31621162310908,0
 -40.299983272,-3.31621167710909,0
 -40.3002825359999,-3.31623857910909,0
 -40.3002825619999,-3.316238581109,0
 -40.300282934,-3.316238614109,0
 -40.3028211239999,-3.31646647810903,0
 -40.3249880079999,-3.31845649010919,0
 -40.324988276,-3.31845651410911,0
 -40.324988444,-3.31845652910911,0
 -40.3262160569999,-3.31856622810913,0
 -40.326216639,-3.31856628010913,0
 -40.341294028,-3.31991986010922,0
 -40.341294484,-3.31991990110922,0
 -40.341399642,-3.31992923310919,0
 -40.341511956,-3.28880594110816,0
 -40.341511558,-3.28880590010815,0
 -40.340511824,-3.28870288210815,0
 -40.339761541,-3.28641534210806,0
 -40.339763114,-3.28578223210808,0
 -40.338651688,-3.28403420410805,0
 -40.336649744,-3.28355990010797,0
 -40.33578604,-3.28354749310801,0
 -40.334728847,-3.28314647610796,0
 -40.332705656,-3.283101885108,0
 -40.33111885,-3.28345089510801,0
 -40.3240398529999,-3.28641541710807,0
 -40.322423697,-3.28673848910807,0
 -40.321226965,-3.28673127810809,0
 -40.31937235,-3.28627562810805,0
 -40.317953619,-3.28657319110807,0
 -40.316958711,-3.2870663401081,0
 -40.31570514,-3.28791212510819,0
 -40.315313928,-3.28886704310815,0
 -40.3143628349999,-3.28983292310813,0
 -40.314362525,-3.28983307910814,0
 -40.3142232779999,-3.28990315410826,0
 -40.312674222,-3.29154771010826,0
 -40.311812365,-3.29269588910822,0
 -40.310451941,-3.29352260410833,0
 -40.309786316,-3.29414849010833,0
 -40.306680334,-3.29625126610841,0
 -40.3055891169999,-3.29758271210844,0
 -40.300394947,-3.30177709610865,0
 -40.297254547,-3.3018838251086,0
 -40.296873812,-3.3018967641086,0
 -40.296871789,-3.30189537310867,0
 -40.296871527,-3.30189519310866,0
 -40.294120496,-3.30000374410857,0
 -40.292348251,-3.29953510810851,0
 -40.292347965,-3.29953503210851,0
 -40.290092404,-3.30027572110851,0
 -40.288564482,-3.30091365510862,0
 -40.287184813,-3.30182523510864,0
 -40.286842196,-3.30219426410862,0
 -40.286841944,-3.30219453510864,0
 -40.2857412939999,-3.30337684910859,0
 -40.28439098,-3.30431165510866,0
 -40.2825353229999,-3.30470335610865,0
 -40.280992047,-3.30598631310867,0
 -40.279137367,-3.30707867310881,0
 -40.2755818869999,-3.30774534110873,0
 -40.275581543,-3.30774540610882,0
 -40.27850863,-3.2649071151074,0
 -40.266100074,-3.27132677210761,0
 -40.2660997860001,-3.27132692110762,0
 -40.266099364,-3.27132714010764,0
 -40.23739165,-3.28617485810806,0
 -40.2034903329999,-3.26048480610734,0
 -40.203490025,-3.26048457310723,0
 -40.187636585,-3.24847100710683,0
 -40.187636374,-3.24847084810681,0
 -40.143320312,-3.21490095510576,0
 -40.143320106,-3.21490080010575,0
 -40.136342095,-3.20961591510564,0
 -40.136341824,-3.20961571010562,0
 -40.122135264,-3.19885792910521,0
 -40.122135042,-3.19885776010528,0
 -40.121096884,-3.19807109010521,0
 -40.1210966189999,-3.19807088910528,0
 -40.120625791,-3.19771433610509,0
 -40.119062028,-3.19816812110524,0
 -40.118345018,-3.19802775510527,0
 -40.116919369,-3.19798961310521,0
 -40.112314317,-3.19811419910522,0
 -40.107578283,-3.19906282810528,0
 -40.106317012,-3.19904528710526,0
 -40.102677202,-3.19813803110524,0
 -40.09653796,-3.19702031810513,0
 -40.0951499929999,-3.19659700810519,0
 -40.092754139,-3.19670678510512,0
 -40.090701981,-3.19740789910514,0
 -40.088698702,-3.19848034610523,0
 -40.08737181,-3.19898195310525,0
 -40.087371407,-3.19898205010517,0
 -40.004196039,-3.21899355110581,0</coordinates>
        </LineString>
      </Placemark>
    </Folder>
  </Document>
</kml>