<kml xmlns:xsd="http://schemas.opengis.net/kml/2.2.0/ogckml22.xsd" xmlns:xmlns="http://www.opengis.net/kml/2.2/" version="1.0">
  <Document>
    <name>QUIXERAMOBIM</name>
    <open>1</open>
    <Folder>
      <name>2311405</name>
      <Style id="line1">
        <LineStyle>
          <color>#ff000000</color>
          <width>3</width>
        </LineStyle>
        <BalloonStyle>
          <text>$[description]</text>
        </BalloonStyle>
      </Style>
      <Placemark>
        <name>14</name>
        <styleUrl>#line1</styleUrl>
        <LineString>
          <extrude>0</extrude>
          <altitudeMode>clampToGround</altitudeMode>
          <coordinates>-39.225334672,-4.9615453801628,0
 -39.2246381189999,-4.96274803816283,0
 -39.224857077,-4.96382782216273,0
 -39.225440224,-4.96479643816285,0
 -39.22619719,-4.967202808163,0
 -39.227052599,-4.96766082416297,0
 -39.2269104769999,-4.96954609016309,0
 -39.226834653,-4.97323184416313,0
 -39.227119135,-4.97376941616312,0
 -39.227119223,-4.97376952316312,0
 -39.2294470699999,-4.97661527616322,0
 -39.230780782,-4.97860352316332,0
 -39.233068373,-4.98159567016336,0
 -39.233609131,-4.98272015116341,0
 -39.233828537,-4.98413268816348,0
 -39.233639813,-4.98572283216351,0
 -39.233002993,-4.98758162916366,0
 -39.232718071,-4.98935439716369,0
 -39.2327213419999,-4.99039540916367,0
 -39.231968323,-4.99457253616388,0
 -39.231865154,-4.99584935516383,0
 -39.232608397,-5.000418901164,0
 -39.233578504,-5.0022085271641,0
 -39.232917787,-5.00301706316412,0
 -39.231691805,-5.00349896316411,0
 -39.230056567,-5.00428534116416,0
 -39.229779513,-5.00464611416417,0
 -39.229274609,-5.00581784416422,0
 -39.2290905749999,-5.00841483016425,0
 -39.228276163,-5.00963056316429,0
 -39.227253515,-5.01174433116439,0
 -39.224887684,-5.01339184716446,0
 -39.222883706,-5.01353973116453,0
 -39.2210496339999,-5.01269157616444,0
 -39.219160144,-5.01138962216444,0
 -39.219159872,-5.01138943416443,0
 -39.218140837,-5.01068624616443,0
 -39.216693766,-5.01003217216431,0
 -39.214943904,-5.00968050116425,0
 -39.213609948,-5.01007064216429,0
 -39.21225129,-5.01114305016439,0
 -39.210998026,-5.01343717616449,0
 -39.2100552489999,-5.01560326716447,0
 -39.20866676,-5.01749958216461,0
 -39.207217216,-5.01899098116464,0
 -39.205501576,-5.01903302616466,0
 -39.204526225,-5.01838049616458,0
 -39.204088093,-5.01766534116456,0
 -39.203424065,-5.01504743716449,0
 -39.202751322,-5.0103757511644,0
 -39.201889661,-5.00897556616428,0
 -39.2008923079999,-5.00802410616425,0
 -39.199806677,-5.00785241216434,0
 -39.199223473,-5.00811100716433,0
 -39.1976997239999,-5.00922348316436,0
 -39.197087973,-5.01189914516441,0
 -39.196330545,-5.01420133116447,0
 -39.195334586,-5.0163240791646,0
 -39.1933029849999,-5.01802231016452,0
 -39.192420119,-5.01914962016463,0
 -39.192252416,-5.02055521616466,0
 -39.192193154,-5.0250793561648,0
 -39.191446314,-5.02820448816492,0
 -39.1906397229999,-5.02946297416495,0
 -39.18871763,-5.03070916516503,0
 -39.187301471,-5.03223168416506,0
 -39.185863048,-5.03405304516512,0
 -39.184627816,-5.0358896311652,0
 -39.184609431,-5.03591696616516,0
 -39.183664774,-5.03853867716528,0
 -39.182945687,-5.04002658416528,0
 -39.181024015,-5.04191159516537,0
 -39.179609662,-5.04300075616534,0
 -39.177607571,-5.04376182916543,0
 -39.175334816,-5.04495279016547,0
 -39.172251323,-5.04722338116558,0
 -39.170494996,-5.04901384416566,0
 -39.169662263,-5.05072929916567,0
 -39.167780159,-5.05261232816569,0
 -39.166307185,-5.05381294316573,0
 -39.165083331,-5.05372634116576,0
 -39.162890142,-5.05335309016579,0
 -39.158668618,-5.05141383416564,0
 -39.157559055,-5.05176561416571,0
 -39.156417455,-5.05283521416575,0
 -39.155520125,-5.05523000316582,0
 -39.15586047,-5.05696167516593,0
 -39.157665996,-5.05922381816588,0
 -39.160218474,-5.06152181016594,0
 -39.1610812599999,-5.06247129416607,0
 -39.160494773,-5.06325210616602,0
 -39.15685841,-5.06480806516606,0
 -39.15499454,-5.06659672716618,0
 -39.1537504689999,-5.06969440216624,0
 -39.1526986499999,-5.07185811816639,0
 -39.1528360029999,-5.0725429411663,0
 -39.153996145,-5.07342729216646,0
 -39.155029842,-5.07439548316646,0
 -39.156306378,-5.07578042516647,0
 -39.157081231,-5.0785212871665,0
 -39.156802334,-5.0797237341666,0
 -39.157997309,-5.08228055016668,0
 -39.159564033,-5.0836763891667,0
 -39.1617812279999,-5.08418262816667,0
 -39.1623038389999,-5.08532592916676,0
 -39.1611304429999,-5.0860874901668,0
 -39.159890419,-5.08634255716677,0
 -39.157672628,-5.08570762716682,0
 -39.1555860899999,-5.08570839316679,0
 -39.1549351079999,-5.08685001916675,0
 -39.154673466,-5.08900766816693,0
 -39.155066245,-5.09053139216697,0
 -39.155524613,-5.09345077616702,0
 -39.156172327,-5.09427571116706,0
 -39.157218656,-5.0956083281672,0
 -39.158393735,-5.0978917281673,0
 -39.158264553,-5.09839909016718,0
 -39.156959312,-5.10043104316726,0
 -39.154415737,-5.10233551316736,0
 -39.150502933,-5.10373232616738,0
 -39.149592107,-5.10563734216744,0
 -39.150242778,-5.10677738516744,0
 -39.151025834,-5.10677653416746,0
 -39.150895696,-5.10563588316741,0
 -39.151481933,-5.10487446216738,0
 -39.152263391,-5.10436595816741,0
 -39.153307517,-5.10500194916736,0
 -39.154091058,-5.10601632416736,0
 -39.154743272,-5.10601691416741,0
 -39.155786229,-5.10474582516739,0
 -39.157220797,-5.10423790816738,0
 -39.159503738,-5.10436597616741,0
 -39.158982411,-5.10639619216752,0
 -39.159374804,-5.10766352916749,0
 -39.160417637,-5.10766410516754,0
 -39.163548463,-5.10537889716746,0
 -39.165569167,-5.10499608316741,0
 -39.167395911,-5.10499753016744,0
 -39.168049518,-5.10563006416746,0
 -39.168439972,-5.10652016816756,0
 -39.167918485,-5.10778987216746,0
 -39.167917319,-5.10956659916756,0
 -39.168832109,-5.11159839116772,0
 -39.1686037819999,-5.1135582201677,0
 -39.1673598729999,-5.11412816516769,0
 -39.166834653,-5.1153242431678,0
 -39.165054828,-5.11620250316773,0
 -39.163274894,-5.11674027716781,0
 -39.162446076,-5.11856843616791,0
 -39.1614472379999,-5.12037526516792,0
 -39.160000957,-5.12198911716796,0
 -39.160281255,-5.12276560016808,0
 -39.161441657,-5.12329051516799,0
 -39.1631589909999,-5.12349621816805,0
 -39.165411873,-5.12398350916804,0
 -39.1667250269999,-5.12491710016802,0
 -39.167725337,-5.12653074916813,0
 -39.168945396,-5.12949811216824,0
 -39.1692221339999,-5.13187714616836,0
 -39.167249166,-5.13409096216839,0
 -39.162886988,-5.1351324511684,0
 -39.161416435,-5.13585907616839,0
 -39.160845977,-5.13652016816847,0
 -39.159578045,-5.13798651816847,0
 -39.157526437,-5.13932493016855,0
 -39.1554187639999,-5.14024895216862,0
 -39.153137826,-5.14144123416859,0
 -39.151051065,-5.14224315016868,0
 -39.1502995069999,-5.14277845516865,0
 -39.1491315009999,-5.14409815816869,0
 -39.147801223,-5.14503173316875,0
 -39.145664316,-5.14535985916872,0
 -39.142173331,-5.14629278416873,0
 -39.13846309,-5.14311892316867,0
 -39.138099372,-5.1419074011687,0
 -39.1400919869999,-5.13948267316863,0
 -39.138884807,-5.13887699316843,0
 -39.137675428,-5.13790721116848,0
 -39.136227091,-5.13815111116851,0
 -39.13350943,-5.13972633016863,0
 -39.1309738379999,-5.14336124816865,0
 -39.130732489,-5.14493975416878,0
 -39.128619012,-5.14724431716877,0
 -39.097633338,-5.15112603216895,0
 -39.096181499,-5.15003704316891,0
 -39.094249955,-5.14942981116885,0
 -39.093405323,-5.15076338716888,0
 -39.091653594,-5.15415706216901,0
 -39.085432441,-5.15803722116916,0
 -39.086723871,-5.16900863016949,0
 -39.086723884,-5.16900874716949,0
 -39.086935227,-5.17080883316957,0
 -39.059694959,-5.21915741717111,0
 -39.0569163829999,-5.22238028717123,0
 -39.054022221,-5.22415168217133,0
 -39.053133725,-5.22455026217136,0
 -39.052423091,-5.22486982617134,0
 -39.0524228959999,-5.22486991417134,0
 -39.050301228,-5.22582348417128,0
 -39.047339762,-5.22761420117138,0
 -39.037435999,-5.2225238251712,0
 -39.031760575,-5.22185415117121,0
 -39.0279203499999,-5.22286077717119,0
 -39.029357411,-5.22398821717131,0
 -39.032178217,-5.22654368817128,0
 -39.032845279,-5.23073077417151,0
 -39.034453936,-5.23604534017167,0
 -39.035833195,-5.23895431917175,0
 -39.037384837,-5.24152703317181,0
 -39.03804532,-5.24308453717199,0
 -39.0401932889999,-5.24962337517211,0
 -39.040277786,-5.25167232817218,0
 -39.039580235,-5.25441172817235,0
 -39.037189117,-5.26065378317244,0
 -39.035298945,-5.26385528717256,0
 -39.034496297,-5.26712050617263,0
 -39.034329918,-5.26916271217276,0
 -39.034440374,-5.27047480517279,0
 -39.035360596,-5.2719938141728,0
 -39.036830064,-5.2735247431729,0
 -39.040052295,-5.27644103217305,0
 -39.042077931,-5.27847484617303,0
 -39.04311031,-5.27997950417308,0
 -39.043110327,-5.27997952817309,0
 -39.043110442,-5.2799796961731,0
 -39.046023838,-5.28422587217334,0
 -39.047916989,-5.28871582117331,0
 -39.04930538,-5.2914155411734,0
 -39.051385495,-5.29413143817358,0
 -39.052885346,-5.29589250217363,0
 -39.053527562,-5.29726350017365,0
 -39.053706257,-5.29785031817371,0
 -39.053829874,-5.29825475817368,0
 -39.053829908,-5.2982548711737,0
 -39.0547985809999,-5.30143120717378,0
 -39.075271336,-5.36860269617593,0
 -39.075271374,-5.36860282317594,0
 -39.082773191,-5.3932326301767,0
 -39.085951126,-5.40366956017712,0
 -39.085070221,-5.40366962217703,0
 -39.085069868,-5.40366962217703,0
 -39.082801157,-5.40366906117708,0
 -39.081414339,-5.40307436517708,0
 -39.074385475,-5.40446551617708,0
 -39.0724055159999,-5.40704846017718,0
 -39.071416181,-5.40903374617731,0
 -39.067949722,-5.41002734217727,0
 -39.0610193809999,-5.41280884717738,0
 -39.0590379530001,-5.4151911471775,0
 -39.056167592,-5.41936229217765,0
 -39.056762769,-5.42293724417777,0
 -39.056366988,-5.4257168841778,0
 -39.055921634,-5.42770312917792,0
 -39.055476279,-5.42968937517795,0
 -39.056665047,-5.43405895017809,0
 -39.057158704,-5.44061136317836,0
 -39.058447748,-5.44915051617862,0
 -39.060727065,-5.46067073117896,0
 -39.061718917,-5.46384947717907,0
 -39.065779,-5.46941102317925,0
 -39.067560764,-5.47119590417932,0
 -39.068749609,-5.47357984817939,0
 -39.070037129,-5.47755245017946,0
 -39.069640883,-5.4809280121796,0
 -39.0713244409999,-5.48629089117977,0
 -39.0695436199999,-5.48787963717987,0
 -39.068454274,-5.49343975118001,0
 -39.065638567,-5.49585467618016,0
 -39.063105891,-5.49761145118012,0
 -39.061819711,-5.50078946918026,0
 -39.060291183,-5.51108503018053,0
 -39.061070797,-5.51134630218057,0
 -39.063023872,-5.51291867918064,0
 -39.064117689,-5.51533200818074,0
 -39.069280913,-5.52353918618098,0
 -39.070373943,-5.52749600718107,0
 -39.0713170069999,-5.5288479951812,0
 -39.0730055449999,-5.53049024718119,0
 -39.074792645,-5.53367572518141,0
 -39.075985215,-5.53367588818134,0
 -39.075985285,-5.53367585618133,0
 -39.0780710239999,-5.53270994918126,0
 -39.080800414,-5.53097215918127,0
 -39.082687572,-5.53000657718114,0
 -39.084772956,-5.5296197931812,0
 -39.086460978,-5.52990846418119,0
 -39.088050295,-5.52971522818119,0
 -39.089042735,-5.52875146318112,0
 -39.089240631,-5.52807376018109,0
 -39.0880969209999,-5.52372866018102,0
 -39.087999245,-5.52112225818092,0
 -39.088146918,-5.51484589718067,0
 -39.0875507719999,-5.51079066118051,0
 -39.088545066,-5.50914785818057,0
 -39.091323165,-5.5068315871805,0
 -39.093557213,-5.50673428318044,0
 -39.0950454759999,-5.50837774118044,0
 -39.0962388819999,-5.51223842718066,0
 -39.096735398,-5.51223820318064,0
 -39.099217469,-5.51098224418055,0
 -39.101650817,-5.5107873911806,0
 -39.105423376,-5.51078770218054,0
 -39.109197193,-5.51127019418058,0
 -39.111878056,-5.51011167518055,0
 -39.1143110980001,-5.50875810318047,0
 -39.116296497,-5.50711538518044,0
 -39.118282522,-5.50711525418043,0
 -39.119870769,-5.5075990761805,0
 -39.1220533679999,-5.50750129618049,0
 -39.125282812,-5.5079845171805,0
 -39.131935987,-5.51174832418062,0
 -39.133425863,-5.51223154518063,0
 -39.13412088,-5.51184488218061,0
 -39.134717374,-5.51107250318056,0
 -39.136651534,-5.50952637818062,0
 -39.138736929,-5.50817379118044,0
 -39.140022061,-5.50783285218048,0
 -39.140022385,-5.50783276618047,0
 -39.140921845,-5.50759375818041,0
 -39.143205748,-5.50759461318048,0
 -39.14598646,-5.50904106918053,0
 -39.149909423,-5.51367474418067,0
 -39.152690693,-5.5163781651807,0
 -39.153782921,-5.51666625018074,0
 -39.155073842,-5.51666679618079,0
 -39.156663325,-5.51589556118074,0
 -39.157357596,-5.51521823418074,0
 -39.158598471,-5.51541186818069,0
 -39.159096562,-5.51598932318068,0
 -39.159990317,-5.51907876518086,0
 -39.162273101,-5.51898335418079,0
 -39.164807378,-5.51975530118089,0
 -39.1648074420001,-5.51975541418081,0
 -39.167112416,-5.52382776318096,0
 -39.168969368,-5.52432604918098,0
 -39.172307217,-5.52544921818109,0
 -39.174247558,-5.52657364318105,0
 -39.176969933,-5.52775987318114,0
 -39.182438428,-5.5278141031811,0
 -39.18832941,-5.52836608418121,0
 -39.192165208,-5.52907938118116,0
 -39.1930290729999,-5.53029079918121,0
 -39.194747054,-5.53341638318127,0
 -39.197058353,-5.53411917018133,0
 -39.199638315,-5.53558220318133,0
 -39.200496952,-5.53735383018145,0
 -39.2011148459999,-5.54106487818155,0
 -39.201625322,-5.54183763018154,0
 -39.204236713,-5.54274998918162,0
 -39.207270002,-5.54426124718161,0
 -39.210045652,-5.54524253518171,0
 -39.212379567,-5.54648020918171,0
 -39.21403249,-5.54647910418171,0
 -39.215568931,-5.54404604718157,0
 -39.217950531,-5.5400681371815,0
 -39.219190786,-5.53758594118147,0
 -39.220429548,-5.54027407418157,0
 -39.220636069,-5.54399377718168,0
 -39.2220821999999,-5.5470963401817,0
 -39.226211407,-5.54916364018178,0
 -39.224562216,-5.55288718618203,0
 -39.223946747,-5.55763596418201,0
 -39.223762205,-5.55961476418214,0
 -39.224638484,-5.5614029801823,0
 -39.225475978,-5.56219462818225,0
 -39.2265882879999,-5.56392802118224,0
 -39.227748837,-5.56684896318242,0
 -39.230060646,-5.57082402418251,0
 -39.23117059,-5.57643003218273,0
 -39.232510551,-5.57829689418273,0
 -39.23312698,-5.57897642918283,0
 -39.242245484,-5.58304974618297,0
 -39.24572563,-5.58426474618296,0
 -39.24595846,-5.5844455281829,0
 -39.246053351,-5.59206483918317,0
 -39.246053488,-5.59206496618318,0
 -39.246534966,-5.59250824218326,0
 -39.24682645,-5.5924785601832,0
 -39.248407161,-5.59019399118318,0
 -39.249050914,-5.5895231581831,0
 -39.251582688,-5.58799982718309,0
 -39.252872007,-5.58683329118303,0
 -39.253884019,-5.5856713861829,0
 -39.2547590419999,-5.58446410918293,0
 -39.2555868009999,-5.583657600183,0
 -39.2575206059999,-5.58267216118291,0
 -39.259315243,-5.58158524718286,0
 -39.259867535,-5.58095853918287,0
 -39.259777026,-5.57976455718276,0
 -39.259502063,-5.57935945718281,0
 -39.2589381129999,-5.57892195118276,0
 -39.258437306,-5.57799122918276,0
 -39.257854124,-5.57657339718268,0
 -39.257102751,-5.57523643218264,0
 -39.255769755,-5.57394229118259,0
 -39.255560077,-5.57317188818262,0
 -39.2557903339999,-5.57203737018254,0
 -39.255498321,-5.5715924671825,0
 -39.254747829,-5.57110580618247,0
 -39.254039229,-5.56993190518251,0
 -39.253287967,-5.56798728718237,0
 -39.253245402,-5.56575949918233,0
 -39.253973062,-5.56349081118221,0
 -39.253973018,-5.56093830818213,0
 -39.254222704,-5.5604925151822,0
 -39.255388879,-5.55972213318223,0
 -39.255845169,-5.55846522618214,0
 -39.2568449399999,-5.5577766171821,0
 -39.2578462669999,-5.5577368991821,0
 -39.25999182,-5.55874849018213,0
 -39.260950115,-5.55891001118218,0
 -39.262033232,-5.55842304818212,0
 -39.262366992,-5.55765263918206,0
 -39.262615712,-5.55664023918204,0
 -39.263447941,-5.5558293271821,0
 -39.2644474280001,-5.55522210318195,0
 -39.265655833,-5.55392462218197,0
 -39.265863881,-5.55319757118195,0
 -39.2653421279999,-5.55202118918187,0
 -39.264469227,-5.5508074411819,0
 -39.264006917,-5.54967191218182,0
 -39.263882246,-5.5479315561818,0
 -39.264673536,-5.54663274218171,0
 -39.267858122,-5.5435526551816,0
 -39.268900539,-5.54217490618164,0
 -39.269898372,-5.54059641118151,0
 -39.270064942,-5.53836738518147,0
 -39.2708984879999,-5.53678666218142,0
 -39.2735010049999,-5.53415296118138,0
 -39.274749533,-5.53204623418124,0
 -39.276457297,-5.53094971518119,0
 -39.277913833,-5.52929105418118,0
 -39.278204933,-5.52795205018106,0
 -39.27791319,-5.52616994318113,0
 -39.278329959,-5.52535938918103,0
 -39.278912156,-5.52507649018099,0
 -39.2816533189999,-5.52570537518115,0
 -39.282950767,-5.52576979018115,0
 -39.2838154889999,-5.52548840618114,0
 -39.285259973,-5.52391079918099,0
 -39.2859065559999,-5.52261354618095,0
 -39.286817085,-5.52123065918092,0
 -39.288239115,-5.51971814318083,0
 -39.2906201169999,-5.51794395018085,0
 -39.291263993,-5.51768437818087,0
 -39.293711233,-5.51772459318082,0
 -39.294209633,-5.51743438118079,0
 -39.295274136,-5.51495247718069,0
 -39.296018794,-5.51398765618062,0
 -39.297430146,-5.51336282318061,0
 -39.298969143,-5.51304668718066,0
 -39.300082829,-5.51295071018063,0
 -39.300454555,-5.51227646818062,0
 -39.301074249,-5.51150568218052,0
 -39.302362348,-5.51032434518056,0
 -39.303974096,-5.50984262718059,0
 -39.306403719,-5.50964844318051,0
 -39.306650069,-5.50993985118055,0
 -39.310363216,-5.51093856418058,0
 -39.31036344,-5.5109386251805,0
 -39.311460754,-5.51123367218057,0
 -39.311461052,-5.51123375218058,0
 -39.351726601,-5.52206620118096,0
 -39.351726822,-5.52206626118096,0
 -39.3520260950001,-5.52214693718089,0
 -39.36717234,-5.52622115718111,0
 -39.367172535,-5.52622121418111,0
 -39.368389496,-5.52657599218107,0
 -39.399901428,-5.50990642918054,0
 -39.399902124,-5.50990606118059,0
 -39.400421943,-5.50963140318052,0
 -39.4426349169999,-5.48728344617983,0
 -39.442635299,-5.4872832441799,0
 -39.4570172230001,-5.47966581717962,0
 -39.457017246,-5.47966580517961,0
 -39.457017711,-5.47966555917959,0
 -39.464005065,-5.47596524917941,0
 -39.4640053820001,-5.4759650811794,0
 -39.46414592,-5.47589055917945,0
 -39.464170859,-5.47585476817942,0
 -39.464170916,-5.47585468517941,0
 -39.484186324,-5.44712962917856,0
 -39.502030421,-5.42150785617771,0
 -39.509158293,-5.41127317017732,0
 -39.518891707,-5.3972894531769,0
 -39.52862512,-5.38330573617646,0
 -39.526708317,-5.38172925517632,0
 -39.527370419,-5.37972472317629,0
 -39.529430509,-5.37756998617635,0
 -39.5310521780001,-5.37570494317622,0
 -39.532523277,-5.37484368817619,0
 -39.534439224,-5.37469747417617,0
 -39.536578232,-5.37555665417621,0
 -39.539529292,-5.37784770917632,0
 -39.542034592,-5.37856279317634,0
 -39.54439537,-5.37883358217627,0
 -39.550613728,-5.37763417017633,0
 -39.556118715,-5.37839882417627,0
 -39.558558574,-5.37827159117631,0
 -39.560111435,-5.37804463517637,0
 -39.560948723,-5.37792226217628,0
 -39.5629451249999,-5.37825828317628,0
 -39.566366202,-5.38007367717638,0
 -39.566695037,-5.38107286417637,0
 -39.566833633,-5.38277612617643,0
 -39.566557877,-5.38485741117642,0
 -39.566529913,-5.38676727617652,0
 -39.566893017,-5.38817847317658,0
 -39.567191217,-5.39003534217665,0
 -39.566861411,-5.39248363117672,0
 -39.567193003,-5.39407736217687,0
 -39.568005753,-5.39480625917678,0
 -39.568809642,-5.39590233217679,0
 -39.568918411,-5.3969675071769,0
 -39.568396108,-5.39848899217694,0
 -39.56839098,-5.400121458177,0
 -39.568837653,-5.40076040517702,0
 -39.569809787,-5.401037067177,0
 -39.570781922,-5.40131372817697,0
 -39.571866,-5.40239261417707,0
 -39.573422023,-5.40298961317708,0
 -39.576946969,-5.4028954381771,0
 -39.577526518,-5.40372372817707,0
 -39.577552442,-5.40376077817712,0
 -39.57852612,-5.40515062317719,0
 -39.579499798,-5.40654046817716,0
 -39.580604517,-5.40743749717722,0
 -39.582387317,-5.40806255417724,0
 -39.584641993,-5.40779796117729,0
 -39.586638338,-5.40735466417721,0
 -39.5888068479999,-5.40650932817716,0
 -39.590893525,-5.40497812317721,0
 -39.59269974,-5.40381047617706,0
 -39.594332281,-5.40232137817713,0
 -39.5958347929999,-5.40064687217696,0
 -39.598114129,-5.400068783177,0
 -39.598915608,-5.40048005817701,0
 -39.599238307,-5.40291944817714,0
 -39.599249712,-5.40300566217708,0
 -39.599249718,-5.40300571017708,0
 -39.599249725,-5.40300575817709,0
 -39.599253042,-5.40303083817712,0
 -39.600007187,-5.40544214017714,0
 -39.601038404,-5.4072547631772,0
 -39.602755707,-5.40745300217717,0
 -39.6046950799999,-5.40678906817721,0
 -39.607470506,-5.40543928817718,0
 -39.609059846,-5.40499263717717,0
 -39.612948828,-5.40619664617722,0
 -39.613835689,-5.40602410217716,0
 -39.614829673,-5.40488935917724,0
 -39.615647842,-5.40325946617712,0
 -39.616477581,-5.400998409177,0
 -39.618199047,-5.39918576517695,0
 -39.619754335,-5.39865230017695,0
 -39.621706308,-5.39884968617694,0
 -39.626969875,-5.400354357177,0
 -39.628422241,-5.40038504717696,0
 -39.630167146,-5.39984799817694,0
 -39.631888558,-5.39886136017692,0
 -39.6332533929999,-5.39727628917687,0
 -39.633556279,-5.39560108717682,0
 -39.633919337,-5.39442629017687,0
 -39.634922197,-5.39284165817676,0
 -39.636835831,-5.39053676017666,0
 -39.643248914,-5.3836582231765,0
 -39.643593578,-5.38339859317651,0
 -39.645713119,-5.38304180817647,0
 -39.6469319679999,-5.38313630717648,0
 -39.648198326,-5.38369674417648,0
 -39.64932557,-5.38350848217645,0
 -39.649418486,-5.38219058817639,0
 -39.649324592,-5.38143765917644,0
 -39.6498849939999,-5.37993133617633,0
 -39.648688691,-5.37734733217631,0
 -39.649623256,-5.37589664117618,0
 -39.649623436,-5.37589636117616,0
 -39.64962348,-5.37589629317615,0
 -39.649623816,-5.37589614717614,0
 -39.6509587049999,-5.37531751617623,0
 -39.6522947449999,-5.37500534917616,0
 -39.655491672,-5.37488442017619,0
 -39.658040013,-5.37493377917619,0
 -39.6578630999999,-5.37467009517622,0
 -39.658848999,-5.3735233651761,0
 -39.660665419,-5.37304549917609,0
 -39.662164536,-5.3720945861761,0
 -39.660658543,-5.36766224717592,0
 -39.6605796849999,-5.36611953017582,0
 -39.662510414,-5.36500997517585,0
 -39.664642406,-5.36476813317583,0
 -39.666139895,-5.36365927017583,0
 -39.6681038299999,-5.36278112817573,0
 -39.66765648,-5.36276648017576,0
 -39.667283459,-5.36018621017561,0
 -39.666753744,-5.35859180417567,0
 -39.665642132,-5.35793677117557,0
 -39.66482175,-5.35850670217565,0
 -39.664060429,-5.35936304017563,0
 -39.66248101,-5.3594797801757,0
 -39.661599758,-5.35805723117559,0
 -39.659928194,-5.35666147617557,0
 -39.6594173569998,-5.35571486417558,0
 -39.6595002139999,-5.35003038017545,0
 -39.656438939,-5.34524998817524,0
 -39.657650315,-5.34227421717514,0
 -39.658906201,-5.34091945617504,0
 -39.658546339,-5.33965527817507,0
 -39.658546133,-5.33965498417505,0
 -39.65665397,-5.33695128717499,0
 -39.655981564,-5.33866659517498,0
 -39.655172778,-5.33920699617511,0
 -39.653643178,-5.33966089917509,0
 -39.651933882,-5.34038525117499,0
 -39.651037398,-5.34192001617514,0
 -39.64955162,-5.341288174175,0
 -39.6474848999999,-5.3420140371751,0
 -39.645454519,-5.33642144417494,0
 -39.645091331,-5.33362415617486,0
 -39.644013201,-5.3328130271748,0
 -39.641672146,-5.33209523017474,0
 -39.639920658,-5.33292561117479,0
 -39.637583282,-5.33437241817487,0
 -39.635246359,-5.33473519317486,0
 -39.633627877,-5.33653763817496,0
 -39.631668917,-5.33648884917501,0
 -39.6306691469999,-5.3351533001749,0
 -39.628666723,-5.33214715117477,0
 -39.627830247,-5.32914026217468,0
 -39.629828143,-5.32579674417461,0
 -39.6291590499999,-5.32512823717454,0
 -39.628491298,-5.32379411917456,0
 -39.62532625,-5.32346117717454,0
 -39.622327007,-5.32279609717458,0
 -39.622820384,-5.3164474031742,0
 -39.6241509349999,-5.31410610417419,0
 -39.62514751,-5.31176688417418,0
 -39.626644491,-5.30875751217405,0
 -39.623757985,-5.2553589941723,0
 -39.613962756,-5.24045230417189,0
 -39.613962497,-5.24045191117185,0
 -39.5877356339999,-5.20054640017053,0
 -39.560111435,-5.15853838716924,0
 -39.53414106,-5.11904533816784,0
 -39.534141127,-5.11904532116784,0
 -39.534141255,-5.11904528916784,0
 -39.5374756550001,-5.11820400416786,0
 -39.540941748,-5.11654496316782,0
 -39.542330177,-5.11571533416774,0
 -39.544531557,-5.11495781616777,0
 -39.546394825,-5.11474343616779,0
 -39.5498331969999,-5.11389806616766,0
 -39.551696938,-5.11291393716768,0
 -39.553813086,-5.11110945216759,0
 -39.5560355009999,-5.10982450216758,0
 -39.559751703,-5.10858262516751,0
 -39.560111435,-5.10824087516756,0
 -39.562250648,-5.10620859816754,0
 -39.565726766,-5.10410041016737,0
 -39.567562559,-5.10307164916734,0
 -39.569894272,-5.10213169316728,0
 -39.571281345,-5.10143505716729,0
 -39.573559902,-5.10049127116726,0
 -39.5748379409998,-5.09974927316725,0
 -39.576201673,-5.09853216216726,0
 -39.5786369579999,-5.09728046116717,0
 -39.580221863,-5.09581735416717,0
 -39.582089661,-5.09547916116716,0
 -39.5836702569998,-5.0953539191671,0
 -39.585389795,-5.09550525516719,0
 -39.589332001,-5.09704727616715,0
 -39.593501283,-5.09816460616722,0
 -39.5945323,-5.09816770916721,0
 -39.597834602,-5.09758353516711,0
 -39.599075796,-5.09623819716708,0
 -39.600869692,-5.09395168016708,0
 -39.6030797630001,-5.09327795016702,0
 -39.604321995,-5.09220265116696,0
 -39.605838947,-5.08971449516688,0
 -39.61384612,-5.08412837916671,0
 -39.6155025519999,-5.08332149016665,0
 -39.618127161,-5.08170594516674,0
 -39.618124766,-5.07942061816666,0
 -39.61756934,-5.07713738016657,0
 -39.617983966,-5.07599492916646,0
 -39.620052434,-5.07343860216642,0
 -39.621016987,-5.07115131516635,0
 -39.622672523,-5.06846235616626,0
 -39.6251549749999,-5.06530270616614,0
 -39.628603812,-5.06032478416593,0
 -39.6303971,-5.05803938716593,0
 -39.6341302049999,-5.05488970416582,0
 -39.6334452639999,-5.05345954416571,0
 -39.633004505,-5.05300369616574,0
 -39.632197389,-5.05159109416574,0
 -39.631812348,-5.05066288116559,0
 -39.631712935,-5.05018981216562,0
 -39.631054283,-5.04706681116559,0
 -39.630224522,-5.04425148316545,0
 -39.629717808,-5.04327771016543,0
 -39.629717346,-5.04327774216544,0
 -39.560111435,-5.04809480016556,0
 -39.5484461259999,-5.04890209416565,0
 -39.548445789,-5.04890211716566,0
 -39.522683878,-5.05068188516566,0
 -39.515579222,-5.05117251916566,0
 -39.515578887,-5.05117254216567,0
 -39.502467908,-5.05206476616568,0
 -39.502330076,-5.05161463616574,0
 -39.502330003,-5.05161455016573,0
 -39.50232971,-5.0516141781657,0
 -39.482502039,-5.02638631616485,0
 -39.482497403,-5.02638042016481,0
 -39.478219003,-5.02093822116464,0
 -39.478218784,-5.02093794316471,0
 -39.4728267709999,-5.01407910216449,0
 -39.472826366,-5.01407858716453,0
 -39.470267382,-5.01082435816439,0
 -39.470267739,-5.01082369616434,0
 -39.475560302,-5.00100789516397,0
 -39.475560546,-5.00100744416402,0
 -39.478038541,-4.99641094516384,0
 -39.480370331,-4.9806881011634,0
 -39.480370341,-4.9806880401634,0
 -39.480370378,-4.98068778616346,0
 -39.48041811,-4.98036593916339,0
 -39.476691489,-4.97842918716337,0
 -39.473195786,-4.97592776916326,0
 -39.473195472,-4.97592754316324,0
 -39.47289309,-4.97571097016326,0
 -39.472892968,-4.97571085816325,0
 -39.471557694,-4.97448793916315,0
 -39.4696933829999,-4.97030115616303,0
 -39.468978755,-4.96801788016294,0
 -39.467776943,-4.96566025016282,0
 -39.466200758,-4.96362854716276,0
 -39.4640548220001,-4.9625942641628,0
 -39.460001166,-4.9609645961627,0
 -39.458234734,-4.95911137216267,0
 -39.457245832,-4.95889304316272,0
 -39.456719273,-4.95890588516271,0
 -39.456186293,-4.95873892816267,0
 -39.454779997,-4.95803256916258,0
 -39.452830859,-4.95734446916266,0
 -39.451068401,-4.95632446416265,0
 -39.449784112,-4.95620887816258,0
 -39.44764698,-4.95519977116258,0
 -39.445947401,-4.95497689316252,0
 -39.443112821,-4.95505578316257,0
 -39.441551046,-4.95472017216251,0
 -39.441550827,-4.95472012516251,0
 -39.44155078,-4.95472011516251,0
 -39.440169681,-4.95442345916248,0
 -39.437610283,-4.95352943916258,0
 -39.4351643,-4.95397672816246,0
 -39.433136647,-4.95471244016258,0
 -39.431670528,-4.95417295216253,0
 -39.429588139,-4.95130712516247,0
 -39.427861129,-4.95065782816248,0
 -39.424252561,-4.95114863716241,0
 -39.423118578,-4.95108238916244,0
 -39.421671611,-4.95041278316246,0
 -39.4214695809999,-4.94976798616231,0
 -39.422864891,-4.94661632216231,0
 -39.423199257,-4.94460822316216,0
 -39.422837772,-4.94347024516215,0
 -39.421783191,-4.94307978516217,0
 -39.420310071,-4.94273298116216,0
 -39.4168296199999,-4.94265883416215,0
 -39.415196814,-4.94187055016212,0
 -39.413913748,-4.94161541516206,0
 -39.413086212,-4.94066994416208,0
 -39.412139403,-4.93868458516204,0
 -39.4104977179999,-4.93708221416198,0
 -39.4091495279999,-4.93627024716185,0
 -39.408211665,-4.93582273016186,0
 -39.406730185,-4.93540657216189,0
 -39.405782153,-4.93460664316187,0
 -39.404827941,-4.93246700916176,0
 -39.403100134,-4.93165225716176,0
 -39.3993876649999,-4.93130867416184,0
 -39.397885484,-4.9303655721617,0
 -39.397884089,-4.93036272516174,0
 -39.397883873,-4.9303622831617,0
 -39.396856206,-4.92826519716174,0
 -39.396856062,-4.92826527316165,0
 -39.39605696,-4.92868926416174,0
 -39.395219656,-4.92862589416173,0
 -39.39481021,-4.92797939816163,0
 -39.393971539,-4.92797732616163,0
 -39.392830768,-4.92934863416176,0
 -39.391278309,-4.93227405916178,0
 -39.389886627,-4.93361194716181,0
 -39.388225664,-4.93448853116187,0
 -39.3872243489999,-4.93490346416191,0
 -39.3866390589999,-4.93607277616194,0
 -39.3872405919999,-4.93635542416188,0
 -39.387441563,-4.93684591616196,0
 -39.387219488,-4.93875096916202,0
 -39.389809716,-4.94112601916207,0
 -39.39000139,-4.94299874616213,0
 -39.389386855,-4.94426379816217,0
 -39.3880810329999,-4.94494464416228,0
 -39.386695024,-4.94529962916225,0
 -39.385775441,-4.94600973316221,0
 -39.38549918,-4.9463446131623,0
 -39.385472262,-4.94746537416221,0
 -39.385204741,-4.94885869816239,0
 -39.384719714,-4.95049966916245,0
 -39.384892184,-4.95173682516241,0
 -39.385726168,-4.95275335416249,0
 -39.386001211,-4.95408119316258,0
 -39.385421693,-4.95534957116254,0
 -39.383308605,-4.95671388416262,0
 -39.382224252,-4.9572084011626,0
 -39.381481008,-4.95713203716259,0
 -39.380443685,-4.95737963716265,0
 -39.379830241,-4.95855088316265,0
 -39.378257087,-4.9608894361627,0
 -39.377473776,-4.96235398716282,0
 -39.376471637,-4.96360271416275,0
 -39.375305422,-4.96576947016289,0
 -39.37455295,-4.96666349016296,0
 -39.374808701,-4.96776223716292,0
 -39.375939826,-4.96919777816295,0
 -39.375801091,-4.97211279216318,0
 -39.373614457,-4.97393081316314,0
 -39.369666779,-4.97417092216312,0
 -39.3674445759999,-4.97480551816313,0
 -39.365777365,-4.97586549616317,0
 -39.364533576,-4.97626707916327,0
 -39.363945629,-4.9759828761632,0
 -39.363086829,-4.97599067116322,0
 -39.362251487,-4.97679697216324,0
 -39.362281324,-4.97811155616329,0
 -39.361974898,-4.97933918716335,0
 -39.360942702,-4.98031466916341,0
 -39.358754384,-4.98100419316336,0
 -39.357167371,-4.98178549416343,0
 -39.355227691,-4.98256706116344,0
 -39.355227557,-4.98256690816343,0
 -39.354895247,-4.9821920001634,0
 -39.352747614,-4.98255737816343,0
 -39.352580626,-4.98196515516337,0
 -39.35339219,-4.97997852916331,0
 -39.352249536,-4.97821957116335,0
 -39.350809034,-4.9765496881633,0
 -39.350221507,-4.9753291431632,0
 -39.350106068,-4.97453044916311,0
 -39.350615197,-4.9720345381631,0
 -39.351724827,-4.96946481716311,0
 -39.352915431,-4.96794179116295,0
 -39.353667114,-4.96740436716298,0
 -39.354469928,-4.96623911916294,0
 -39.35402755,-4.96545879416294,0
 -39.348894299,-4.96188161516272,0
 -39.347779412,-4.96092745316274,0
 -39.347883016,-4.96029202016265,0
 -39.3495009929999,-4.95937202316274,0
 -39.350468562,-4.95753673316258,0
 -39.350468696,-4.95753647816265,0
 -39.350856732,-4.95679965916262,0
 -39.351333038,-4.95531206016246,0
 -39.355196263,-4.95324713316249,0
 -39.355857379,-4.95144023816247,0
 -39.355801299,-4.94984221016232,0
 -39.354643198,-4.94888278616234,0
 -39.354533652,-4.94817882116236,0
 -39.355082153,-4.94700718516223,0
 -39.35708589,-4.94577208816226,0
 -39.358719261,-4.94448261616215,0
 -39.359000028,-4.94362581716214,0
 -39.358306866,-4.94155865916208,0
 -39.3578075949999,-4.94049685616206,0
 -39.358165233,-4.93934826016206,0
 -39.3590034730001,-4.93784115616197,0
 -39.3605263389999,-4.937093220162,0
 -39.363806949,-4.93598161316195,0
 -39.365112735,-4.93441523216193,0
 -39.365527917,-4.93282895616186,0
 -39.365501701,-4.93113865616181,0
 -39.3649683629999,-4.9304685551617,0
 -39.363889726,-4.92982449716179,0
 -39.36361169,-4.92943314516174,0
 -39.363553507,-4.92836498616173,0
 -39.363030617,-4.92799382116166,0
 -39.36274871,-4.92725113216167,0
 -39.3631413859999,-4.92416737216152,0
 -39.362663701,-4.92379104716156,0
 -39.36149869,-4.92390463316154,0
 -39.361086448,-4.92334400316152,0
 -39.360837165,-4.92279560516162,0
 -39.360613024,-4.92273652316143,0
 -39.360304846,-4.92119092216145,0
 -39.359227867,-4.92095688816145,0
 -39.3590535619999,-4.91947371216138,0
 -39.358669895,-4.91844069616135,0
 -39.358781819,-4.91710289016133,0
 -39.359945158,-4.9154869971613,0
 -39.3607271819999,-4.91402503016122,0
 -39.3604995739999,-4.91282715316123,0
 -39.359887747,-4.91159045516113,0
 -39.3585580730001,-4.91015106116114,0
 -39.357197413,-4.90888796116099,0
 -39.355111346,-4.90857123116099,0
 -39.354249937,-4.90805277916099,0
 -39.353858605,-4.90736212416105,0
 -39.35358667,-4.90580509616091,0
 -39.352664778,-4.90383135216094,0
 -39.3522780709999,-4.90058226416078,0
 -39.352250494,-4.89894372216074,0
 -39.351863027,-4.89775390116062,0
 -39.34991819,-4.8976163131607,0
 -39.348444939,-4.89740025816067,0
 -39.347421589,-4.89633711816064,0
 -39.3471148089999,-4.89553355116067,0
 -39.347169612,-4.89432598016059,0
 -39.3480558359999,-4.89092789116045,0
 -39.349368038,-4.88994927116039,0
 -39.350250381,-4.88586872216028,0
 -39.351361637,-4.88496289116028,0
 -39.352281471,-4.88333563116021,0
 -39.352701737,-4.88150334816012,0
 -39.353421169,-4.87955825316013,0
 -39.353301261,-4.87841703316003,0
 -39.35283578,-4.87703990416004,0
 -39.352733571,-4.87493555915992,0
 -39.353055417,-4.87371694915998,0
 -39.353476238,-4.87299706715984,0
 -39.35363488,-4.87145092215989,0
 -39.353501455,-4.86777803115967,0
 -39.353889418,-4.86646269915973,0
 -39.353582802,-4.86450383015956,0
 -39.353858761,-4.86344102615965,0
 -39.35447624,-4.86206219515952,0
 -39.354247177,-4.8597335711594,0
 -39.355056359,-4.85902445715944,0
 -39.357700853,-4.85809903315943,0
 -39.360108002,-4.85771342215941,0
 -39.360996959,-4.85690259215929,0
 -39.361197846,-4.85568400115927,0
 -39.3607777079999,-4.85510756615936,0
 -39.359308869,-4.85510298615934,0
 -39.358165371,-4.8553934191593,0
 -39.357670423,-4.85497921715931,0
 -39.357835014,-4.8539753581592,0
 -39.358670864,-4.85340516715928,0
 -39.361335471,-4.8527516161593,0
 -39.362311458,-4.85183659915917,0
 -39.3632478869999,-4.85062905315917,0
 -39.364804191,-4.84956764615919,0
 -39.365110138,-4.84877694615906,0
 -39.3640518839999,-4.84822655115908,0
 -39.362941465,-4.84816209115908,0
 -39.362972421,-4.84679538915906,0
 -39.364585702,-4.84560200815899,0
 -39.3640289699999,-4.84303344115883,0
 -39.3646132069999,-4.84188767415889,0
 -39.365808516,-4.84124785915888,0
 -39.36534055,-4.84005552215882,0
 -39.363579743,-4.83922241815881,0
 -39.362505035,-4.83892837615882,0
 -39.361224484,-4.83901543715883,0
 -39.360440719,-4.83885887715875,0
 -39.358893379,-4.83828340015883,0
 -39.357839676,-4.83752556015875,0
 -39.357701505,-4.83679565015866,0
 -39.358283275,-4.83530911715859,0
 -39.358251386,-4.8342144181586,0
 -39.35697341,-4.83336256215864,0
 -39.355338033,-4.83268980715849,0
 -39.354055176,-4.83152603915848,0
 -39.353470114,-4.83028577915853,0
 -39.35363616,-4.82851115815843,0
 -39.353306823,-4.82703975715836,0
 -39.352696584,-4.82526030615839,0
 -39.351865577,-4.82446164215839,0
 -39.3501077399999,-4.82369880615824,0
 -39.348751819,-4.82257649815828,0
 -39.348084091,-4.8209920891582,0
 -39.348116072,-4.81755315215806,0
 -39.347914525,-4.815472223158,0
 -39.347307314,-4.81441726015802,0
 -39.346028638,-4.81351384415798,0
 -39.3452490079999,-4.81238522815785,0
 -39.345414408,-4.81059313315781,0
 -39.346221733,-4.80719315615769,0
 -39.3475579719999,-4.80347658215766,0
 -39.347558023,-4.80347644115766,0
 -39.347834417,-4.80270805215758,0
 -39.3478385100001,-4.80082499015757,0
 -39.347416298,-4.79951202415747,0
 -39.346690033,-4.79804209415743,0
 -39.345664736,-4.79672274115734,0
 -39.343230732,-4.7940515791573,0
 -39.342045728,-4.79286119815731,0
 -39.3407486749999,-4.79251019715731,0
 -39.3399768459999,-4.79135118215725,0
 -39.339418705,-4.79089641415719,0
 -39.33913706,-4.79194684015733,0
 -39.339312596,-4.79258109715723,0
 -39.338512699,-4.7958979561574,0
 -39.340166731,-4.79716290715752,0
 -39.340166982,-4.79716309915736,0
 -39.341778202,-4.79839457515747,0
 -39.343273432,-4.79925072415742,0
 -39.3434417740001,-4.7994285211574,0
 -39.343495912,-4.80025383715756,0
 -39.343337143,-4.80174563815753,0
 -39.342106871,-4.80482147015766,0
 -39.341752681,-4.80654830015771,0
 -39.341116753,-4.80808707715776,0
 -39.340267401,-4.80961264015786,0
 -39.341143918,-4.81047523315782,0
 -39.342092865,-4.81186048115786,0
 -39.342208498,-4.81284035415794,0
 -39.342036458,-4.81411027115803,0
 -39.34274198,-4.81677097515809,0
 -39.341221139,-4.81959892115821,0
 -39.338635687,-4.82327517715827,0
 -39.334935713,-4.82682468015833,0
 -39.334035043,-4.82809243715842,0
 -39.332668404,-4.83025340915852,0
 -39.332248858,-4.83252265315851,0
 -39.3316140059999,-4.83433019615859,0
 -39.330726679,-4.83490628315865,0
 -39.328607664,-4.83486449115865,0
 -39.326606944,-4.8353480301587,0
 -39.323501356,-4.83584341415874,0
 -39.320722435,-4.8367371001587,0
 -39.317579709,-4.83859084815878,0
 -39.31555909,-4.83911679615878,0
 -39.309167561,-4.83936787815877,0
 -39.307750428,-4.84029178115883,0
 -39.307279592,-4.84197468415889,0
 -39.3073056339999,-4.8436557681589,0
 -39.306724654,-4.84546595215892,0
 -39.305029846,-4.84712044815904,0
 -39.303697027,-4.8486336661591,0
 -39.303505312,-4.84959730015916,0
 -39.30336225,-4.85031763615917,0
 -39.302496879,-4.85193612615923,0
 -39.299999091,-4.85393264915923,0
 -39.297530068,-4.85629839815939,0
 -39.2974705259999,-4.85902845315941,0
 -39.298304403,-4.86091218115948,0
 -39.299446818,-4.86262642315948,0
 -39.29960961,-4.86467989815957,0
 -39.2985560929999,-4.86741611015965,0
 -39.29863764,-4.86987769515976,0
 -39.2997540009999,-4.87117897315986,0
 -39.301250121,-4.87239372115992,0
 -39.3014769009999,-4.87476996615998,0
 -39.303080561,-4.87844955916005,0
 -39.303916409,-4.87983340216015,0
 -39.304102927,-4.88044861316008,0
 -39.303944443,-4.88055997516014,0
 -39.303193131,-4.88072795416009,0
 -39.298416844,-4.88062670516015,0
 -39.295973478,-4.88011953616012,0
 -39.293083807,-4.87989275816009,0
 -39.2897715459999,-4.87997488116014,0
 -39.289475588,-4.87998261416016,0
 -39.287749277,-4.88149505216015,0
 -39.285247218,-4.88394721516027,0
 -39.284453547,-4.8854084691603,0
 -39.284453432,-4.88540868216031,0
 -39.2842231349999,-4.88583352116029,0
 -39.284114518,-4.88746956416039,0
 -39.284448519,-4.88866755416039,0
 -39.284530165,-4.8902629841605,0
 -39.2850585839999,-4.89159821516049,0
 -39.285194329,-4.89286993316055,0
 -39.285171036,-4.89354982316058,0
 -39.28516417,-4.89373619416055,0
 -39.28449779,-4.89450135116062,0
 -39.280643101,-4.89673889316066,0
 -39.278632364,-4.89821880216072,0
 -39.278632326,-4.89821883016063,0
 -39.277634777,-4.89895322016073,0
 -39.275718957,-4.90078448116073,0
 -39.274475017,-4.90321757816087,0
 -39.274228155,-4.90493903516093,0
 -39.2735016199999,-4.90802409316102,0
 -39.2725236579999,-4.90936916816111,0
 -39.269585665,-4.91008656916105,0
 -39.267692533,-4.91085954416114,0
 -39.263914219,-4.91285391016122,0
 -39.2616376,-4.91508083316127,0
 -39.260054853,-4.91769117816133,0
 -39.257606772,-4.91907729716136,0
 -39.255113097,-4.91964288616135,0
 -39.253579386,-4.92010995616136,0
 -39.251997612,-4.92102951516141,0
 -39.250691623,-4.92259761316149,0
 -39.248253556,-4.92313542416158,0
 -39.2396891009999,-4.93371495916181,0
 -39.238381636,-4.93993082316204,0
 -39.2322843969999,-4.94222977016218,0
 -39.230428937,-4.94734097816222,0
 -39.228143449,-4.95068840616243,0
 -39.2248517529999,-4.95250912816245,0
 -39.225279311,-4.95481115116249,0
 -39.226197458,-4.95647859116261,0
 -39.226607465,-4.95828125016263,0
 -39.226443888,-4.95992355216272,0
 -39.225334672,-4.9615453801628,0</coordinates>
        </LineString>
      </Placemark>
    </Folder>
  </Document>
</kml>