<kml xmlns:xsd="http://schemas.opengis.net/kml/2.2.0/ogckml22.xsd" xmlns:xmlns="http://www.opengis.net/kml/2.2/" version="1.0">
  <Document>
    <name>TAMBORIL</name>
    <open>1</open>
    <Folder>
      <name>2313203</name>
      <Style id="line1">
        <LineStyle>
          <color>#ff000000</color>
          <width>3</width>
        </LineStyle>
        <BalloonStyle>
          <text>$[description]</text>
        </BalloonStyle>
      </Style>
      <Placemark>
        <name>16</name>
        <styleUrl>#line1</styleUrl>
        <LineString>
          <extrude>0</extrude>
          <altitudeMode>clampToGround</altitudeMode>
          <coordinates>-40.337531842,-4.65868943215297,0
 -40.337531858,-4.6586896611529,0
 -40.3376365139999,-4.66015045815297,0
 -40.3370731770001,-4.66472626215312,0
 -40.334951884,-4.66546708815314,0
 -40.333622739,-4.66617364215315,0
 -40.331567995,-4.66705904715322,0
 -40.330535547,-4.66821619915322,0
 -40.330006949,-4.66983316615325,0
 -40.329671974,-4.67228135615331,0
 -40.328734207,-4.6745765151535,0
 -40.327365909,-4.67621269715343,0
 -40.32572635,-4.67757020415358,0
 -40.3236414239999,-4.67892890315355,0
 -40.32275708,-4.68047835915367,0
 -40.322758179,-4.68224514415367,0
 -40.322614874,-4.68401973615368,0
 -40.321975809,-4.68478938815377,0
 -40.3207844,-4.68545443015382,0
 -40.31881423,-4.68606770815384,0
 -40.316677924,-4.68755809115388,0
 -40.314588307,-4.68960247315393,0
 -40.313067579,-4.69232423715406,0
 -40.3132045629999,-4.69486917115404,0
 -40.313201579,-4.70041808215424,0
 -40.314092236,-4.70236888115436,0
 -40.315228567,-4.70415994115431,0
 -40.315531848,-4.70527378215446,0
 -40.315531839,-4.70527384515446,0
 -40.315231509,-4.70722822615452,0
 -40.3143138989999,-4.70934937615452,0
 -40.313453384,-4.71041369015465,0
 -40.309591989,-4.71372452915467,0
 -40.307899597,-4.71545350015482,0
 -40.30547971,-4.7168711761548,0
 -40.305479554,-4.7168712671548,0
 -40.3054792769999,-4.71687134715481,0
 -40.3036496679999,-4.71740249015479,0
 -40.303149146,-4.71908126115487,0
 -40.303314405,-4.72073674915498,0
 -40.304406907,-4.72290951915499,0
 -40.30711129,-4.72332637415501,0
 -40.309853865,-4.72332097715501,0
 -40.310685694,-4.72355411515503,0
 -40.310685829,-4.72355415315504,0
 -40.3139626019999,-4.72447181115502,0
 -40.314799132,-4.72551412615502,0
 -40.314715304,-4.72646051215516,0
 -40.314419581,-4.72740632315517,0
 -40.313520823,-4.72835114715519,0
 -40.313520424,-4.72835131915512,0
 -40.309934217,-4.72989679715527,0
 -40.3096504129999,-4.73114886215522,0
 -40.308702819,-4.73209796315532,0
 -40.307429667,-4.73224144115529,0
 -40.304616754,-4.73314584715533,0
 -40.302954653,-4.73600696515545,0
 -40.3014844,-4.73784113215551,0
 -40.299758175,-4.73895191315549,0
 -40.298230018,-4.7391774751555,0
 -40.2954808939999,-4.7404936141556,0
 -40.293783785,-4.74199356115562,0
 -40.293039563,-4.7440790361557,0
 -40.291503365,-4.74551082015576,0
 -40.290369232,-4.74721238515578,0
 -40.288959764,-4.74825880115585,0
 -40.286591336,-4.74857267315588,0
 -40.2848390210001,-4.75007845815586,0
 -40.284871145,-4.75161697215597,0
 -40.283622532,-4.75452175215607,0
 -40.281511662,-4.75815631715614,0
 -40.280341908,-4.75942708315621,0
 -40.277596256,-4.76006850115626,0
 -40.275841118,-4.76210954915629,0
 -40.274227917,-4.76564630715636,0
 -40.274093153,-4.76789636015646,0
 -40.273069117,-4.76962531915652,0
 -40.272256378,-4.7696895401565,0
 -40.269728498,-4.77012488515664,0
 -40.269034506,-4.77193846815659,0
 -40.269175436,-4.77334888015668,0
 -40.269053148,-4.77346607915669,0
 -40.269052983,-4.77346623515661,0
 -40.268369209,-4.77411484615672,0
 -40.266895618,-4.77471131715669,0
 -40.265090266,-4.77566180615673,0
 -40.2628728900001,-4.77661128815678,0
 -40.257228007,-4.77660686515677,0
 -40.254564496,-4.77679236415675,0
 -40.252122907,-4.77714921815679,0
 -40.245207295,-4.77760610015675,0
 -40.243421661,-4.77900342515682,0
 -40.239675722,-4.78014356315683,0
 -40.231811956,-4.78235311515695,0
 -40.2287311279999,-4.78399135215696,0
 -40.226870811,-4.78546527615705,0
 -40.224647149,-4.78671668815713,0
 -40.223401567,-4.78757843815711,0
 -40.2216219439999,-4.78907233015717,0
 -40.217677118,-4.78934760215721,0
 -40.2152090079999,-4.79011590915718,0
 -40.212254285,-4.79038502915716,0
 -40.208367661,-4.78997307615717,0
 -40.205485419,-4.79026907315716,0
 -40.204597802,-4.79043270515719,0
 -40.204597577,-4.7904327471572,0
 -40.199757406,-4.7913258411572,0
 -40.198760358,-4.79146662315721,0
 -40.198759947,-4.79146668115721,0
 -40.19620464,-4.79182748915731,0
 -40.194757726,-4.79155298315725,0
 -40.19272619,-4.7903265001572,0
 -40.190949887,-4.7890083531572,0
 -40.1888720919999,-4.78845691415705,0
 -40.184533379,-4.78802021015716,0
 -40.181534288,-4.78785764315712,0
 -40.1792871229999,-4.78835759615709,0
 -40.1771519319999,-4.79012625415724,0
 -40.1746970789999,-4.79103693015718,0
 -40.172365747,-4.79348720815724,0
 -40.171534441,-4.79493862715742,0
 -40.1688457759999,-4.7963886481574,0
 -40.165618885,-4.79761534315747,0
 -40.163124103,-4.79879840415748,0
 -40.159509199,-4.80179354015759,0
 -40.15851987,-4.80478675315762,0
 -40.158085891,-4.80572120315776,0
 -40.1573382829999,-4.80656069715776,0
 -40.156456501,-4.8091438071578,0
 -40.155558953,-4.80973248815783,0
 -40.15392452,-4.80989443215782,0
 -40.1517310329999,-4.80957603015785,0
 -40.147838961,-4.80850695515777,0
 -40.1456559219999,-4.80811933515776,0
 -40.145145762,-4.81038624715783,0
 -40.143810145,-4.81162356615798,0
 -40.142389646,-4.81409038715798,0
 -40.142389612,-4.81409052615799,0
 -40.1420762150001,-4.81534086715806,0
 -40.1421360969999,-4.8171576481581,0
 -40.1417702930001,-4.81928412515819,0
 -40.1412378799999,-4.82030880115815,0
 -40.139805222,-4.8209149031582,0
 -40.139512447,-4.82138189015812,0
 -40.139259685,-4.82235585115824,0
 -40.138641428,-4.82338847315823,0
 -40.137147424,-4.82469283915833,0
 -40.134851055,-4.82612099115828,0
 -40.131992017,-4.82811528615844,0
 -40.130069278,-4.82904637615848,0
 -40.12990008,-4.82924864415843,0
 -40.129846066,-4.83102880915855,0
 -40.1292061899999,-4.8326663931585,0
 -40.128261063,-4.83410896815858,0
 -40.127177106,-4.83528865915858,0
 -40.125906801,-4.83723528815871,0
 -40.1243867519999,-4.83887551615879,0
 -40.1226984289999,-4.84028126215885,0
 -40.121656503,-4.84177895015886,0
 -40.120292923,-4.84343717115884,0
 -40.118969293,-4.84456102715892,0
 -40.1175969979999,-4.84607316915898,0
 -40.116520106,-4.84760173115907,0
 -40.11383998,-4.84930212915916,0
 -40.113174321,-4.84983099415913,0
 -40.11187168,-4.85011779615915,0
 -40.111536117,-4.8503834881592,0
 -40.111536123,-4.85038360515912,0
 -40.111561744,-4.85092791115913,0
 -40.1106499589999,-4.85915005115944,0
 -40.110147846,-4.86074097415953,0
 -40.108810496,-4.86342142715954,0
 -40.108468333,-4.86387236815954,0
 -40.109036282,-4.86607958015973,0
 -40.1092033969999,-4.86753188215973,0
 -40.108338326,-4.86875348315982,0
 -40.107562603,-4.86962627315974,0
 -40.106839333,-4.87143941715992,0
 -40.107921887,-4.87275280115988,0
 -40.108758348,-4.87457880215997,0
 -40.11025477,-4.87589348915995,0
 -40.111285474,-4.87748617016001,0
 -40.112564862,-4.88012072516013,0
 -40.113287558,-4.88220986316023,0
 -40.113287624,-4.88220989616023,0
 -40.114457334,-4.88280277816017,0
 -40.116538615,-4.88237186516022,0
 -40.11750529,-4.88189921016019,0
 -40.118036729,-4.88321830216018,0
 -40.1190633539999,-4.88453153816021,0
 -40.122008617,-4.88598880716026,0
 -40.124254007,-4.88594607316028,0
 -40.126262078,-4.88573862816035,0
 -40.127984242,-4.88656587616031,0
 -40.1300050029999,-4.88657045916025,0
 -40.132286424,-4.88700296316024,0
 -40.135484643,-4.88891266816033,0
 -40.136891907,-4.88927576816035,0
 -40.13717152,-4.89095020916043,0
 -40.13725661,-4.89299862116054,0
 -40.136984128,-4.89356435316054,0
 -40.137006381,-4.89370716516055,0
 -40.137731537,-4.89481848316057,0
 -40.139425945,-4.89524978816056,0
 -40.140346418,-4.89655047816061,0
 -40.1399281859999,-4.89804481016062,0
 -40.139928141,-4.89886297216073,0
 -40.142982531,-4.90027782816073,0
 -40.1444236839999,-4.90254870416087,0
 -40.145728297,-4.90311984916087,0
 -40.148644093,-4.90289031716088,0
 -40.1544201879999,-4.90180961216082,0
 -40.1594003,-4.9026050071609,0
 -40.160982609,-4.90197592816081,0
 -40.162955239,-4.90083790516071,0
 -40.165646457,-4.89893121016078,0
 -40.167510896,-4.89852219816078,0
 -40.16867411,-4.89852623516075,0
 -40.169756671,-4.89897952816069,0
 -40.171535927,-4.89927894916077,0
 -40.1740363299999,-4.8991182391608,0
 -40.1779227919999,-4.90007611216074,0
 -40.182395672,-4.90089283216072,0
 -40.18572469,-4.90280550516079,0
 -40.189235655,-4.90365215516086,0
 -40.190249867,-4.90422628216093,0
 -40.192479974,-4.90465782616094,0
 -40.195971851,-4.90584266416091,0
 -40.195971978,-4.90584270716091,0
 -40.197394981,-4.9063255501609,0
 -40.197395055,-4.9063255751609,0
 -40.197549012,-4.90637698916098,0
 -40.195341131,-4.90871560916104,0
 -40.1953407499999,-4.90871601216098,0
 -40.181854098,-4.92299388116159,0
 -40.1818538909999,-4.92299410016152,0
 -40.170838951,-4.9346552501619,0
 -40.169430538,-4.93562606916193,0
 -40.167201104,-4.93622869016188,0
 -40.166311908,-4.93712474016203,0
 -40.165717593,-4.93802148416197,0
 -40.165422739,-4.93921432516208,0
 -40.1647569729999,-4.94003490616203,0
 -40.164166313,-4.94242143216214,0
 -40.1643178419999,-4.94421129316218,0
 -40.1667084759999,-4.94690439516225,0
 -40.167012834,-4.95093067416241,0
 -40.165924902,-4.95281755116248,0
 -40.165564813,-4.95368034416254,0
 -40.165567183,-4.95527032016255,0
 -40.16592104,-4.95640338416261,0
 -40.166422619,-4.95958553916264,0
 -40.1660945519999,-4.96407884116289,0
 -40.165451511,-4.96488576116287,0
 -40.1654513519999,-4.96488596116289,0
 -40.165369959,-4.96498868916286,0
 -40.162342457,-4.96485671216286,0
 -40.1604793189999,-4.96548670716294,0
 -40.159034022,-4.9664855431629,0
 -40.158538082,-4.96737188816296,0
 -40.158258447,-4.96902813816295,0
 -40.1575316069999,-4.96961798016308,0
 -40.154790653,-4.97009026516308,0
 -40.149618492,-4.97156576516313,0
 -40.148485004,-4.9714301331631,0
 -40.146172719,-4.97201568016314,0
 -40.145031208,-4.97183329916306,0
 -40.143786365,-4.97142119316307,0
 -40.140422076,-4.97100974216313,0
 -40.13775502,-4.97262586216318,0
 -40.136396715,-4.97368605316314,0
 -40.1348123,-4.9752829411632,0
 -40.13392146,-4.9764132991632,0
 -40.133730473,-4.97691030116329,0
 -40.133673193,-4.9775234011633,0
 -40.134148038,-4.97805160316331,0
 -40.135257632,-4.97846185616332,0
 -40.136058913,-4.97890798416329,0
 -40.136813516,-4.98044199016347,0
 -40.134827444,-4.9813750361634,0
 -40.132346596,-4.98372507216351,0
 -40.132056856,-4.98533873216353,0
 -40.131110326,-4.98746706916359,0
 -40.131261226,-4.98922420916367,0
 -40.133749625,-4.99229916416381,0
 -40.131410861,-4.99259828316378,0
 -40.128119973,-4.98959827316371,0
 -40.12709427,-4.98813429316364,0
 -40.124023328,-4.98564504916356,0
 -40.119565651,-4.98558173716347,0
 -40.117668064,-4.98617022116358,0
 -40.11578858,-4.98827134916361,0
 -40.115565548,-4.98916746216369,0
 -40.115346318,-4.99098016116366,0
 -40.115761911,-4.9921670681638,0
 -40.11639473,-4.9930236491638,0
 -40.118588206,-4.9949580011638,0
 -40.118724451,-4.9957964801639,0
 -40.1185878739999,-4.99627697716387,0
 -40.117872246,-4.99684222816391,0
 -40.116897454,-4.99729581916397,0
 -40.116145154,-4.99793060516399,0
 -40.115566428,-4.99884048416396,0
 -40.115342861,-4.99954940916391,0
 -40.114618938,-5.00050022916407,0
 -40.113673046,-5.00124524516407,0
 -40.111868789,-5.00130563816401,0
 -40.1079218859999,-4.99820164216395,0
 -40.107119962,-4.99774491116391,0
 -40.105142303,-4.99739666516396,0
 -40.104168246,-4.997521599164,0
 -40.101005608,-4.99930697716393,0
 -40.100062651,-5.00167666016397,0
 -40.100286377,-5.0026390221641,0
 -40.100256646,-5.00322448316414,0
 -40.100504549,-5.00411090116412,0
 -40.10123113,-5.00526025016418,0
 -40.103119979,-5.00684391816421,0
 -40.103476982,-5.00823432916432,0
 -40.103340134,-5.00952141216433,0
 -40.102983773,-5.01103330016436,0
 -40.10336267,-5.01220186216432,0
 -40.104618268,-5.01424876616449,0
 -40.104620847,-5.01542626116449,0
 -40.1042851449999,-5.0171494621646,0
 -40.104536089,-5.01801839916455,0
 -40.105258983,-5.01925296216465,0
 -40.106362378,-5.02245752616476,0
 -40.106898659,-5.02310215916472,0
 -40.108233265,-5.02407700516482,0
 -40.109372699,-5.0242323811648,0
 -40.111835106,-5.02410493516482,0
 -40.1205246179999,-5.02870294116494,0
 -40.122195753,-5.03017515316499,0
 -40.126557768,-5.03084011516503,0
 -40.129052348,-5.03093653816502,0
 -40.132743134,-5.03073166216502,0
 -40.137079603,-5.02957078416499,0
 -40.139377209,-5.03026859216499,0
 -40.141572397,-5.03136591116501,0
 -40.148907305,-5.03320399716504,0
 -40.150304718,-5.03390344216509,0
 -40.1503082519999,-5.03570516616522,0
 -40.1511595279999,-5.03805525416534,0
 -40.154555443,-5.04265430416537,0
 -40.154660294,-5.04385525416544,0
 -40.154115673,-5.04530817616548,0
 -40.151524319,-5.04701574316555,0
 -40.1486322899999,-5.04781884716556,0
 -40.147737462,-5.04832145616557,0
 -40.1477770779999,-5.0506178261656,0
 -40.14777708,-5.05061791616561,0
 -40.1477835189999,-5.0509870761656,0
 -40.14778354,-5.0509872781657,0
 -40.1482986999999,-5.0559799591658,0
 -40.148904893,-5.06018203216602,0
 -40.147959434,-5.06193590616601,0
 -40.14527192,-5.06594467716614,0
 -40.144381608,-5.06935098216625,0
 -40.141046104,-5.07291020116631,0
 -40.140949042,-5.07451115716643,0
 -40.142549545,-5.07520276416637,0
 -40.144141432,-5.07450739216639,0
 -40.14638286,-5.07335184316644,0
 -40.148480387,-5.07474897316639,0
 -40.150678783,-5.07594608416641,0
 -40.151462739,-5.07614961816638,0
 -40.151462852,-5.07614964716655,0
 -40.151979385,-5.07628430416651,0
 -40.151979689,-5.07628438216651,0
 -40.152972333,-5.07654228816654,0
 -40.1540663719999,-5.07712932116652,0
 -40.1540664989999,-5.07712938916653,0
 -40.154066561,-5.07712942316653,0
 -40.154066624,-5.07712945716654,0
 -40.154921409,-5.07759009216655,0
 -40.1554211759999,-5.07879138616664,0
 -40.155425543,-5.08149314916663,0
 -40.1536331,-5.08269849316671,0
 -40.1512884049999,-5.08275240316673,0
 -40.150490743,-5.08305390716671,0
 -40.150492852,-5.08465523616678,0
 -40.1502535659999,-5.08909551916691,0
 -40.149957648,-5.09141392216698,0
 -40.148562956,-5.09261780316702,0
 -40.146767405,-5.09272087316702,0
 -40.145123224,-5.09357587816707,0
 -40.144225952,-5.09467850916709,0
 -40.1380966359999,-5.09681495216711,0
 -40.1365056349999,-5.09771141716712,0
 -40.135592188,-5.09946923716726,0
 -40.1358381229999,-5.10138141116737,0
 -40.136922296,-5.10262393216733,0
 -40.138310828,-5.10384999716744,0
 -40.139733694,-5.10478502216735,0
 -40.140174165,-5.10526794716743,0
 -40.140037142,-5.10654113016744,0
 -40.139753425,-5.10750979616747,0
 -40.138060261,-5.10866067516748,0
 -40.1356438189999,-5.11066637116761,0
 -40.135008609,-5.11170145016763,0
 -40.134758349,-5.11361111816763,0
 -40.135203276,-5.11565842916774,0
 -40.136344504,-5.11906673616792,0
 -40.137197972,-5.12128173416797,0
 -40.137310523,-5.1222771681679,0
 -40.136838471,-5.12409517316804,0
 -40.135533117,-5.12684474016817,0
 -40.134955263,-5.12932839116824,0
 -40.134789317,-5.13117127516831,0
 -40.1349553,-5.13223725916831,0
 -40.136144445,-5.13386969116837,0
 -40.137423804,-5.13513317916838,0
 -40.138088776,-5.13697164616843,0
 -40.138504236,-5.13858778616849,0
 -40.1391790350001,-5.14030695716853,0
 -40.140871107,-5.14171366716857,0
 -40.143929881,-5.14283551216867,0
 -40.14459127,-5.14356662016868,0
 -40.146148169,-5.14656211916872,0
 -40.1457793509999,-5.14827248216884,0
 -40.145086663,-5.14990041016889,0
 -40.14442115,-5.15062369016896,0
 -40.144320203,-5.15139582016889,0
 -40.145452119,-5.15263433716888,0
 -40.146789965,-5.15304494416901,0
 -40.148459945,-5.15255032016894,0
 -40.148768784,-5.15229143616892,0
 -40.151132975,-5.15198022116893,0
 -40.153138455,-5.15238912016893,0
 -40.155532373,-5.15338805716907,0
 -40.158052866,-5.15421126516905,0
 -40.16093391,-5.15492608816905,0
 -40.1625798119999,-5.15544077416909,0
 -40.163559674,-5.15621208716914,0
 -40.163843976,-5.15726928616913,0
 -40.166036683,-5.15941453416917,0
 -40.166036823,-5.15941467116917,0
 -40.166722846,-5.16008560916918,0
 -40.167138755,-5.16184172316926,0
 -40.166346266,-5.1639827191693,0
 -40.165371155,-5.16511961616941,0
 -40.165614783,-5.16540339516935,0
 -40.169997983,-5.17044290316959,0
 -40.169815699,-5.17297302816959,0
 -40.170066921,-5.17429940616964,0
 -40.170587136,-5.17484483816974,0
 -40.171420257,-5.17470429916965,0
 -40.173089798,-5.1738255951696,0
 -40.174921171,-5.17301271216958,0
 -40.176621187,-5.17246862916969,0
 -40.180978292,-5.1704065731696,0
 -40.1825052089999,-5.17075446516952,0
 -40.183117405,-5.17207800216969,0
 -40.183510695,-5.17383552316963,0
 -40.183899885,-5.17463574116976,0
 -40.184791623,-5.17551605316977,0
 -40.186420096,-5.17608587616975,0
 -40.187670613,-5.17624510816969,0
 -40.188620555,-5.17612547616965,0
 -40.188901155,-5.17571652916974,0
 -40.189121806,-5.17463211016972,0
 -40.1891971009999,-5.17285810316967,0
 -40.1886199039999,-5.17080745916955,0
 -40.188004589,-5.17007364816958,0
 -40.187150731,-5.16956069616951,0
 -40.187035041,-5.16822216316942,0
 -40.187732119,-5.16774555016943,0
 -40.1885046699999,-5.16744633116945,0
 -40.192033457,-5.16693818516941,0
 -40.1929802169999,-5.16663472616944,0
 -40.196646349,-5.16603450216934,0
 -40.1986769869999,-5.16522299316934,0
 -40.199673547,-5.16417425116934,0
 -40.200364956,-5.1626848041693,0
 -40.201419172,-5.1614341981693,0
 -40.202840798,-5.1604594481692,0
 -40.204734505,-5.1597188061692,0
 -40.209977091,-5.15676053116913,0
 -40.2118077030001,-5.15613892416912,0
 -40.211807862,-5.15613887016912,0
 -40.211807979,-5.15613883016911,0
 -40.212650298,-5.15585251616905,0
 -40.214895584,-5.15458821216898,0
 -40.217258118,-5.15303711916907,0
 -40.219122689,-5.15234671116888,0
 -40.220531771,-5.15222692116892,0
 -40.222397267,-5.15239805216896,0
 -40.223481531,-5.15228020916897,0
 -40.224537224,-5.15186109816894,0
 -40.225844374,-5.15186398416891,0
 -40.227059785,-5.15197746816888,0
 -40.228400496,-5.15262986616895,0
 -40.229673212,-5.15379074616899,0
 -40.230341296,-5.15500133216896,0
 -40.2322334049999,-5.15712476116916,0
 -40.236457394,-5.16032507316918,0
 -40.2375331359999,-5.16149945116928,0
 -40.239358089,-5.16286018216933,0
 -40.240420259,-5.16485721816937,0
 -40.2408635399999,-5.16812572816944,0
 -40.2410342919999,-5.17016554216955,0
 -40.241366975,-5.17079063316958,0
 -40.242032721,-5.17103942116956,0
 -40.2429449269999,-5.17099360016959,0
 -40.2435253,-5.17016092616952,0
 -40.2435644289999,-5.1691612181695,0
 -40.243916095,-5.16830789016942,0
 -40.248770917,-5.16825634416941,0
 -40.251326239,-5.16885530716941,0
 -40.253528822,-5.17089055116958,0
 -40.2554819059999,-5.17151201216949,0
 -40.258159199,-5.17165196016953,0
 -40.258655555,-5.17123422116951,0
 -40.25848715,-5.17019402916951,0
 -40.257400065,-5.16694778916941,0
 -40.257566234,-5.16636482616941,0
 -40.257978062,-5.16609828916938,0
 -40.259842482,-5.16566273116931,0
 -40.262586644,-5.1647277801694,0
 -40.264893173,-5.16363147916929,0
 -40.268260357,-5.1627535281693,0
 -40.269949709,-5.16264835016921,0
 -40.271144237,-5.16289240216924,0
 -40.2727281390001,-5.16389380616941,0
 -40.273473864,-5.1644507751694,0
 -40.2734740069999,-5.16445088216932,0
 -40.275285409,-5.16580378816935,0
 -40.27631304,-5.16584209816932,0
 -40.276815076,-5.1651228161694,0
 -40.2770345979999,-5.16498585916935,0
 -40.277371538,-5.16443105316937,0
 -40.278368158,-5.16382591616939,0
 -40.279924094,-5.16367482516932,0
 -40.284510282,-5.16476482116936,0
 -40.288991075,-5.16605398416935,0
 -40.291414809,-5.16697810716952,0
 -40.295089887,-5.16930124216954,0
 -40.298393945,-5.17039954416955,0
 -40.3030992169999,-5.1689787501695,0
 -40.3057847979999,-5.16713205916947,0
 -40.307370373,-5.16455342616936,0
 -40.307790704,-5.16166803616928,0
 -40.309375022,-5.15786250716909,0
 -40.311328046,-5.15675309416913,0
 -40.313040453,-5.15687160916908,0
 -40.314669576,-5.1572926691691,0
 -40.3316604469999,-5.16954355216951,0
 -40.331660678,-5.16954371916952,0
 -40.355245238,-5.18654926617005,0
 -40.355245492,-5.18654945017007,0
 -40.38163316,-5.20558067317069,0
 -40.381633404,-5.2055808491707,0
 -40.407230669,-5.22404414717132,0
 -40.407231016,-5.22404439817134,0
 -40.414564439,-5.2293340661714,0
 -40.391965557,-5.16703985016948,0
 -40.391965478,-5.16703963116946,0
 -40.391042781,-5.16449733716934,0
 -40.3910426219999,-5.1644969001694,0
 -40.373291624,-5.11559729516775,0
 -40.373291573,-5.11559715316773,0
 -40.373248125,-5.11547838016777,0
 -40.3732482089999,-5.11547825616775,0
 -40.37553003,-5.1121036791677,0
 -40.377314975,-5.11094333116761,0
 -40.376923588,-5.10900965516758,0
 -40.374562388,-5.10760534216747,0
 -40.373817965,-5.10614733616745,0
 -40.373840894,-5.10432604316739,0
 -40.374508496,-5.10302209116733,0
 -40.37659674,-5.10239486016729,0
 -40.378152608,-5.10135462716738,0
 -40.380452785,-5.09900668116718,0
 -40.38737247,-5.09736958316708,0
 -40.395568234,-5.09380908816701,0
 -40.399981639,-5.09273063816713,0
 -40.402342925,-5.09008887216694,0
 -40.4026694079999,-5.08562026516678,0
 -40.404104267,-5.08356555516669,0
 -40.413016974,-5.07960975216658,0
 -40.417270886,-5.07610197616652,0
 -40.421611266,-5.07140894716635,0
 -40.42200005,-5.06856803416621,0
 -40.4219647799999,-5.06581523616617,0
 -40.422411822,-5.06460141016611,0
 -40.423156252,-5.06348514716603,0
 -40.430412331,-5.05607524316577,0
 -40.4305601849999,-5.0543343941658,0
 -40.43189058,-5.05208089216568,0
 -40.432137383,-5.05111562816558,0
 -40.432137432,-5.05111543516565,0
 -40.432807182,-5.04849476916553,0
 -40.437721466,-5.04520009916542,0
 -40.439097707,-5.0414964861654,0
 -40.444068537,-5.03598360816525,0
 -40.446544344,-5.03466288016504,0
 -40.447430037,-5.03453651316516,0
 -40.448200328,-5.03462162516509,0
 -40.448932365,-5.03493825816509,0
 -40.449417387,-5.03546282816515,0
 -40.450802847,-5.04319808416542,0
 -40.451625558,-5.04434634716548,0
 -40.454349862,-5.04574085716548,0
 -40.457072438,-5.04623517316553,0
 -40.462928136,-5.04602130216551,0
 -40.464929495,-5.0455154171654,0
 -40.469118589,-5.04280813516539,0
 -40.472145837,-5.04160049116539,0
 -40.479433307,-5.03948369916531,0
 -40.492351645,-5.0368556231652,0
 -40.495585849,-5.03579532216522,0
 -40.50132622,-5.03080048416503,0
 -40.501947198,-5.02798525716489,0
 -40.504649972,-5.02499190616485,0
 -40.5060416669999,-5.02408876816482,0
 -40.50998958,-5.02412861116483,0
 -40.5115293169999,-5.02347749216469,0
 -40.5142955169999,-5.02136975516474,0
 -40.521111821,-5.02196004516473,0
 -40.5305239529999,-5.0159869071646,0
 -40.535152117,-5.01532363516452,0
 -40.538403023,-5.01344880616447,0
 -40.541359586,-5.01323165416454,0
 -40.544562685,-5.01447094116449,0
 -40.546723803,-5.01455384616451,0
 -40.548768742,-5.01588350316448,0
 -40.549924373,-5.01608798816461,0
 -40.554672341,-5.01456514016446,0
 -40.556622203,-5.01444132216444,0
 -40.564427256,-5.01792157316462,0
 -40.5657977019999,-5.0189851401646,0
 -40.566978958,-5.01894190316467,0
 -40.566979246,-5.01894189216467,0
 -40.566979389,-5.01894154116464,0
 -40.594740502,-4.95063391516246,0
 -40.6357780929999,-4.92473885216155,0
 -40.635947066,-4.92463209016151,0
 -40.635946946,-4.92463207816151,0
 -40.635946386,-4.9246320221616,0
 -40.597127096,-4.92069929416145,0
 -40.597127023,-4.92069928716145,0
 -40.597126548,-4.92069923916144,0
 -40.542452476,-4.91518990816124,0
 -40.541228277,-4.91455058616118,0
 -40.5399283049999,-4.91130786716111,0
 -40.538789103,-4.90813963116099,0
 -40.538368598,-4.90669488116099,0
 -40.53704344,-4.90017210916069,0
 -40.53751242,-4.8991514581607,0
 -40.538649513,-4.89778124216066,0
 -40.5389790769999,-4.89669799616065,0
 -40.539239138,-4.89455449616058,0
 -40.5403461459999,-4.89284389616053,0
 -40.540371069,-4.89073187216049,0
 -40.539540831,-4.8890326791604,0
 -40.5393701369999,-4.88669414816027,0
 -40.539717582,-4.88184129716011,0
 -40.539910074,-4.88039886916013,0
 -40.53984227,-4.87876299616005,0
 -40.539967459,-4.87712560716002,0
 -40.541236302,-4.87538639516,0
 -40.542990871,-4.87237062415988,0
 -40.542990925,-4.87237057115987,0
 -40.5452033679999,-4.87020609715975,0
 -40.546178769,-4.86830353615963,0
 -40.546074448,-4.86637292315967,0
 -40.545418973,-4.8645407461596,0
 -40.543846422,-4.86172779315947,0
 -40.543546734,-4.85861919315939,0
 -40.542365245,-4.85626455715934,0
 -40.541646215,-4.85547865215933,0
 -40.541514343,-4.85410472115925,0
 -40.541835332,-4.85213927115925,0
 -40.541929532,-4.85041940015915,0
 -40.5414045799999,-4.84917516515914,0
 -40.5408118139999,-4.84682143715908,0
 -40.541003171,-4.84466334915896,0
 -40.5402054749999,-4.84379761915891,0
 -40.540205079,-4.84379775615901,0
 -40.523739811,-4.84950850015919,0
 -40.522808372,-4.84812266715901,0
 -40.522808162,-4.84812235415907,0
 -40.500312629,-4.81465516115799,0
 -40.49268742,-4.80283336315765,0
 -40.492687116,-4.8028328921577,0
 -40.483006772,-4.78782756515712,0
 -40.4830065359999,-4.78782720015717,0
 -40.483006425,-4.78782702815716,0
 -40.457627367,-4.7484966421559,0
 -40.457627137,-4.74849628615587,0
 -40.447027296,-4.73207287115537,0
 -40.4406395309999,-4.7132245701547,0
 -40.440639356,-4.71322405215466,0
 -40.438211558,-4.70606150215444,0
 -40.438211456,-4.70606120015442,0
 -40.423237951,-4.66190031615307,0
 -40.423237834,-4.66189997015304,0
 -40.423237764,-4.66189976315302,0
 -40.423100734,-4.66149569115308,0
 -40.422835653,-4.66071474715294,0
 -40.418256948,-4.65054359915266,0
 -40.413943258,-4.64096115715233,0
 -40.41394308,-4.6409607621523,0
 -40.413937846,-4.64094913415231,0
 -40.413915919,-4.64090042515227,0
 -40.413537584,-4.64005999115228,0
 -40.413524299,-4.64003048015233,0
 -40.413524077,-4.64002998715229,0
 -40.412853446,-4.63854024515221,0
 -40.412844864,-4.63852118215224,0
 -40.412587119,-4.63794862515229,0
 -40.412320327,-4.63735597215219,0
 -40.41232028,-4.63735586715219,0
 -40.412320186,-4.63735566115226,0
 -40.374757146,-4.55391301814951,0
 -40.374757121,-4.55391308914943,0
 -40.370454811,-4.56598783814992,0
 -40.346835926,-4.63227597515207,0
 -40.3421318819999,-4.64546878215252,0
 -40.340249345,-4.65971684115298,0
 -40.33892467,-4.65953136915299,0
 -40.337531889,-4.65868946015297,0
 -40.337531842,-4.65868943215297,0</coordinates>
        </LineString>
      </Placemark>
    </Folder>
  </Document>
</kml>