<kml xmlns:xsd="http://schemas.opengis.net/kml/2.2.0/ogckml22.xsd" xmlns:xmlns="http://www.opengis.net/kml/2.2/" version="1.0">
  <Document>
    <name>JOAO CAMARA</name>
    <open>1</open>
    <Folder>
      <name>2405801</name>
      <Style id="line1">
        <LineStyle>
          <color>#ff000000</color>
          <width>3</width>
        </LineStyle>
        <BalloonStyle>
          <text>$[description]</text>
        </BalloonStyle>
      </Style>
      <Placemark>
        <name>18</name>
        <styleUrl>#line1</styleUrl>
        <LineString>
          <extrude>0</extrude>
          <altitudeMode>clampToGround</altitudeMode>
          <coordinates>-35.76437887,-5.45160934617867,0
 -35.76262375,-5.45357988217864,0
 -35.7610348539999,-5.45493858317879,0
 -35.759994815,-5.45525732417879,0
 -35.756491663,-5.45561428917875,0
 -35.754580039,-5.45669663717877,0
 -35.751766839,-5.4589524511789,0
 -35.750986954,-5.45920804917883,0
 -35.749006804,-5.45921796917884,0
 -35.747194137,-5.45811587017887,0
 -35.74601422,-5.45799909317889,0
 -35.745060241,-5.45827892417886,0
 -35.745740127,-5.51934588118076,0
 -35.746168103,-5.55875297418215,0
 -35.746424956,-5.58284463918287,0
 -35.7468119099999,-5.61969221518405,0
 -35.747796555,-5.61943044518415,0
 -35.749016778,-5.61964931518414,0
 -35.75187084,-5.62070390018409,0
 -35.753894682,-5.62193617718417,0
 -35.754104598,-5.62245654718424,0
 -35.754142369,-5.62338688318422,0
 -35.753954704,-5.62590455018434,0
 -35.754123636,-5.6264633191843,0
 -35.755530778,-5.62769193818435,0
 -35.757091536,-5.62796491818438,0
 -35.75837321,-5.62767841818438,0
 -35.7617433359999,-5.62577731418429,0
 -35.76410189,-5.62368239818424,0
 -35.767282803,-5.62050174018415,0
 -35.768554753,-5.61953362318408,0
 -35.771065534,-5.61887962618414,0
 -35.772054369,-5.61907695518413,0
 -35.772840713,-5.61967392218413,0
 -35.773298057,-5.62039202718413,0
 -35.772811224,-5.62207941218421,0
 -35.767101077,-5.62609265718427,0
 -35.766242889,-5.62713849318438,0
 -35.765833795,-5.62834409818439,0
 -35.765801244,-5.62974693918447,0
 -35.765559417,-5.63102986318448,0
 -35.761503419,-5.63565777118468,0
 -35.761257624,-5.63650218318465,0
 -35.761427376,-5.63762251918462,0
 -35.761884898,-5.63822093218475,0
 -35.762791582,-5.63841764018468,0
 -35.764151217,-5.63829111918479,0
 -35.765509451,-5.63784417218466,0
 -35.7692922079999,-5.63606222618466,0
 -35.770484779,-5.63565508818464,0
 -35.774398187,-5.63539361718468,0
 -35.775510788,-5.63502972018458,0
 -35.776589728,-5.63394478118461,0
 -35.777065819,-5.63281862118451,0
 -35.777386894,-5.63109355318451,0
 -35.778246691,-5.6298857831845,0
 -35.779684283,-5.62887951118437,0
 -35.7821104569999,-5.62754518718437,0
 -35.784865932,-5.62680975318428,0
 -35.786596222,-5.6266415661843,0
 -35.791747922,-5.62673701818429,0
 -35.794712144,-5.62608091118427,0
 -35.797167014,-5.62466627218429,0
 -35.799110911,-5.62369552918426,0
 -35.7999714999999,-5.62305006918415,0
 -35.802023666,-5.62095666018413,0
 -35.803049876,-5.62027129618409,0
 -35.805609057,-5.61940227318413,0
 -35.809304429,-5.61883826218401,0
 -35.8150744879999,-5.61876989418403,0
 -35.8167620249999,-5.61844088618408,0
 -35.820013125,-5.61742423918398,0
 -35.822402638,-5.61745197718405,0
 -35.824917334,-5.61780044618402,0
 -35.825823205,-5.61751542418406,0
 -35.82660271,-5.61703109418405,0
 -35.827115259,-5.61605640918405,0
 -35.828069397,-5.61341743718393,0
 -35.829133207,-5.61180860818386,0
 -35.82991347,-5.61124328318389,0
 -35.831229427,-5.61075669218386,0
 -35.832628569,-5.61054910218383,0
 -35.837926574,-5.61140194218378,0
 -35.8409983939999,-5.61146953418387,0
 -35.846142908,-5.61096599218387,0
 -35.84775059,-5.61019500418375,0
 -35.848490891,-5.61003164118374,0
 -35.851909586,-5.60981301718377,0
 -35.853675158,-5.60876317218376,0
 -35.854458397,-5.60864069518376,0
 -35.8551590289999,-5.60875789318377,0
 -35.855832947,-5.60937232618381,0
 -35.857440268,-5.61175054118385,0
 -35.857976836,-5.61202833618383,0
 -35.859292946,-5.61210169518386,0
 -35.860737192,-5.61189535418384,0
 -35.863869479,-5.61187932818385,0
 -35.864733394,-5.61163428518391,0
 -35.866453996,-5.60950333718381,0
 -35.8671048049999,-5.60809733018374,0
 -35.867137673,-5.60613280418364,0
 -35.8673012429999,-5.60573264018366,0
 -35.867793469,-5.60544729718368,0
 -35.868536586,-5.6053649571837,0
 -35.870061411,-5.60571756618366,0
 -35.8723730959999,-5.60662678418366,0
 -35.8732004459999,-5.6073862311837,0
 -35.873452854,-5.6083062291837,0
 -35.873291849,-5.60910717718372,0
 -35.872678595,-5.61007228518373,0
 -35.870423217,-5.61237881718387,0
 -35.869647346,-5.61382595218397,0
 -35.869284895,-5.615391281184,0
 -35.86941957,-5.617394392184,0
 -35.870465331,-5.6215468181842,0
 -35.872046529,-5.6240339501842,0
 -35.872667721,-5.62463054218436,0
 -35.8800610889999,-5.62816186618441,0
 -35.883454187,-5.6309484141844,0
 -35.8853116079999,-5.63194274418443,0
 -35.8859299019999,-5.63198087518447,0
 -35.887983208,-5.63136949118443,0
 -35.892795811,-5.62893862718438,0
 -35.894327714,-5.62754559318441,0
 -35.895050189,-5.62644316018432,0
 -35.896320665,-5.6250346011843,0
 -35.8970184689999,-5.62459070918425,0
 -35.898376832,-5.62430336718428,0
 -35.9032468669999,-5.6257805701843,0
 -35.907057896,-5.6269377831843,0
 -35.909293745,-5.62798898918441,0
 -35.9112794769999,-5.62966113118448,0
 -35.9568872319999,-5.53574951218131,0
 -35.957936724,-5.53358503418128,0
 -35.984261492,-5.47929269217956,0
 -35.992408198,-5.46378755217901,0
 -35.999744823,-5.41601918817753,0
 -36.000405576,-5.41513428917749,0
 -36.012402955,-5.39905014217691,0
 -36.0127521610001,-5.39635588817683,0
 -36.011368664,-5.39515882617682,0
 -36.00228311,-5.38456436417651,0
 -36.001153365,-5.38098535417641,0
 -36.001627059,-5.37798865517635,0
 -36.000306502,-5.37492339217621,0
 -35.9960605389999,-5.36917470317601,0
 -35.994831343,-5.3660699021758,0
 -35.994452843,-5.36363565717583,0
 -35.994409089,-5.3609064611757,0
 -35.9939137709999,-5.3590793871757,0
 -35.992931188,-5.35688861717553,0
 -35.99206378,-5.35384323017544,0
 -35.990953463,-5.35074020217538,0
 -35.989446584,-5.34740712017529,0
 -35.984930461,-5.34395197217513,0
 -35.978455661,-5.3446837801752,0
 -35.977843067,-5.34407694917508,0
 -35.977958313,-5.34130589917505,0
 -35.978008874,-5.34010897917504,0
 -35.976072266,-5.33599776317487,0
 -35.975453496,-5.33361918117489,0
 -35.975470352,-5.33210149717473,0
 -35.907122106,-5.31971498417438,0
 -35.875020116,-5.31389725317414,0
 -35.831888647,-5.30608217417394,0
 -35.814213253,-5.46477873517905,0
 -35.813582002,-5.46472692917902,0
 -35.810392395,-5.46571078517916,0
 -35.807413402,-5.46445764317904,0
 -35.806374315,-5.46468779317907,0
 -35.804958943,-5.46424641017906,0
 -35.8041027479999,-5.46376517917903,0
 -35.802393611,-5.46362455217903,0
 -35.8003814459999,-5.46214267517899,0
 -35.799264743,-5.46185119017894,0
 -35.7979250129999,-5.46118461917894,0
 -35.7963576889999,-5.45999986017897,0
 -35.7953399429999,-5.45691108217893,0
 -35.794368958,-5.45579696217877,0
 -35.793253928,-5.45527817417874,0
 -35.792354724,-5.45409120817867,0
 -35.79197875,-5.45297445417873,0
 -35.7910850829999,-5.45268169717867,0
 -35.790011167,-5.45339318617874,0
 -35.788970989,-5.45339851717865,0
 -35.788425809,-5.45278678917866,0
 -35.787822205,-5.45251445117869,0
 -35.7862641469999,-5.45068411017859,0
 -35.785793384,-5.45037857217862,0
 -35.784705881,-5.45030934117867,0
 -35.78404408,-5.44993456717857,0
 -35.783342329,-5.44921930517854,0
 -35.7828709149999,-5.44786215117851,0
 -35.782480508,-5.44729539217851,0
 -35.778167368,-5.44415336117842,0
 -35.777527597,-5.44301274717837,0
 -35.777216551,-5.44282551717833,0
 -35.775876372,-5.44330453617845,0
 -35.7753943229999,-5.44347754417846,0
 -35.774772878,-5.44351735417838,0
 -35.7730607249999,-5.44280836017833,0
 -35.7724789219999,-5.44273476817838,0
 -35.771858729,-5.44285039917835,0
 -35.771161405,-5.44326867517841,0
 -35.769461669,-5.44520479717846,0
 -35.7674861899999,-5.44657315717853,0
 -35.766869714,-5.44729343117853,0
 -35.765949951,-5.44948878317863,0
 -35.7652956020001,-5.45058342517861,0
 -35.76437887,-5.45160934617867,0</coordinates>
        </LineString>
      </Placemark>
    </Folder>
  </Document>
</kml>