<kml xmlns:xsd="http://schemas.opengis.net/kml/2.2.0/ogckml22.xsd" xmlns:xmlns="http://www.opengis.net/kml/2.2/" version="1.0">
  <Document>
    <name>SAO RAFAEL</name>
    <open>1</open>
    <Folder>
      <name>2412807</name>
      <Style id="line1">
        <LineStyle>
          <color>#ff000000</color>
          <width>3</width>
        </LineStyle>
        <BalloonStyle>
          <text>$[description]</text>
        </BalloonStyle>
      </Style>
      <Placemark>
        <name>21</name>
        <styleUrl>#line1</styleUrl>
        <LineString>
          <extrude>0</extrude>
          <altitudeMode>clampToGround</altitudeMode>
          <coordinates>-36.789742876,-5.7551684731885,0
 -36.776469745,-5.77900231618921,0
 -36.7686560729999,-5.79302632518969,0
 -36.770723756,-5.79938783318989,0
 -36.771591804,-5.80132543118998,0
 -36.772400734,-5.80191776118996,0
 -36.773640984,-5.80229411719002,0
 -36.775772917,-5.80185844618994,0
 -36.776632364,-5.80245312219002,0
 -36.77672851,-5.80319178119004,0
 -36.775557543,-5.80481723119006,0
 -36.775343219,-5.80762540919014,0
 -36.774957275,-5.80976804019024,0
 -36.774859153,-5.81347820719035,0
 -36.7740754109999,-5.81528283719037,0
 -36.774069042,-5.81597608319044,0
 -36.774371456,-5.81661688119043,0
 -36.775152624,-5.81728724819047,0
 -36.775505604,-5.81792866419053,0
 -36.77540304,-5.81852041319046,0
 -36.774840873,-5.81965278919063,0
 -36.774944968,-5.82019343819059,0
 -36.776353804,-5.82153145219055,0
 -36.776805598,-5.82276618919066,0
 -36.7774034759999,-5.82533322219078,0
 -36.777476285,-5.82629457419083,0
 -36.7773160309999,-5.82708288919078,0
 -36.775897443,-5.82801272519088,0
 -36.775387649,-5.82879859619089,0
 -36.774976933,-5.83022625919089,0
 -36.774713764,-5.832247788191,0
 -36.773999149,-5.833772156191,0
 -36.7727507809999,-5.83497528019107,0
 -36.772443903,-5.83571339219104,0
 -36.7722880599999,-5.83684809219113,0
 -36.773484911,-5.84173288019127,0
 -36.7733826,-5.84237137119134,0
 -36.772845537,-5.84333213519134,0
 -36.772639394,-5.84416928619133,0
 -36.772626671,-5.84766983719151,0
 -36.772915891,-5.85119051619158,0
 -36.772626158,-5.85461887219164,0
 -36.772614076,-5.85740610619169,0
 -36.772810304,-5.85868793619188,0
 -36.77356073,-5.86104398119195,0
 -36.818067029,-5.91313893919367,0
 -36.835636234,-5.92850913719406,0
 -36.876047126,-5.96387122319526,0
 -36.878452807,-5.96063660519514,0
 -36.893728257,-5.97495622319556,0
 -36.901359956,-5.97403404419556,0
 -36.902584105,-5.97441009019558,0
 -36.903424341,-5.97563060619549,0
 -36.904677192,-5.97575888719554,0
 -36.906767804,-5.97545990519559,0
 -36.908128753,-5.97364651619556,0
 -36.911141067,-5.97306391719549,0
 -36.9124402629999,-5.97247622319545,0
 -36.914383385,-5.97104999819548,0
 -36.9147674439999,-5.96994470519533,0
 -36.913715263,-5.96683963619528,0
 -36.914039727,-5.96598727219528,0
 -36.914828514,-5.96562086319533,0
 -36.9179537,-5.96537845919535,0
 -36.918942171,-5.96569286419525,0
 -36.923789903,-5.96853307819542,0
 -36.925885927,-5.97149258619551,0
 -36.926620045,-5.97179252619546,0
 -36.9276717639999,-5.97173888819546,0
 -36.929733181,-5.97062532219534,0
 -36.93193052,-5.96822307019544,0
 -36.932984845,-5.96788875919531,0
 -36.935078313,-5.96897332719543,0
 -36.936598018,-5.96835477819541,0
 -36.939730632,-5.9626833171952,0
 -36.9413042249999,-5.958293748195,0
 -36.9411351859999,-5.95710169519505,0
 -36.939507823,-5.95459881919491,0
 -36.939251058,-5.95326641819489,0
 -36.9397595419999,-5.95170887819489,0
 -36.94207291,-5.94788785919466,0
 -36.942922093,-5.94735238719468,0
 -36.944262803,-5.94724475419465,0
 -36.944634264,-5.94652964419463,0
 -36.946097475,-5.93987683219441,0
 -36.947363525,-5.93701847319434,0
 -36.950812541,-5.93510138819435,0
 -36.951020999,-5.9340530221942,0
 -36.950329294,-5.93161164619417,0
 -36.950509723,-5.93042034919419,0
 -36.951387684,-5.92968632819412,0
 -36.959065648,-5.9282680191941,0
 -36.96477068,-5.92468829219394,0
 -36.969635412,-5.91852462619377,0
 -36.9730971,-5.91280645119351,0
 -36.973578039,-5.9091800701934,0
 -36.972250062,-5.90480735619336,0
 -36.969575905,-5.90241519419322,0
 -36.9610072959999,-5.90028351819316,0
 -36.959493648,-5.89925822719314,0
 -36.957869043,-5.89641608819309,0
 -36.956555669,-5.8888684641928,0
 -36.955172219,-5.88432564119262,0
 -36.9504656819999,-5.8788053771924,0
 -36.94377567,-5.87395952719229,0
 -36.9409187959999,-5.87298447019226,0
 -36.938012473,-5.87070401919222,0
 -36.936968771,-5.86843210719209,0
 -36.936803855,-5.86587916619198,0
 -36.93762919,-5.86384205619201,0
 -36.94032068,-5.86146774319193,0
 -36.942024234,-5.85835581219185,0
 -36.944529308,-5.85798348019186,0
 -36.950458367,-5.85529517519173,0
 -36.952094649,-5.85552045319172,0
 -36.953400735,-5.85613643019171,0
 -36.954566877,-5.85599709219173,0
 -36.95501595,-5.85556046119175,0
 -36.956709698,-5.85391491019166,0
 -36.9588862899999,-5.85384828219166,0
 -36.959712507,-5.85290530419162,0
 -36.9605113339999,-5.84988449219152,0
 -36.966031691,-5.84629897819141,0
 -36.966796938,-5.84098421619123,0
 -36.977400309,-5.81362123919028,0
 -36.980108199,-5.78532318918942,0
 -36.980114745,-5.78384846018944,0
 -36.9792483169999,-5.78297346118934,0
 -36.967105691,-5.77515603118903,0
 -36.965107585,-5.7735424191891,0
 -36.964118323,-5.76961041018892,0
 -36.961528603,-5.7525103801884,0
 -36.944265227,-5.74192266018802,0
 -36.893565818,-5.710836063187,0
 -36.889572388,-5.71407434618715,0
 -36.8877174429999,-5.71421632618708,0
 -36.885399896,-5.71383233318711,0
 -36.883852233,-5.71420393518713,0
 -36.879557313,-5.7161038091872,0
 -36.876305602,-5.71729283518727,0
 -36.8733669749999,-5.71796069118736,0
 -36.8693034299999,-5.71940963018735,0
 -36.867213967,-5.72045416918736,0
 -36.865276789,-5.72195166118735,0
 -36.863025262,-5.72442137918751,0
 -36.861668676,-5.72565740318746,0
 -36.859269309,-5.7261733101876,0
 -36.856027761,-5.72526036818747,0
 -36.85324825,-5.72427233118752,0
 -36.851396211,-5.72396470018747,0
 -36.849192305,-5.72414495018747,0
 -36.847797747,-5.72511650818747,0
 -36.8462416479999,-5.72728888718753,0
 -36.844233698,-5.72943875218769,0
 -36.842684136,-5.7304854651877,0
 -36.840785251,-5.7321707531877,0
 -36.8386072339999,-5.73561716018784,0
 -36.8377558089999,-5.73651669918784,0
 -36.835741307,-5.73726072918794,0
 -36.831761581,-5.73720704218793,0
 -36.829981828,-5.73795343818797,0
 -36.828427512,-5.73982506518801,0
 -36.827494669,-5.74140106718803,0
 -36.826021038,-5.7428220881881,0
 -36.823620963,-5.74394107418814,0
 -36.820875864,-5.74426906118809,0
 -36.8172460059999,-5.74402779218811,0
 -36.815542288,-5.74447403318809,0
 -36.814072069,-5.74551923418824,0
 -36.812864843,-5.74758244518824,0
 -36.812002881,-5.75065997218824,0
 -36.8113040190001,-5.75155763218834,0
 -36.8073877109998,-5.75415132818846,0
 -36.805052104,-5.75618790918848,0
 -36.803802976,-5.75676919018852,0
 -36.803034994,-5.75712625018858,0
 -36.800950569,-5.75711715918853,0
 -36.799701357,-5.7563010051886,0
 -36.7982448,-5.7560260561885,0
 -36.796471509,-5.75612031418848,0
 -36.795568767,-5.75665787618855,0
 -36.7944549099999,-5.75672094718853,0
 -36.789742876,-5.7551684731885,0</coordinates>
        </LineString>
      </Placemark>
    </Folder>
  </Document>
</kml>