<kml xmlns:xsd="http://schemas.opengis.net/kml/2.2.0/ogckml22.xsd" xmlns:xmlns="http://www.opengis.net/kml/2.2/" version="1.0">
  <Document>
    <name>NAZAREZINHO</name>
    <open>1</open>
    <Folder>
      <name>2510006</name>
      <Style id="line1">
        <LineStyle>
          <color>#ff000000</color>
          <width>3</width>
        </LineStyle>
        <BalloonStyle>
          <text>$[description]</text>
        </BalloonStyle>
      </Style>
      <Placemark>
        <name>26</name>
        <styleUrl>#line1</styleUrl>
        <LineString>
          <extrude>0</extrude>
          <altitudeMode>clampToGround</altitudeMode>
          <coordinates>-38.2572893310001,-6.90462759922553,0
 -38.256417273,-6.90466088822554,0
 -38.252785556,-6.90518100722549,0
 -38.245467578,-6.93900228422656,0
 -38.2459213029999,-6.9419483982267,0
 -38.250763444,-6.97338927822763,0
 -38.254045364,-6.99469936322834,0
 -38.258318057,-6.99365716222835,0
 -38.262414942,-6.99276510222825,0
 -38.2628745080001,-6.9932121822283,0
 -38.263927046,-6.99423612422829,0
 -38.266438514,-6.99616976422841,0
 -38.271933523,-6.99943246422853,0
 -38.273761918,-7.00180259722862,0
 -38.277119031,-7.00390371122865,0
 -38.277482072,-7.00432795122867,0
 -38.278642645,-7.00568235122873,0
 -38.280554452,-7.00746916922878,0
 -38.28207262,-7.00966981622879,0
 -38.282376538,-7.01107686922885,0
 -38.284206965,-7.01204300322885,0
 -38.286420717,-7.013528267229,0
 -38.288592213,-7.01708591422902,0
 -38.288600495,-7.017091027229,0
 -38.294374458,-7.02065575222907,0
 -38.29631693,-7.02185499422927,0
 -38.299173141,-7.02036479722916,0
 -38.3094803389999,-7.01924714922914,0
 -38.313988137,-7.01897329022913,0
 -38.322022833,-7.01848516422916,0
 -38.3268659739999,-7.01306904022893,0
 -38.336800622,-7.00065072922852,0
 -38.3509578899999,-6.99046673422816,0
 -38.362652954,-6.98871262422815,0
 -38.366820987,-6.98841935622813,0
 -38.372935914,-6.98873540022817,0
 -38.387718122,-6.98697857122811,0
 -38.398426868,-6.9780060832278,0
 -38.400400808,-6.97322672122759,0
 -38.403110637,-6.96919849822754,0
 -38.404955796,-6.96810708322747,0
 -38.40594115,-6.9679935882275,0
 -38.407291659,-6.96741785222747,0
 -38.408153038,-6.9673021482274,0
 -38.414207309,-6.96576423322742,0
 -38.421310272,-6.96587927322744,0
 -38.4228241429999,-6.96638907622744,0
 -38.423030954,-6.9664584882274,0
 -38.423400992,-6.96582443022744,0
 -38.4273001299999,-6.93701687322651,0
 -38.427324964,-6.93572521122649,0
 -38.427214359,-6.93526351122648,0
 -38.427356966,-6.93472084822634,0
 -38.427356966,-6.93427256122638,0
 -38.42730943,-6.93370630322642,0
 -38.4273807339999,-6.93311645022638,0
 -38.427523342,-6.9327861322264,0
 -38.427737253,-6.93252659622642,0
 -38.427784789,-6.93088679922628,0
 -38.426643928,-6.93055648022631,0
 -38.425930891,-6.93027334922633,0
 -38.425265389,-6.93015537722633,0
 -38.424829611,-6.93021436822633,0
 -38.4244252479999,-6.93032628622635,0
 -38.424424034,-6.93032645822628,0
 -38.424124528,-6.93043850922631,0
 -38.4239458289999,-6.93039416022629,0
 -38.423435258,-6.93027334922633,0
 -38.42307874,-6.93027334922633,0
 -38.4225796130001,-6.93053288622631,0
 -38.420945568,-6.93074523422629,0
 -38.420801522,-6.93073181822633,0
 -38.4205118039999,-6.93076293022634,0
 -38.420342619,-6.93084117322633,0
 -38.4202265890001,-6.93091629222632,0
 -38.420107749,-6.93095168422632,0
 -38.419977025,-6.93096348122632,0
 -38.419876012,-6.93096348122632,0
 -38.419727462,-6.93096937922636,0
 -38.41963239,-6.93094578522628,0
 -38.4193293489999,-6.93086320522628,0
 -38.419097612,-6.93081601722628,0
 -38.418955005,-6.93082191522633,0
 -38.418752977,-6.93086320522628,0
 -38.418669789,-6.93090449522632,0
 -38.41855095,-6.93094578522628,0
 -38.418455878,-6.93097527822632,0
 -38.4183786319999,-6.93097527822632,0
 -38.4182479089999,-6.93098707522632,0
 -38.418111243,-6.93098707522632,0
 -38.418057765,-6.93098707522632,0
 -38.417944868,-6.93096937922636,0
 -38.417903274,-6.93094578522628,0
 -38.417820086,-6.93089269822632,0
 -38.41771313,-6.93080422022629,0
 -38.417576465,-6.93066855322634,0
 -38.417487335,-6.9306036692263,0
 -38.417416031,-6.93056827722631,0
 -38.417386321,-6.93053288622631,0
 -38.417392263,-6.93046800222627,0
 -38.417398205,-6.93037362522627,0
 -38.41732096,-6.93026745022628,0
 -38.417225888,-6.93024385622628,0
 -38.417089222,-6.93023205922628,0
 -38.416952557,-6.93017897222634,0
 -38.416875311,-6.9300904932263,0
 -38.4167386449999,-6.93004920322625,0
 -38.416619806,-6.9300433052263,0
 -38.416566328,-6.92999021822626,0
 -38.4165306760001,-6.92991943522627,0
 -38.41651285,-6.92984865222636,0
 -38.416524734,-6.92976607222628,0
 -38.416536618,-6.92968349222628,0
 -38.416548502,-6.92963630322629,0
 -38.416566328,-6.92958321622633,0
 -38.416566328,-6.92953602722625,0
 -38.416536618,-6.9294593462263,0
 -38.416518792,-6.92939446122617,0
 -38.416471256,-6.92934727322618,0
 -38.416417778,-6.92923520022623,0
 -38.416411837,-6.92918801122623,0
 -38.41642372,-6.9290759382262,0
 -38.416388069,-6.9290287492262,0
 -38.416346475,-6.92898745922616,0
 -38.416275171,-6.92895796622621,0
 -38.416209809,-6.92891667622625,0
 -38.416150389,-6.92885769122626,0
 -38.4161147369999,-6.92881640022622,0
 -38.4160374919999,-6.92875151622626,0
 -38.41600184,-6.92866303722623,0
 -38.41600184,-6.92861584822623,0
 -38.41600184,-6.92855686322615,0
 -38.4159721299999,-6.92848607922624,0
 -38.415936478,-6.92843889122616,0
 -38.415871116,-6.9284093982262,0
 -38.41579387,-6.92836810822625,0
 -38.415716625,-6.92830322322621,0
 -38.415633437,-6.92820884622622,0
 -38.415597785,-6.92805548222623,0
 -38.4154314099999,-6.9278962202262,0
 -38.4153957579999,-6.92777235022616,0
 -38.415364435,-6.92767129422615,0
 -38.415348222,-6.92761898622626,0
 -38.41522302,-6.92752076822622,0
 -38.415211346,-6.92752147822619,0
 -38.415063007,-6.92753050722622,0
 -38.414991703,-6.92754230422622,0
 -38.41480156,-6.92754230422622,0
 -38.4144985189999,-6.92739483922619,0
 -38.414367795,-6.92737714322624,0
 -38.414254897,-6.92737714322624,0
 -38.4141419999999,-6.92737714322624,0
 -38.413987508,-6.92738304222619,0
 -38.413815191,-6.92738304222619,0
 -38.4137082349999,-6.92739483922619,0
 -38.413630989,-6.92740073822623,0
 -38.413524034,-6.92741843422619,0
 -38.4134230200001,-6.92735354922624,0
 -38.413322006,-6.9273240562262,0
 -38.41324476,-6.92734175222624,0
 -38.412989255,-6.92737714322624,0
 -38.4128466479999,-6.9273004612262,0
 -38.412662446,-6.92718838822616,0
 -38.4124723029999,-6.92706451722621,0
 -38.412139552,-6.92682857322623,0
 -38.412056364,-6.92670470222611,0
 -38.411996944,-6.92660442622607,0
 -38.411979118,-6.92646285922617,0
 -38.411932157,-6.9264018962261,0
 -38.411901873,-6.92636258222613,0
 -38.411842453,-6.92629769822609,0
 -38.411640426,-6.92604995622612,0
 -38.4113571849999,-6.92593081422611,0
 -38.411349801,-6.92592770822613,0
 -38.411347704,-6.92592682622614,0
 -38.4113036109999,-6.92590827922611,0
 -38.4112898489999,-6.92590249022608,0
 -38.411105647,-6.92583170722609,0
 -38.410659999,-6.92590838922612,0
 -38.410410435,-6.92590249022608,0
 -38.410175328,-6.92604793722612,0
 -38.41017335,-6.92604916122614,0
 -38.4100004389998,-6.92615613122611,0
 -38.409875657,-6.92617972522611,0
 -38.409715224,-6.9262859002261,0
 -38.409632036,-6.92635078522613,0
 -38.409471602,-6.92638027822609,0
 -38.4092992849999,-6.92641567022608,0
 -38.4089843599999,-6.92648055522613,0
 -38.408722913,-6.92660442622607,0
 -38.408318858,-6.92669880322624,0
 -38.407885093,-6.92695834222622,0
 -38.407861325,-6.92697013922622,0
 -38.407689008,-6.92703502422626,0
 -38.407552342,-6.92712350322621,0
 -38.407451329,-6.92720018522616,0
 -38.407267127,-6.9272296782262,0
 -38.407160172,-6.9272768672262,0
 -38.40703539,-6.92735354922624,0
 -38.406940318,-6.92741253522623,0
 -38.4068155369999,-6.92745382522619,0
 -38.4067145229999,-6.92751281122618,0
 -38.406506554,-6.92763668222621,0
 -38.406459018,-6.92768976922617,0
 -38.4063282939999,-6.92773105922621,0
 -38.406245106,-6.92776055222616,0
 -38.4061381509999,-6.92777235022616,0
 -38.405995543,-6.92778414722625,0
 -38.40571627,-6.9278490312262,0
 -38.405644966,-6.9278726262262,0
 -38.405532069,-6.9278844232262,0
 -38.405478591,-6.9278726262262,0
 -38.405431055,-6.9278490312262,0
 -38.405377577,-6.92780184322621,0
 -38.4053300409999,-6.92774875522616,0
 -38.405282506,-6.92771926222621,0
 -38.405181492,-6.92765437822617,0
 -38.4051101880001,-6.92762488522622,0
 -38.405021058,-6.92758949322622,0
 -38.404925987,-6.92758359422618,0
 -38.404753669,-6.92762488522622,0
 -38.4046407719999,-6.92766027622621,0
 -38.404611062,-6.92767207322621,0
 -38.404462512,-6.92773695822626,0
 -38.4043555560001,-6.92778414722625,0
 -38.404224833,-6.92785493022625,0
 -38.404076283,-6.92790801722619,0
 -38.403749474,-6.92806727922623,0
 -38.4036425189999,-6.92814396122618,0
 -38.403493969,-6.92821474422617,0
 -38.403286,-6.92829732522625,0
 -38.403113682,-6.92827962922621,0
 -38.4029591909999,-6.92818525122622,0
 -38.402739338,-6.92816165722622,0
 -38.402584846,-6.92815575822618,0
 -38.4023887609999,-6.92819704922622,0
 -38.402192675,-6.92831502022621,0
 -38.402097604,-6.92834451322625,0
 -38.401978764,-6.9283976012262,0
 -38.401895576,-6.9284329922262,0
 -38.401764853,-6.9284801812262,0
 -38.4017113749999,-6.9284801812262,0
 -38.401580651,-6.9285155722262,0
 -38.401479637,-6.92859815322619,0
 -38.401414276,-6.92860995022619,0
 -38.40130732,-6.92860995022619,0
 -38.401236016,-6.92859815322619,0
 -38.401135003,-6.92859225422623,0
 -38.401051815,-6.92860995022619,0
 -38.401016163,-6.92862174722619,0
 -38.4009210909999,-6.92866893622618,0
 -38.40082602,-6.92873971922618,0
 -38.400641818,-6.92883409622617,0
 -38.400576456,-6.92884589322626,0
 -38.400487327,-6.92879280622622,0
 -38.400398197,-6.92871612422618,0
 -38.4002912409999,-6.92859815322619,0
 -38.400154576,-6.9285155722262,0
 -38.39995849,-6.9284801812262,0
 -38.399887186,-6.9284447892262,0
 -38.399821825,-6.9284093982262,0
 -38.399780231,-6.92837990522616,0
 -38.399619797,-6.92827962922621,0
 -38.399512842,-6.92814396122618,0
 -38.3994237119999,-6.92804368522623,0
 -38.39929893,-6.92797290222624,0
 -38.399138497,-6.92797880022619,0
 -38.3990196569999,-6.92796700322619,0
 -38.398823572,-6.9278372342262,0
 -38.3985918349999,-6.92781953822616,0
 -38.3985027049999,-6.9278254372262,0
 -38.3983066190001,-6.92779594422625,0
 -38.398235316,-6.92773105922621,0
 -38.39815807,-6.92765437822617,0
 -38.39809865,-6.92758359422618,0
 -38.397956043,-6.92748921722618,0
 -38.3978253189999,-6.92740073822623,0
 -38.397820183,-6.9274014032262,0
 -38.397688653,-6.92741843422619,0
 -38.397492568,-6.92752460822618,0
 -38.397397496,-6.92759539222617,0
 -38.397290541,-6.92769566822621,0
 -38.397213295,-6.92777235022616,0
 -38.3971598169999,-6.92781953822616,0
 -38.396951848,-6.92781953822616,0
 -38.396702284,-6.92780184322621,0
 -38.396636923,-6.92767797222626,0
 -38.396529967,-6.92757769622622,0
 -38.396411127,-6.92756589922622,0
 -38.396321998,-6.92748921722618,0
 -38.39630575,-6.9274808022262,0
 -38.396305606,-6.92748072722619,0
 -38.396185332,-6.92741843422619,0
 -38.396030841,-6.92735354922624,0
 -38.395876349,-6.9273358532262,0
 -38.39566838,-6.92738894022624,0
 -38.395537656,-6.92740073822623,0
 -38.395534359,-6.92740055622622,0
 -38.3954307,-6.92739483922619,0
 -38.395317803,-6.92741253522623,0
 -38.395240557,-6.92743023122619,0
 -38.395163311,-6.92745382522619,0
 -38.39503853,-6.92755410122622,0
 -38.395002878,-6.92758654422624,0
 -38.394967226,-6.92761898622626,0
 -38.394866212,-6.92773105922621,0
 -38.394794908,-6.92776055222616,0
 -38.3946938949999,-6.92781953822616,0
 -38.394575055,-6.92780774122625,0
 -38.3944357430001,-6.9277674052262,0
 -38.394432448,-6.9277664512262,0
 -38.39426013,-6.92767207322621,0
 -38.394231026,-6.92763194622618,0
 -38.3941531749999,-6.92752460822618,0
 -38.3939867989999,-6.92737714322624,0
 -38.393838249,-6.92729456322624,0
 -38.393648106,-6.9272886642262,0
 -38.393487673,-6.92729456322624,0
 -38.393345065,-6.92730636022615,0
 -38.393190574,-6.92732995422624,0
 -38.393083618,-6.92734175222624,0
 -38.392958836,-6.92737124522619,0
 -38.392860351,-6.9274067962262,0
 -38.392828113,-6.92741843422619,0
 -38.392709273,-6.92744202822619,0
 -38.3926201429999,-6.92745972422623,0
 -38.3925428979999,-6.92752460822618,0
 -38.3924775359999,-6.92759539222617,0
 -38.392334928,-6.92762488522622,0
 -38.3922576820001,-6.92759539222617,0
 -38.392227973,-6.92759539222617,0
 -38.392103191,-6.92760129022622,0
 -38.392073481,-6.92758359422618,0
 -38.392031887,-6.92757179722618,0
 -38.391930873,-6.92756000022626,0
 -38.391924932,-6.92756000022626,0
 -38.39185957,-6.92758359422618,0
 -38.3917110199999,-6.92766617522617,0
 -38.391663484,-6.92767207322621,0
 -38.3916158670001,-6.92767798222626,0
 -38.391568413,-6.92768387122621,0
 -38.391536715,-6.9276793752262,0
 -38.391526819,-6.92767797222626,0
 -38.391491167,-6.92766027622621,0
 -38.391443631,-6.92763078322617,0
 -38.391378269,-6.92760129022622,0
 -38.391301023,-6.92757769622622,0
 -38.391217836,-6.92753640622618,0
 -38.391158416,-6.92747742022618,0
 -38.391146532,-6.92745972422623,0
 -38.391116822,-6.92740073822623,0
 -38.3910574019999,-6.9273358532262,0
 -38.390986098,-6.9272886642262,0
 -38.390938563,-6.9272532732262,0
 -38.390807839,-6.92724737422616,0
 -38.390718709,-6.9272414752262,0
 -38.390546392,-6.92721788122621,0
 -38.390231467,-6.9273004612262,0
 -38.389827412,-6.92756000022626,0
 -38.389751456,-6.92771080222622,0
 -38.3896372689999,-6.92793751022615,0
 -38.389375822,-6.9284093982262,0
 -38.389090606,-6.92857455822628,0
 -38.388734088,-6.92864534122619,0
 -38.3885201759999,-6.92862174722619,0
 -38.388044818,-6.92831502022621,0
 -38.387545691,-6.92812626522623,0
 -38.387046565,-6.92803188822623,0
 -38.386690046,-6.92803188822623,0
 -38.386499903,-6.92803188822623,0
 -38.386238455,-6.92803188822623,0
 -38.3861433840001,-6.92803188822623,0
 -38.386048312,-6.92803188822623,0
 -38.385786865,-6.92805548222623,0
 -38.385549186,-6.92810267122623,0
 -38.385311506,-6.92814986022622,0
 -38.3850975949999,-6.92822064322622,0
 -38.3848836839999,-6.92831502022621,0
 -38.384646004,-6.92836220922621,0
 -38.384408325,-6.92838580322621,0
 -38.3842927770001,-6.92834532022623,0
 -38.38400427,-6.92824423722622,0
 -38.383766591,-6.92798469922624,0
 -38.383528912,-6.92770156622617,0
 -38.3834100719999,-6.9272296782262,0
 -38.3834100719999,-6.92699373422622,0
 -38.383386304,-6.92663981722616,0
 -38.383386304,-6.92633308922609,0
 -38.383291233,-6.92600276722612,0
 -38.383053553,-6.92562525522614,0
 -38.382792106,-6.92538931022617,0
 -38.382197908,-6.92487023022611,0
 -38.38191984,-6.92412704722609,0
 -38.3818889249999,-6.92404442022617,0
 -38.381890869,-6.92362199422604,0
 -38.381793853,-6.92319501522606,0
 -38.381651246,-6.92255795922602,0
 -38.381532406,-6.92143721222602,0
 -38.3809263240001,-6.92009231122594,0
 -38.380534153,-6.91924289922591,0
 -38.3803558939999,-6.91874740722595,0
 -38.380230851,-6.91834195422589,0
 -38.380010849,-6.91787195122581,0
 -38.379856767,-6.91722553722588,0
 -38.3786802549999,-6.91570366222582,0
 -38.378359388,-6.91563287722582,0
 -38.377717654,-6.91559748422583,0
 -38.377218528,-6.91563287722582,0
 -38.376362882,-6.91623454922587,0
 -38.376291579,-6.91662386622584,0
 -38.376291579,-6.9171547522258,0
 -38.376291579,-6.91757946122586,0
 -38.376291579,-6.91825191522581,0
 -38.376410818,-6.9188219612259,0
 -38.3762708170001,-6.91924196422601,0
 -38.376284881,-6.91981799222589,0
 -38.376291579,-6.92009231122594,0
 -38.376220275,-6.92062319422599,0
 -38.376184623,-6.92097711522596,0
 -38.375578541,-6.92157878022601,0
 -38.374402029,-6.92200348522606,0
 -38.374188117,-6.92196809322606,0
 -38.373724643,-6.92196809322606,0
 -38.373118561,-6.92179113222599,0
 -38.37272639,-6.92168495622609,0
 -38.372441175,-6.9215433882261,0
 -38.372165381,-6.92143184622601,0
 -38.371478574,-6.92115407522595,0
 -38.370930772,-6.92093198122596,0
 -38.370141628,-6.920481625226,0
 -38.3699098909999,-6.92034005622592,0
 -38.369303809,-6.91970299722597,0
 -38.368804682,-6.91906593722592,0
 -38.368910752,-6.91880196622594,0
 -38.369054245,-6.91835809222598,0
 -38.369410764,-6.9181457382259,0
 -38.369874239,-6.91765024522585,0
 -38.370159454,-6.91729632222588,0
 -38.370444669,-6.9169777902259,0
 -38.3706942319999,-6.91655308122584,0
 -38.370979447,-6.91612837222588,0
 -38.3711577069999,-6.91577444722581,0
 -38.371193359,-6.91534973722575,0
 -38.371050751,-6.91488963422579,0
 -38.370587277,-6.91485424122579,0
 -38.3701951060001,-6.91510198922578,0
 -38.370052498,-6.91506659722577,0
 -38.3699209339998,-6.91501337222581,0
 -38.369620756,-6.9148919352258,0
 -38.369339461,-6.9147834562258,0
 -38.368911638,-6.91432335322574,0
 -38.3684838149999,-6.91393403422577,0
 -38.367984689,-6.9135447152258,0
 -38.367485562,-6.91315539522574,0
 -38.366594265,-6.91265989722569,0
 -38.366186603,-6.91235637322571,0
 -38.366166443,-6.91234136322562,0
 -38.3661328809999,-6.91232342322574,0
 -38.365702968,-6.91209361322573,0
 -38.364847323,-6.91170429322567,0
 -38.3644551519999,-6.91156272222567,0
 -38.363956025,-6.91145654322568,0
 -38.363706462,-6.91096104322563,0
 -38.3635173959999,-6.91025361522563,0
 -38.363514195,-6.91024163922562,0
 -38.363980703,-6.90952189822557,0
 -38.3639807019999,-6.9088018922256,0
 -38.363492551,-6.90834196522565,0
 -38.363470312,-6.9083243032256,0
 -38.363136032,-6.90805882122557,0
 -38.362993425,-6.9076341032256,0
 -38.363029076,-6.90735095922554,0
 -38.363446186,-6.9070961392255,0
 -38.363492551,-6.90706781322556,0
 -38.363563855,-6.90682006122549,0
 -38.3635995069999,-6.90639534322552,0
 -38.3637421139999,-6.90600601822555,0
 -38.363884722,-6.9054397262255,0
 -38.363528203,-6.90480264722545,0
 -38.362743861,-6.90370545322536,0
 -38.362209083,-6.90331612522538,0
 -38.362137784,-6.9032884282254,0
 -38.3613890899999,-6.9029975842254,0
 -38.360925615,-6.90260825622543,0
 -38.360176925,-6.90232510822545,0
 -38.3597491029999,-6.90200656722538,0
 -38.359642147,-6.90175881222532,0
 -38.359499539,-6.90151105722533,0
 -38.359249976,-6.90115712122527,0
 -38.359107369,-6.9006970052253,0
 -38.358964761,-6.90037846222533,0
 -38.359000413,-6.90020149422534,0
 -38.359000413,-6.89974137622528,0
 -38.358822154,-6.89931665122531,0
 -38.358793006,-6.89914303022533,0
 -38.358715198,-6.89867956422527,0
 -38.358608242,-6.89814865722521,0
 -38.358358679,-6.89768853722525,0
 -38.358037812,-6.89733459922527,0
 -38.357075211,-6.89595423622519,0
 -38.356889889,-6.89564759922514,0
 -38.3568612999998,-6.89560029622513,0
 -38.356647388,-6.89521096122515,0
 -38.35629087,-6.8947508392251,0
 -38.356183914,-6.89425532222513,0
 -38.356183914,-6.89397216922515,0
 -38.356255218,-6.89361822722509,0
 -38.356469129,-6.89333507422502,0
 -38.356148262,-6.89266258422506,0
 -38.355470876,-6.89152996822506,0
 -38.355292617,-6.89114063022508,0
 -38.35498061,-6.89088176022507,0
 -38.3545439269999,-6.89032656022496,0
 -38.354294364,-6.88990182722499,0
 -38.354080453,-6.88968946022491,0
 -38.353560597,-6.88895174722499,0
 -38.353403067,-6.88834447022492,0
 -38.352460586,-6.88756173722491,0
 -38.35158482,-6.88576066122483,0
 -38.351050042,-6.88501737122479,0
 -38.35044396,-6.88381394622478,0
 -38.350087441,-6.88207959422473,0
 -38.34987353,-6.88176103922475,0
 -38.34969527,-6.88140708822468,0
 -38.3493387509999,-6.8811239282247,0
 -38.3491893959999,-6.88103808222471,0
 -38.348840312,-6.88105342322473,0
 -38.348727516,-6.88093470522467,0
 -38.3248091199999,-6.87546730622456,0
 -38.313323448,-6.89760952122519,0
 -38.312609972,-6.89841732522524,0
 -38.308475471,-6.89970282822529,0
 -38.301469112,-6.90351211822544,0
 -38.297218433,-6.90640991522548,0
 -38.293999761,-6.90887896322558,0
 -38.291818776,-6.90957544822556,0
 -38.289293054,-6.90924920422557,0
 -38.287343197,-6.90849295922561,0
 -38.2828714779999,-6.9062802652255,0
 -38.281376807,-6.90638625322548,0
 -38.277009741,-6.91057586822565,0
 -38.276205832,-6.91073518422569,0
 -38.2663983379999,-6.90731311022552,0
 -38.261121872,-6.90520740922546,0
 -38.259056142,-6.90455912322547,0
 -38.2572893310001,-6.90462759922553,0</coordinates>
        </LineString>
      </Placemark>
    </Folder>
  </Document>
</kml>