<kml xmlns:xsd="http://schemas.opengis.net/kml/2.2.0/ogckml22.xsd" xmlns:xmlns="http://www.opengis.net/kml/2.2/" version="1.0">
  <Document>
    <name>SERIDO</name>
    <open>1</open>
    <Folder>
      <name>2515401</name>
      <Style id="line1">
        <LineStyle>
          <color>#ff000000</color>
          <width>3</width>
        </LineStyle>
        <BalloonStyle>
          <text>$[description]</text>
        </BalloonStyle>
      </Style>
      <Placemark>
        <name>30</name>
        <styleUrl>#line1</styleUrl>
        <LineString>
          <extrude>0</extrude>
          <altitudeMode>clampToGround</altitudeMode>
          <coordinates>-36.37044112,-6.85535856022387,0
 -36.367340292,-6.8570292442239,0
 -36.36426778,-6.86086312422404,0
 -36.365768219,-6.86715118922429,0
 -36.3694228639999,-6.8732368302244,0
 -36.373938637,-6.87936508222457,0
 -36.381560849,-6.88562325422483,0
 -36.38252268,-6.88641295922489,0
 -36.3782537129999,-6.88969213222496,0
 -36.376265477,-6.89731589322523,0
 -36.373440334,-6.90054798822532,0
 -36.37098841,-6.90476891022551,0
 -36.365348804,-6.90816836622558,0
 -36.363721676,-6.9102243322257,0
 -36.363202384,-6.91088048722563,0
 -36.36280119,-6.91332070122583,0
 -36.359500747,-6.91433777422578,0
 -36.357944026,-6.91554960622577,0
 -36.353771718,-6.91623151822589,0
 -36.345991849,-6.92131029122599,0
 -36.34288427,-6.92260694622608,0
 -36.338312942,-6.92559023122609,0
 -36.33501149,-6.92693428022618,0
 -36.331780947,-6.93074518522629,0
 -36.3312061599999,-6.93142295522632,0
 -36.330226134,-6.93522062822648,0
 -36.330116601,-6.93564507622652,0
 -36.328334732,-6.93862935222661,0
 -36.3261055729999,-6.93892852422659,0
 -36.325988583,-6.93994483422657,0
 -36.327479377,-6.94221942822665,0
 -36.334547877,-6.94742145222683,0
 -36.343227504,-6.95299654822698,0
 -36.3515302879999,-6.9559435212271,0
 -36.375132791,-6.97116290722763,0
 -36.375307761,-6.97127545222762,0
 -36.394006331,-6.98333424722803,0
 -36.444283334,-6.98994575422822,0
 -36.4451135379999,-6.99005492722819,0
 -36.476708011,-6.99420843222831,0
 -36.472045047,-6.95073407822692,0
 -36.473449904,-6.94975301922693,0
 -36.474803509,-6.94880709122682,0
 -36.475314379,-6.94845008422686,0
 -36.556015941,-6.89203879522506,0
 -36.558022086,-6.88913822022496,0
 -36.567939738,-6.87479656022449,0
 -36.5692465669999,-6.87290681022445,0
 -36.566995305,-6.87070205722437,0
 -36.566363393,-6.86843429122432,0
 -36.566793785,-6.8665919062242,0
 -36.572634065,-6.86118986322408,0
 -36.573963971,-6.85940372722399,0
 -36.574079431,-6.85745775022392,0
 -36.571594913,-6.8510336992237,0
 -36.569795176,-6.84800829822367,0
 -36.566273578,-6.84435143922361,0
 -36.560156202,-6.84077342222333,0
 -36.557544596,-6.84239047122345,0
 -36.554355696,-6.84213289022345,0
 -36.5514645949999,-6.84345040722358,0
 -36.550205145,-6.84355117922357,0
 -36.54710326,-6.84053543722335,0
 -36.545146093,-6.84307119122347,0
 -36.544346383,-6.84295867622348,0
 -36.543667914,-6.84209869322347,0
 -36.540355496,-6.84366613922349,0
 -36.538370785,-6.8438178202236,0
 -36.537130035,-6.84230778022345,0
 -36.537139905,-6.84030401422339,0
 -36.5361161849999,-6.83846160622336,0
 -36.534660602,-6.83720018722326,0
 -36.532459353,-6.83827593022336,0
 -36.5326235,-6.83986359822337,0
 -36.531497253,-6.84119370522346,0
 -36.529945498,-6.84143651122339,0
 -36.527166741,-6.83774891422328,0
 -36.519189324,-6.84037717222331,0
 -36.519524852,-6.8418833422235,0
 -36.5185744239999,-6.84279650522348,0
 -36.518301252,-6.84546900222353,0
 -36.517868797,-6.84579905722357,0
 -36.515671325,-6.84645694622365,0
 -36.514631753,-6.8474525862237,0
 -36.512824158,-6.84744335122364,0
 -36.512574508,-6.84560463722356,0
 -36.511847845,-6.84484857422353,0
 -36.510637465,-6.84559523422358,0
 -36.5096810180001,-6.84751133122367,0
 -36.5046325279999,-6.84990682922372,0
 -36.503172279,-6.84923074622374,0
 -36.500474308,-6.84646201122362,0
 -36.4976355919999,-6.84594554422353,0
 -36.497218787,-6.84352087822346,0
 -36.495549743,-6.84134151522343,0
 -36.493837006,-6.8397469802234,0
 -36.49134408,-6.83906360722334,0
 -36.49075041,-6.83722524322329,0
 -36.48924671,-6.83654948022333,0
 -36.487777319,-6.83787766522327,0
 -36.482718192,-6.83957125522333,0
 -36.482292997,-6.84110517922342,0
 -36.48236165,-6.84452927722349,0
 -36.481666013,-6.84586266922351,0
 -36.4801568910001,-6.84643876122365,0
 -36.477497776,-6.84442131122353,0
 -36.476204131,-6.84516572722357,0
 -36.4767901619999,-6.84792550922366,0
 -36.476139649,-6.84875629922365,0
 -36.4751069339999,-6.84891746022366,0
 -36.4737344140001,-6.84790809222363,0
 -36.468984601,-6.84594750222351,0
 -36.4683317950001,-6.84611757322354,0
 -36.468439931,-6.84795875222365,0
 -36.467723308,-6.84864538822362,0
 -36.4667148399999,-6.84881169422361,0
 -36.465739271,-6.84788795122365,0
 -36.465567024,-6.84690834822361,0
 -36.464738328,-6.84655608222359,0
 -36.463367077,-6.84770148822359,0
 -36.460722437,-6.84837879522368,0
 -36.458347515,-6.84848099522361,0
 -36.4559792269999,-6.84737382222366,0
 -36.454584944,-6.84742375622362,0
 -36.451015219,-6.84896097022362,0
 -36.44790112,-6.84871396422361,0
 -36.442282256,-6.8447129532235,0
 -36.438876528,-6.8434849202235,0
 -36.4372143710001,-6.84353239822352,0
 -36.436023904,-6.84427584522357,0
 -36.433358176,-6.84875175722363,0
 -36.430751335,-6.84787400822366,0
 -36.426920538,-6.84860209222368,0
 -36.425793455,-6.84819271722365,0
 -36.425206583,-6.84709507422369,0
 -36.425999421,-6.84307008622346,0
 -36.4247847299999,-6.84277525222349,0
 -36.423893527,-6.84300088622351,0
 -36.421321829,-6.84661443822363,0
 -36.421344637,-6.8478808052236,0
 -36.420266742,-6.84971728122367,0
 -36.4191374950001,-6.84994060122376,0
 -36.417423657,-6.84855117122364,0
 -36.415907718,-6.84923295322374,0
 -36.414000468,-6.85332873722379,0
 -36.410648905,-6.85471662022396,0
 -36.409791408,-6.85507171022385,0
 -36.408702981,-6.85507683422392,0
 -36.40847752,-6.85507758622389,0
 -36.406497895,-6.85472460922391,0
 -36.406414557,-6.85470974922392,0
 -36.40550292,-6.85217109422384,0
 -36.405512291,-6.85055846422372,0
 -36.4066550819999,-6.84791708222367,0
 -36.406540873,-6.84722589322368,0
 -36.4060103120001,-6.84624440522365,0
 -36.4048270929999,-6.84583567022349,0
 -36.403450578,-6.84670897322363,0
 -36.4025207949999,-6.84867317522361,0
 -36.400770795,-6.8504444242237,0
 -36.399481821,-6.85043821322373,0
 -36.39560917,-6.84882377122364,0
 -36.394079058,-6.84609681122352,0
 -36.392335099,-6.84636770322363,0
 -36.391073399,-6.84767536822365,0
 -36.389624064,-6.84738522622363,0
 -36.387734138,-6.84849886922367,0
 -36.38657681,-6.84783691422361,0
 -36.385813203,-6.84595710922351,0
 -36.384944161,-6.84585927822358,0
 -36.382280286,-6.84696999622364,0
 -36.379172999,-6.84939008222369,0
 -36.3761391279999,-6.84731155222366,0
 -36.374980719,-6.84758730022365,0
 -36.37535841,-6.84899371922366,0
 -36.372881821,-6.85115746522373,0
 -36.37044112,-6.85535856022387,0</coordinates>
        </LineString>
      </Placemark>
    </Folder>
  </Document>
</kml>