<kml xmlns:xsd="http://schemas.opengis.net/kml/2.2.0/ogckml22.xsd" xmlns:xmlns="http://www.opengis.net/kml/2.2/" version="1.0">
  <Document>
    <name>CARIRA</name>
    <open>1</open>
    <Folder>
      <name>2801405</name>
      <Style id="line1">
        <LineStyle>
          <color>#ff000000</color>
          <width>3</width>
        </LineStyle>
        <BalloonStyle>
          <text>$[description]</text>
        </BalloonStyle>
      </Style>
      <Placemark>
        <name>43</name>
        <styleUrl>#line1</styleUrl>
        <LineString>
          <extrude>0</extrude>
          <altitudeMode>clampToGround</altitudeMode>
          <coordinates>-37.596607503,-10.2504810233308,0
 -37.61143107,-10.2774941693317,0
 -37.589169011,-10.3125214203327,0
 -37.58911415,-10.3126075263327,0
 -37.581481411,-10.324611163333,0
 -37.577974054,-10.3303461823332,0
 -37.578486458,-10.3347939113334,0
 -37.578245385,-10.3357308643334,0
 -37.5793449179999,-10.3405329433336,0
 -37.579109406,-10.3462958483338,0
 -37.57835928,-10.353438380334,0
 -37.57636691,-10.3597660793342,0
 -37.5766042399999,-10.3657366993344,0
 -37.575471383,-10.3682470473345,0
 -37.575532773,-10.3713009163345,0
 -37.622797184,-10.4105843023357,0
 -37.624692591,-10.4121594073358,0
 -37.62732022,-10.4153603753359,0
 -37.6810774010001,-10.4808625103379,0
 -37.724334439,-10.5090421993388,0
 -37.725259772,-10.5096453723389,0
 -37.725343188,-10.5095911303388,0
 -37.72686883,-10.5108197623388,0
 -37.729932744,-10.515525960339,0
 -37.731265797,-10.5161344903391,0
 -37.735214771,-10.515627395339,0
 -37.740827984,-10.513753692339,0
 -37.751348255,-10.5118744123388,0
 -37.762114238,-10.5078156313387,0
 -37.767864793,-10.5078427513388,0
 -37.772851545,-10.5066063123388,0
 -37.77565048,-10.5074297793388,0
 -37.778013759,-10.5089235903387,0
 -37.778343462,-10.5100942603388,0
 -37.77960507,-10.5109962823388,0
 -37.782524687,-10.5106607953389,0
 -37.784644224,-10.5118385583389,0
 -37.785601389,-10.5112862113388,0
 -37.786709304,-10.5116936163388,0
 -37.787542402,-10.5109469493388,0
 -37.788752292,-10.5119440213388,0
 -37.78971527,-10.5106338903389,0
 -37.7908934289999,-10.5108399803389,0
 -37.7922652629999,-10.5102478723389,0
 -37.792788185,-10.5106639523389,0
 -37.793614146,-10.5098280193388,0
 -37.794364711,-10.5101611913388,0
 -37.795308972,-10.5095759113388,0
 -37.7962745039999,-10.5102167813388,0
 -37.797724529,-10.5091204813388,0
 -37.79808131,-10.5095815423388,0
 -37.79926391,-10.5095508143389,0
 -37.8000921420001,-10.5110310233388,0
 -37.800881874,-10.5106324323388,0
 -37.801471321,-10.5111389233388,0
 -37.802274515,-10.5104203243388,0
 -37.804617743,-10.5121545413389,0
 -37.807619631,-10.5121958103389,0
 -37.808336301,-10.5130431773389,0
 -37.808744351,-10.5131617043389,0
 -37.809045649,-10.5130527773389,0
 -37.809240658,-10.5129813233389,0
 -37.8099150139999,-10.5134911273389,0
 -37.810416082,-10.515649822339,0
 -37.8111551560001,-10.5160443053391,0
 -37.813108793,-10.515999181339,0
 -37.8142656959999,-10.517047725339,0
 -37.815643705,-10.517393376339,0
 -37.8156440719999,-10.517393468339,0
 -37.817271701,-10.5148748743389,0
 -37.817030525,-10.5130896673389,0
 -37.816551228,-10.5124901043389,0
 -37.813992108,-10.5103784023389,0
 -37.813357923,-10.5094592753388,0
 -37.813052393,-10.5084839703387,0
 -37.813350256,-10.5072925703387,0
 -37.815483432,-10.5049991993387,0
 -37.817314449,-10.5039431793387,0
 -37.8175635359999,-10.4970519813384,0
 -37.819886831,-10.4921168843382,0
 -37.820463657,-10.4890881833381,0
 -37.821393164,-10.4872836873381,0
 -37.821062344,-10.484653176338,0
 -37.823454515,-10.4813865703379,0
 -37.825618479,-10.4802559583379,0
 -37.827983181,-10.4770384123377,0
 -37.829649826,-10.4738223653376,0
 -37.834395778,-10.4666790003375,0
 -37.838285341,-10.4608246273373,0
 -37.841986764,-10.4528132593371,0
 -37.844232309,-10.449791487337,0
 -37.847455614,-10.4466970443369,0
 -37.848978027,-10.4436145943368,0
 -37.849059636,-10.4435001313368,0
 -37.850481713,-10.4415055583367,0
 -37.8514128490001,-10.4408210083366,0
 -37.852343985,-10.4401364583367,0
 -37.854010376,-10.4358337613366,0
 -37.855252072,-10.4345075803365,0
 -37.856545685,-10.4334096393364,0
 -37.858492354,-10.4309611663364,0
 -37.858897275,-10.4302043063364,0
 -37.859119401,-10.4264708923363,0
 -37.858448741,-10.4257854823363,0
 -37.85772404,-10.4259838173363,0
 -37.856134808,-10.4257043293363,0
 -37.855847531,-10.4254646273362,0
 -37.854907932,-10.4256455313362,0
 -37.85376299,-10.4248847683362,0
 -37.852507927,-10.416779492336,0
 -37.851175336,-10.4160915803359,0
 -37.851232333,-10.4138188023358,0
 -37.853951285,-10.4100734663357,0
 -37.853423526,-10.4067640753356,0
 -37.853382458,-10.4065065553356,0
 -37.853212357,-10.4064895803356,0
 -37.852792633,-10.4064481923357,0
 -37.849927206,-10.4061656413357,0
 -37.849921095,-10.4061650383356,0
 -37.847978728,-10.4064271513356,0
 -37.8467124179999,-10.4060083283356,0
 -37.844572644,-10.4045195843355,0
 -37.839400191,-10.4033515253355,0
 -37.8372889739999,-10.4010284623354,0
 -37.8371344449999,-10.4004396893355,0
 -37.838037561,-10.3997358373354,0
 -37.841374628,-10.3997976783355,0
 -37.842533031,-10.3985013833353,0
 -37.840821042,-10.3948155773353,0
 -37.841111053,-10.3915546443352,0
 -37.84063051,-10.3898999273351,0
 -37.838229376,-10.387386028335,0
 -37.8371678,-10.387056531335,0
 -37.8353763819999,-10.387285084335,0
 -37.83359699,-10.385344309335,0
 -37.834954477,-10.3833396033349,0
 -37.8397868979999,-10.3813438763348,0
 -37.839125709,-10.3802704203348,0
 -37.838991392,-10.3792103093348,0
 -37.83850064,-10.3787891343348,0
 -37.837662342,-10.3794108073348,0
 -37.8365761309999,-10.3789938803347,0
 -37.8352404289999,-10.3788001493348,0
 -37.83407836,-10.3801172043348,0
 -37.8337478079999,-10.3795364803349,0
 -37.83392609,-10.3783399183347,0
 -37.832744241,-10.3774477783348,0
 -37.831732352,-10.3756035633347,0
 -37.830699604,-10.3749705103346,0
 -37.828101983,-10.3752654703346,0
 -37.825160805,-10.3774285993347,0
 -37.824087475,-10.3779987203347,0
 -37.823594636,-10.3774441283348,0
 -37.823975539,-10.3755960573346,0
 -37.822175006,-10.3738487193346,0
 -37.8220609909999,-10.3723173773346,0
 -37.819092786,-10.3709012193346,0
 -37.81553602,-10.3700874023345,0
 -37.814532438,-10.3687804783345,0
 -37.81425678,-10.3674016843344,0
 -37.813029638,-10.3662076713344,0
 -37.808651981,-10.3666200573344,0
 -37.807778284,-10.3667023613344,0
 -37.8035155349999,-10.3638467643343,0
 -37.800322435,-10.3631429523344,0
 -37.7970934329999,-10.3610746843342,0
 -37.794663882,-10.3581678443341,0
 -37.787617092,-10.354483861334,0
 -37.787607811,-10.3544563773341,0
 -37.785674934,-10.3487326543339,0
 -37.785256905,-10.3474943473337,0
 -37.78525662,-10.3474935043338,0
 -37.783979728,-10.3462214493338,0
 -37.780333766,-10.3454226293338,0
 -37.776587332,-10.3442408213337,0
 -37.771458518,-10.3444817003337,0
 -37.769864,-10.3442231493337,0
 -37.764225472,-10.3447327653337,0
 -37.7625328039999,-10.3444284793337,0
 -37.752891304,-10.3403566643336,0
 -37.74642644,-10.3393929893336,0
 -37.74404457,-10.3380187733335,0
 -37.741897092,-10.3367799443335,0
 -37.741750896,-10.3366956053335,0
 -37.7357831989999,-10.3346637253334,0
 -37.734875623,-10.3328070173333,0
 -37.7413458289999,-10.3179315223329,0
 -37.741462328,-10.3176629083328,0
 -37.741462381,-10.3176627853329,0
 -37.741463364,-10.3176578583329,0
 -37.741525738,-10.3173453073329,0
 -37.765703146,-10.1962170813291,0
 -37.763524146,-10.1961035353292,0
 -37.7613275500001,-10.1960080313292,0
 -37.760054161,-10.1960717003292,0
 -37.758685268,-10.1965173863291,0
 -37.7578894,-10.1972814203292,0
 -37.757571052,-10.1980454533292,0
 -37.756584176,-10.1982682963293,0
 -37.755629134,-10.1983319663292,0
 -37.7547695969999,-10.1984593053293,0
 -37.753814555,-10.1984274703292,0
 -37.75263667,-10.1983956353293,0
 -37.752222819,-10.1981250403292,0
 -37.751904472,-10.1981727923293,0
 -37.751904472,-10.1985707263293,0
 -37.752047728,-10.1988254043292,0
 -37.75185672,-10.1990800823292,0
 -37.751156356,-10.1989527433293,0
 -37.75094943,-10.1983956353293,0
 -37.7504082399999,-10.1978862803291,0
 -37.749930719,-10.1976634373292,0
 -37.749373611,-10.1976475193291,0
 -37.748800586,-10.1976475193291,0
 -37.748147974,-10.1978544453292,0
 -37.747654536,-10.1982364623292,0
 -37.746970089,-10.1982682963293,0
 -37.746094634,-10.1980136193291,0
 -37.745171427,-10.1977748583292,0
 -37.744375559,-10.1972018333292,0
 -37.744025377,-10.1968038993292,0
 -37.7437707,-10.1964696343292,0
 -37.743309096,-10.1965810563291,0
 -37.742704236,-10.1966128913292,0
 -37.742338137,-10.1965173863291,0
 -37.742083459,-10.1961512873292,0
 -37.742067542,-10.1958329403291,0
 -37.742115294,-10.1955941793291,0
 -37.74201979,-10.1954509233292,0
 -37.741706079,-10.1954040063291,0
 -37.741383095,-10.195307667329,0
 -37.741128418,-10.1952758323291,0
 -37.740619062,-10.1953554193291,0
 -37.739902781,-10.195387254329,0
 -37.7394093419999,-10.1954986753291,0
 -37.739186499,-10.1955623453291,0
 -37.738899987,-10.195228080329,0
 -37.738693061,-10.1948778983291,0
 -37.738311044,-10.1946868903291,0
 -37.73767435,-10.1945913863291,0
 -37.737053573,-10.1946868903291,0
 -37.736576052,-10.1948938163291,0
 -37.732392953,-10.194390021329,0
 -37.729651999,-10.192983732329,0
 -37.728466974,-10.191959076329,0
 -37.7265462249998,-10.1910117213289,0
 -37.7258636669999,-10.1898320943289,0
 -37.725115176,-10.1895574393289,0
 -37.7242082619999,-10.1892590693289,0
 -37.723265525,-10.1894731293289,0
 -37.7220753349999,-10.1890680613289,0
 -37.7219479960001,-10.1883358623289,0
 -37.721183963,-10.1878265073289,0
 -37.720133417,-10.1877628373289,0
 -37.719528557,-10.1883676973288,0
 -37.71858932,-10.1886924133289,0
 -37.717901319,-10.1878494683289,0
 -37.717334034,-10.1878989103289,0
 -37.715963068,-10.1891635653289,0
 -37.713944893,-10.1902472163289,0
 -37.712490025,-10.190372509329,0
 -37.710710339,-10.190532458329,0
 -37.709643875,-10.1909781443289,0
 -37.7087843379999,-10.190994062329,0
 -37.708465991,-10.190627963329,0
 -37.707892966,-10.190548376329,0
 -37.707513036,-10.190979982329,0
 -37.70762237,-10.191216905329,0
 -37.707272188,-10.1916148393289,0
 -37.7065081549999,-10.1917262613289,0
 -37.705425774,-10.191678508329,0
 -37.704200138,-10.191758095329,0
 -37.703682379,-10.1919531343289,0
 -37.703085922,-10.191980938329,0
 -37.702783492,-10.192235616329,0
 -37.7021467979999,-10.192617633329,0
 -37.701462351,-10.192999649329,0
 -37.701128087,-10.193349831329,0
 -37.700777905,-10.1937955183291,0
 -37.700968913,-10.1942412043291,0
 -37.70098483,-10.1946073033291,0
 -37.700841574,-10.1949893203291,0
 -37.700539144,-10.194925650329,0
 -37.700157128,-10.1949893203291,0
 -37.70014121,-10.195212163329,0
 -37.700332219,-10.1954668413291,0
 -37.70055621,-10.1957184993292,0
 -37.700780202,-10.1959701583291,0
 -37.700491392,-10.1964218823292,0
 -37.700570979,-10.1968994033292,0
 -37.700841574,-10.1972495853291,0
 -37.701016665,-10.1979340323292,0
 -37.701175839,-10.1983001313292,0
 -37.700921161,-10.1988413213293,0
 -37.701128087,-10.1993825123292,0
 -37.701000748,-10.1999873713293,0
 -37.700809739,-10.2006559013292,0
 -37.699870615,-10.2009901653293,0
 -37.699329425,-10.2017701163293,0
 -37.698597226,-10.2031071743294,0
 -37.697737689,-10.2038712083293,0
 -37.6970373249999,-10.2046670763294,0
 -37.696591638,-10.2049217543294,0
 -37.696177787,-10.2051923493294,0
 -37.695779853,-10.2059404653294,0
 -37.695970861,-10.2066726633294,0
 -37.6960981999999,-10.2071501843295,0
 -37.6959549439999,-10.2074526143296,0
 -37.695700266,-10.2075799533295,0
 -37.6952545799999,-10.2074526143296,0
 -37.694999902,-10.2076277053295,0
 -37.694808894,-10.2077709613295,0
 -37.694395043,-10.2076754573295,0
 -37.694076695,-10.2076277053295,0
 -37.694013026,-10.2079938053295,0
 -37.693742431,-10.2081848133295,0
 -37.6933444969999,-10.2080733913295,0
 -37.693105736,-10.2078187143295,0
 -37.692500876,-10.2075003663295,0
 -37.6922621159999,-10.2070069283294,0
 -37.692293951,-10.2065612423294,0
 -37.6921984469999,-10.2060678043294,0
 -37.691832347,-10.2055584483294,0
 -37.691386661,-10.2049376713295,0
 -37.6912274869999,-10.2045556543294,0
 -37.690988727,-10.2043487293294,0
 -37.690638545,-10.2045556543294,0
 -37.690288363,-10.2048580843295,0
 -37.689970016,-10.2049376713295,0
 -37.689572082,-10.2047466633295,0
 -37.6894288260001,-10.2043328113294,0
 -37.689126396,-10.2039507953294,0
 -37.688887635,-10.2036165303293,0
 -37.688473784,-10.2036483653293,0
 -37.688187271,-10.2040622163294,0
 -37.687964428,-10.2043646463294,0
 -37.68747099,-10.2049535883295,0
 -37.6872481469999,-10.2054151923295,0
 -37.6869298,-10.2057972093295,0
 -37.686245353,-10.2059245473294,0
 -37.685465402,-10.2060359693294,0
 -37.6848287079999,-10.2061792253294,0
 -37.6841760959999,-10.2063224823294,0
 -37.683714493,-10.2065134903294,0
 -37.683205137,-10.2068477543295,0
 -37.682934542,-10.2072297713295,0
 -37.6826639470001,-10.2078346313295,0
 -37.682345599,-10.2085986643295,0
 -37.682106839,-10.2090284333295,0
 -37.681856141,-10.2094005013295,0
 -37.681868079,-10.2094104503295,0
 -37.681630313,-10.2096163813294,0
 -37.68110504,-10.2097437203295,0
 -37.680818528,-10.2094253723295,0
 -37.680627519,-10.2090115213295,0
 -37.680484263,-10.2086135873295,0
 -37.680054494,-10.2085658353295,0
 -37.679561056,-10.2086772563295,0
 -37.679099452,-10.2082156533295,0
 -37.678542345,-10.2076107933295,0
 -37.677889733,-10.2073720333295,0
 -37.677475882,-10.2069422643295,0
 -37.677221204,-10.2065124953294,0
 -37.676918774,-10.2061145613294,0
 -37.676473088,-10.2061782303294,0
 -37.676106988,-10.2063374043294,0
 -37.675629468,-10.2066875863294,0
 -37.675104195,-10.2068308423294,0
 -37.674706261,-10.2068149253294,0
 -37.674722178,-10.2065284123294,0
 -37.674674426,-10.2062419003294,0
 -37.674244657,-10.2061304783294,0
 -37.673814645,-10.2064188263294,0
 -37.6736079629999,-10.2069581813295,0
 -37.673480624,-10.2074516193295,0
 -37.673194111,-10.2077699673295,0
 -37.672651056,-10.2078900933295,0
 -37.672016226,-10.2081042313295,0
 -37.671531306,-10.2084243683295,0
 -37.6713636140001,-10.2089000993295,0
 -37.671156689,-10.2094253723295,0
 -37.670774672,-10.2098551413296,0
 -37.670281234,-10.2103963313296,0
 -37.669755961,-10.2108101833296,0
 -37.669198853,-10.2110330263296,0
 -37.668625828,-10.2111603653296,0
 -37.667909547,-10.2112240343296,0
 -37.66728877,-10.2113991253296,0
 -37.667018175,-10.2111762823295,0
 -37.6667475789999,-10.2111126133296,0
 -37.666508819,-10.2115264643297,0
 -37.666254141,-10.2119880683296,0
 -37.665919877,-10.2124337543296,0
 -37.66523543,-10.2129908613297,0
 -37.664548848,-10.2133501753296,0
 -37.664105297,-10.2132932913296,0
 -37.663755115,-10.2131818703297,0
 -37.663436768,-10.2132614573297,0
 -37.662736404,-10.2138344823297,0
 -37.6622111309999,-10.2143915893297,0
 -37.661845032,-10.2148054413297,0
 -37.66125609,-10.2154421353296,0
 -37.6601737089999,-10.2160788303298,0
 -37.659298254,-10.2168906153297,0
 -37.6584068819999,-10.2173999713298,0
 -37.657435923,-10.2178297393298,0
 -37.656369459,-10.2180366653297,0
 -37.655494005,-10.2181640043298,0
 -37.654602632,-10.2180366653297,0
 -37.6539659379999,-10.2179889133298,0
 -37.653568004,-10.2184027643299,0
 -37.653249656,-10.2192941373298,0
 -37.652899475,-10.2201059223299,0
 -37.652612962,-10.2208540383299,0
 -37.652103606,-10.22168174133,0
 -37.651450995,-10.2227322873299,0
 -37.651164482,-10.2231779733299,0
 -37.650559622,-10.2235759073299,0
 -37.650161688,-10.2236554943299,0
 -37.649859258,-10.2239260893299,0
 -37.649779672,-10.22443544533,0
 -37.649600246,-10.22466140233,0
 -37.649286233,-10.2247856273301,0
 -37.649254399,-10.2251835613301,0
 -37.649095225,-10.22597942933,0
 -37.648792795,-10.22623410733,0
 -37.648426696,-10.22661612333,0
 -37.648028762,-10.2269822233301,0
 -37.647617102,-10.2271943473302,0
 -37.647248811,-10.2271732313301,0
 -37.646866794,-10.2271573143301,0
 -37.646373356,-10.2276825873302,0
 -37.645559845,-10.2279468953301,0
 -37.6449178469999,-10.2284604943301,0
 -37.644982047,-10.2290382923301,0
 -37.644982047,-10.2296802903302,0
 -37.64460524,-10.2299705083302,0
 -37.64382645,-10.2303222883302,0
 -37.643184452,-10.2308037863302,0
 -37.642774963,-10.2311957053302,0
 -37.642125156,-10.2313494843302,0
 -37.6417353589999,-10.2318523033302,0
 -37.641402908,-10.2322001323302,0
 -37.641146109,-10.2325050813302,0
 -37.64095351,-10.2327137303303,0
 -37.64096956,-10.2329705293302,0
 -37.641242409,-10.2330186793303,0
 -37.641290558,-10.2332754783303,0
 -37.641097959,-10.2335001773303,0
 -37.64069671,-10.2335162273303,0
 -37.640327562,-10.2334680783303,0
 -37.6397016139999,-10.2336927773303,0
 -37.639348515,-10.2337409273303,0
 -37.6389633159999,-10.2339014263303,0
 -37.6385941669999,-10.2342224253303,0
 -37.63882131,-10.2344510343303,0
 -37.6389151659999,-10.2347360233303,0
 -37.638850966,-10.2349286233303,0
 -37.638576599,-10.2349654653303,0
 -37.638353418,-10.2347841733303,0
 -37.638112669,-10.2345434243304,0
 -37.63782377,-10.2344310743303,0
 -37.637181772,-10.2345273743304,0
 -37.636652123,-10.2346878743303,0
 -37.636058275,-10.2348162733303,0
 -37.6355607270001,-10.2349286233303,0
 -37.635416277,-10.2352175223304,0
 -37.635336028,-10.2356829703304,0
 -37.635159478,-10.2362286693304,0
 -37.635060042,-10.2363824313304,0
 -37.635352078,-10.2365336183304,0
 -37.635496527,-10.2367262173304,0
 -37.6352878779999,-10.2371595663304,0
 -37.6349187289999,-10.2375768643304,0
 -37.634197706,-10.2377158833304,0
 -37.633698933,-10.2378978633304,0
 -37.633169285,-10.2382349123304,0
 -37.632784086,-10.2383954123304,0
 -37.632590567,-10.2383994473304,0
 -37.632270488,-10.2382670123303,0
 -37.632013689,-10.2380583633304,0
 -37.631679375,-10.2384184463304,0
 -37.631259341,-10.2384917113305,0
 -37.630745743,-10.2386361613304,0
 -37.6305207359999,-10.2388947793305,0
 -37.630456844,-10.2392621093305,0
 -37.6300395449999,-10.2397596573305,0
 -37.6296864459999,-10.2401288063305,0
 -37.6293012469999,-10.2401448563305,0
 -37.629060498,-10.2402893063305,0
 -37.628847074,-10.2405908763305,0
 -37.628728544,-10.2407583603305,0
 -37.6287876489999,-10.2410276033305,0
 -37.628899999,-10.2413325523305,0
 -37.628787649,-10.2415572513306,0
 -37.6284506,-10.2415893513306,0
 -37.627983815,-10.2418106723305,0
 -37.627648103,-10.2421190003306,0
 -37.627295004,-10.2422955493306,0
 -37.626979177,-10.2421701723305,0
 -37.626636956,-10.2422794993306,0
 -37.626380157,-10.2424881483305,0
 -37.626091258,-10.2424881483305,0
 -37.625941596,-10.2422251813306,0
 -37.625845112,-10.2420556523306,0
 -37.6256097589999,-10.2418943003305,0
 -37.625359774,-10.2419099823306,0
 -37.62538506,-10.2420869003306,0
 -37.625176411,-10.2422313493305,0
 -37.624871462,-10.2423918493306,0
 -37.624470213,-10.2425683983305,0
 -37.624085014,-10.2429375473305,0
 -37.6239726649999,-10.2434350953306,0
 -37.623764015,-10.2439486943305,0
 -37.623508577,-10.2442308413306,0
 -37.623218317,-10.2443980923307,0
 -37.622865218,-10.2443338923307,0
 -37.622687844,-10.2441788813306,0
 -37.622801018,-10.2438844943305,0
 -37.6227689179999,-10.2435313953305,0
 -37.62231952,-10.2435153453305,0
 -37.622014571,-10.2436116453305,0
 -37.621708295,-10.2434551283305,0
 -37.621420723,-10.2435153453305,0
 -37.621194451,-10.2433651363305,0
 -37.621083674,-10.2432103963305,0
 -37.620682425,-10.2432103963305,0
 -37.620184877,-10.2431301463306,0
 -37.619799678,-10.2430017473306,0
 -37.619446579,-10.2427288983306,0
 -37.618852731,-10.2421831993305,0
 -37.618403333,-10.2415091023305,0
 -37.617873684,-10.2411399533305,0
 -37.617263786,-10.2408350043305,0
 -37.616910687,-10.2405621553305,0
 -37.616718088,-10.2404337553305,0
 -37.616493389,-10.2405621553305,0
 -37.616477339,-10.2408350043305,0
 -37.616507596,-10.2411722183305,0
 -37.6165481089999,-10.2416237423305,0
 -37.616589667,-10.2420869023306,0
 -37.616541539,-10.2423115993306,0
 -37.616300789,-10.2425683983305,0
 -37.61596374,-10.2428572973305,0
 -37.615779507,-10.2431113423306,0
 -37.6156587909999,-10.2435474453305,0
 -37.6156748409999,-10.2438844943305,0
 -37.615642741,-10.2442857433307,0
 -37.615484958,-10.2444318413306,0
 -37.615225443,-10.2446709413307,0
 -37.614904444,-10.2448635413307,0
 -37.614519245,-10.2450240403307,0
 -37.614101946,-10.2450561403307,0
 -37.613845147,-10.2450079903307,0
 -37.6136525479999,-10.2449919403307,0
 -37.613524148,-10.2452005903307,0
 -37.613508209,-10.2455047033306,0
 -37.613395749,-10.2455376393307,0
 -37.613155,-10.2455536883307,0
 -37.612817951,-10.2456499883307,0
 -37.612657451,-10.2458746873307,0
 -37.612753751,-10.2461796363306,0
 -37.612705601,-10.2466771853307,0
 -37.612902012,-10.2470442943308,0
 -37.61313895,-10.2474315323307,0
 -37.613443899,-10.2478006813307,0
 -37.6133475989999,-10.2482500803307,0
 -37.613187099,-10.2486513283308,0
 -37.6129944999999,-10.2489241783308,0
 -37.612801901,-10.2491007273307,0
 -37.612513002,-10.2490204773308,0
 -37.612352502,-10.2488599783307,0
 -37.612111753,-10.2488118283307,0
 -37.611854954,-10.2491328273307,0
 -37.611453705,-10.2490846773307,0
 -37.611164806,-10.2491649273308,0
 -37.610891957,-10.2492130773308,0
 -37.610635158,-10.2489723273308,0
 -37.610522605,-10.2484997593307,0
 -37.610330209,-10.2480253803308,0
 -37.610304797,-10.2472896243307,0
 -37.610105509,-10.2467092853307,0
 -37.610137609,-10.2460993873306,0
 -37.6102517319999,-10.2457531873306,0
 -37.610249959,-10.2455055393306,0
 -37.6100734089999,-10.2452326903307,0
 -37.60991291,-10.2450079903307,0
 -37.6097528370001,-10.2450044953307,0
 -37.6096561109999,-10.2451684903306,0
 -37.609463511,-10.2453931893307,0
 -37.6092709119999,-10.2456178883307,0
 -37.609094363,-10.2457462883307,0
 -37.608869663,-10.2455055393306,0
 -37.608741264,-10.2452005903307,0
 -37.608641372,-10.2449704823306,0
 -37.608372115,-10.2449116913307,0
 -37.608147416,-10.2448314413307,0
 -37.608214776,-10.2444872033307,0
 -37.608282136,-10.2441429643305,0
 -37.608067166,-10.2439647443306,0
 -37.607858517,-10.2436597953305,0
 -37.60793926,-10.2434139373306,0
 -37.608115316,-10.2430177973306,0
 -37.608340015,-10.2426325983306,0
 -37.6086610139999,-10.2423115993306,0
 -37.608725214,-10.2419906003306,0
 -37.608452365,-10.2420227003306,0
 -37.608259765,-10.2420227003306,0
 -37.607938766,-10.2418782503305,0
 -37.6078388900001,-10.2417200093306,0
 -37.608115316,-10.2415572513306,0
 -37.608243715,-10.2413486023306,0
 -37.608179516,-10.2410918033305,0
 -37.607899936,-10.2408713353304,0
 -37.607489368,-10.2407226543305,0
 -37.607072069,-10.2407868543305,0
 -37.60676712,-10.2406263543305,0
 -37.606638721,-10.2402251063305,0
 -37.606638721,-10.2398238573305,0
 -37.606510321,-10.2395028583305,0
 -37.606141172,-10.2395510083305,0
 -37.605980673,-10.2397917573305,0
 -37.605388056,-10.2399095083304,0
 -37.605001626,-10.2400164563305,0
 -37.604504077,-10.2402732563305,0
 -37.604086779,-10.2408189543305,0
 -37.60374973,-10.2411078533305,0
 -37.60376578,-10.2414128023306,0
 -37.60386208,-10.2418782503305,0
 -37.6040546789999,-10.2421510993305,0
 -37.6043114779999,-10.2422313493305,0
 -37.604520127,-10.2420387503306,0
 -37.604632477,-10.2422634493306,0
 -37.604715501,-10.2426107873306,0
 -37.604798526,-10.2429581243305,0
 -37.604536177,-10.2432585463305,0
 -37.604134929,-10.2433869453306,0
 -37.603718512,-10.2432817903306,0
 -37.603171932,-10.2431461963305,0
 -37.602979332,-10.2429054473305,0
 -37.602805844,-10.2429174803305,0
 -37.602562034,-10.2431461963305,0
 -37.602032385,-10.2433387963306,0
 -37.601534837,-10.2434350953306,0
 -37.601245938,-10.2435153453305,0
 -37.600775425,-10.2433031433306,0
 -37.600459491,-10.2431622463305,0
 -37.600475541,-10.2429054473305,0
 -37.6003150409999,-10.2428251973305,0
 -37.6000742919999,-10.2428733473305,0
 -37.599913792,-10.2430819963306,0
 -37.600013481,-10.2432666603306,0
 -37.600379241,-10.2433548463306,0
 -37.600427391,-10.2436918953306,0
 -37.600379241,-10.2440128933306,0
 -37.600624224,-10.2442792713306,0
 -37.60058789,-10.2444462423306,0
 -37.60055579,-10.2447030413307,0
 -37.600844689,-10.2450561403307,0
 -37.601278038,-10.2452487393307,0
 -37.601582987,-10.2453450393307,0
 -37.601871886,-10.2455055393306,0
 -37.601711387,-10.2456660383307,0
 -37.601406438,-10.2457783883306,0
 -37.601390388,-10.2460833373307,0
 -37.601711387,-10.2462919863307,0
 -37.601679287,-10.2465808853307,0
 -37.601470637,-10.2469179343307,0
 -37.6011113549999,-10.2473249223308,0
 -37.60070024,-10.2476562323308,0
 -37.6003824379999,-10.2479649443307,0
 -37.6001063919999,-10.2482179803307,0
 -37.5997853929999,-10.2484266293307,0
 -37.599496494,-10.2483303303308,0
 -37.599143395,-10.2485710793307,0
 -37.5987260959999,-10.2486834283308,0
 -37.598629796,-10.2490686273307,0
 -37.598629796,-10.2493575263308,0
 -37.598517447,-10.2496945753308,0
 -37.598261511,-10.2500252083308,0
 -37.598003849,-10.2500476743308,0
 -37.597875449,-10.2498390253308,0
 -37.5975062999999,-10.2499513743308,0
 -37.597153201,-10.2502563233309,0
 -37.596607503,-10.2504810233308,0</coordinates>
        </LineString>
      </Placemark>
    </Folder>
  </Document>
</kml>