<kml xmlns:xsd="http://schemas.opengis.net/kml/2.2.0/ogckml22.xsd" xmlns:xmlns="http://www.opengis.net/kml/2.2/" version="1.0">
  <Document>
    <name>ABARE</name>
    <open>1</open>
    <Folder>
      <name>2900207</name>
      <Style id="line1">
        <LineStyle>
          <color>#ff000000</color>
          <width>3</width>
        </LineStyle>
        <BalloonStyle>
          <text>$[description]</text>
        </BalloonStyle>
      </Style>
      <Placemark>
        <name>47</name>
        <styleUrl>#line1</styleUrl>
        <LineString>
          <extrude>0</extrude>
          <altitudeMode>clampToGround</altitudeMode>
          <coordinates>-39.356786008,-8.54745897427764,0
 -39.356628281,-8.5475734542777,0
 -39.356242445,-8.5478534972776,0
 -39.355612575,-8.54831066227776,0
 -39.354438492,-8.54916282127775,0
 -39.353264409,-8.55001498027774,0
 -39.350264302,-8.55314990027777,0
 -39.3451437169999,-8.558500583278,0
 -39.3449112190001,-8.55864632527798,0
 -39.344678721,-8.55879206727796,0
 -39.342307018,-8.55967709027809,0
 -39.3359286220001,-8.55878707827799,0
 -39.332336653,-8.55828605127792,0
 -39.324431391,-8.56001407127808,0
 -39.320398008,-8.56003751227807,0
 -39.312460681,-8.55831154427799,0
 -39.3024468,-8.56058452127812,0
 -39.293215612,-8.56062917227808,0
 -39.28642129,-8.56375979827821,0
 -39.2841058719999,-8.5658679502782,0
 -39.281392728,-8.57053086127836,0
 -39.275159825,-8.57682503627858,0
 -39.272623703,-8.58379101927879,0
 -39.27185855,-8.58980325927896,0
 -39.272698333,-8.59649362827927,0
 -39.268969965,-8.60365524727941,0
 -39.267743879,-8.60884578927953,0
 -39.266479369,-8.61093938427966,0
 -39.264691111,-8.61389832827978,0
 -39.263405127,-8.61521847627977,0
 -39.253224076,-8.61998312528,0
 -39.253222694,-8.61998377227997,0
 -39.25211706,-8.62102224527991,0
 -39.247883295,-8.62499883628013,0
 -39.2467845639999,-8.62646203528014,0
 -39.246494302,-8.62684858028015,0
 -39.245247177,-8.62914564928023,0
 -39.245247505,-8.62914596028025,0
 -39.24397868,-8.63148393128025,0
 -39.2438712219999,-8.63168236228024,0
 -39.243064196,-8.63355683928035,0
 -39.241879991,-8.63630738728047,0
 -39.2417993409999,-8.63670895228048,0
 -39.241076318,-8.64030895728053,0
 -39.241076412,-8.64030919428055,0
 -39.241076284,-8.64030983128061,0
 -39.2411971779999,-8.64061576528061,0
 -39.241644537,-8.64175140828069,0
 -39.241645809,-8.6417525822807,0
 -39.2416463179999,-8.64175235128068,0
 -39.245610584,-8.64541314228071,0
 -39.246662394,-8.64759045428082,0
 -39.246885956,-8.65426710528107,0
 -39.245499089,-8.66235568228126,0
 -39.245713823,-8.66399529728139,0
 -39.2477731289999,-8.66758436828143,0
 -39.248017848,-8.66876771628146,0
 -39.245661251,-8.67625916228171,0
 -39.245492563,-8.68410586828196,0
 -39.244852185,-8.68599999128201,0
 -39.240856516,-8.6912986432821,0
 -39.235582367,-8.7025359942825,0
 -39.2342680209998,-8.70533640128265,0
 -39.23055382,-8.70881110128283,0
 -39.228521864,-8.71031532028276,0
 -39.224382318,-8.71158069228283,0
 -39.2222407739999,-8.7116674102829,0
 -39.221193525,-8.71122668728276,0
 -39.218742486,-8.70885109428276,0
 -39.217631424,-8.7084596712827,0
 -39.200781028,-8.71098763028279,0
 -39.198903854,-8.71064474128275,0
 -39.198901401,-8.7106442932828,0
 -39.19513193,-8.70955597928282,0
 -39.191858913,-8.70718104628269,0
 -39.1903830779999,-8.70670225428269,0
 -39.184886176,-8.70592025128273,0
 -39.180995841,-8.7063008622827,0
 -39.178523892,-8.70420238128262,0
 -39.175492516,-8.70296671728252,0
 -39.17404541,-8.70134495028254,0
 -39.171379592,-8.69541227528238,0
 -39.170257547,-8.69291520728228,0
 -39.169794271,-8.69217855928225,0
 -39.169569846,-8.69203866728223,0
 -39.169569819,-8.69203870028223,0
 -39.16871283,-8.69150445728217,0
 -39.167477231,-8.69253882928222,0
 -39.161581044,-8.70179780328252,0
 -39.156685695,-8.70680900228273,0
 -39.155245051,-8.70769179828267,0
 -39.153804407,-8.70857459328271,0
 -39.151133884,-8.70964560628277,0
 -39.14863523,-8.71091928228282,0
 -39.143946197,-8.71251907128294,0
 -39.135190965,-8.71371427028289,0
 -39.12936684,-8.71544854228294,0
 -39.121799563,-8.71607258328297,0
 -39.11549441,-8.71769507628301,0
 -39.114034725,-8.71807069428309,0
 -39.114034757,-8.71807093228302,0
 -39.113223561,-8.71827948928305,0
 -39.11296318,-8.71834643228308,0
 -39.109550934,-8.71888483328304,0
 -39.1021808679999,-8.72004771828316,0
 -39.0702027619999,-8.73031159228339,0
 -39.070198266,-8.73031264228338,0
 -39.06468612,-8.73160043028353,0
 -39.064685271,-8.73160058928354,0
 -39.064538206,-8.73162813528351,0
 -39.064539321,-8.73163317828349,0
 -39.064539354,-8.7316333272835,0
 -39.0646797969999,-8.73226836028355,0
 -39.064681873,-8.73227191828349,0
 -39.064683099,-8.73227401828349,0
 -39.064946781,-8.73272591128348,0
 -39.064958982,-8.73274682128353,0
 -39.0650380679999,-8.7329032142835,0
 -39.065117226,-8.73305974828348,0
 -39.065211862,-8.73356084028347,0
 -39.065431968,-8.73403025428358,0
 -39.065526583,-8.73440562028355,0
 -39.0655266809999,-8.73496913828355,0
 -39.065463999,-8.73534451328361,0
 -39.065369515,-8.73571991128359,0
 -39.065212302,-8.73609622828355,0
 -39.0652124,-8.73665883928365,0
 -39.065400671,-8.73703507828369,0
 -39.065527107,-8.73741043928366,0
 -39.0655590479999,-8.73809877028368,0
 -39.065495521,-8.73875636728365,0
 -39.065435691,-8.73978934528376,0
 -39.065464871,-8.74033929828379,0
 -39.065623224,-8.74115333428373,0
 -39.065835143,-8.74162365528374,0
 -39.066442628,-8.74256154228381,0
 -39.0665058499999,-8.74276278228385,0
 -39.0665690719999,-8.74296402228389,0
 -39.066599998,-8.74306171528389,0
 -39.0666809820001,-8.74341264928379,0
 -39.06691477,-8.74412626828386,0
 -39.0672613,-8.74493938028382,0
 -39.067419579,-8.74540880128384,0
 -39.067671641,-8.74656745128397,0
 -39.06782902,-8.74709928228392,0
 -39.068082838,-8.74796848428398,0
 -39.068302979,-8.74856271328403,0
 -39.068397646,-8.74918862328404,0
 -39.068713287,-8.75006505728408,0
 -39.06896524,-8.750690938284,0
 -39.069122687,-8.75147331328416,0
 -39.069531985,-8.75241213828412,0
 -39.069753119,-8.7534134062841,0
 -39.069942466,-8.75469688428416,0
 -39.070194518,-8.75582387228424,0
 -39.070509275,-8.75670028528427,0
 -39.071014103,-8.75782633628427,0
 -39.071334313,-8.75876336028427,0
 -39.071460756,-8.75910794928427,0
 -39.071649081,-8.75967143128435,0
 -39.071838366,-8.76057863628436,0
 -39.071870273,-8.76101642128443,0
 -39.071995908,-8.76189286828439,0
 -39.0720905779999,-8.76248802628452,0
 -39.072248907,-8.76305060528443,0
 -39.0727209959999,-8.76417754928451,0
 -39.07313118,-8.76477264528445,0
 -39.073666895,-8.76567978228455,0
 -39.073918885,-8.76639972728461,0
 -39.074076293,-8.76699396428457,0
 -39.074268305,-8.76779533628453,0
 -39.074362949,-8.7682331092846,0
 -39.0745521769999,-8.7687034292847,0
 -39.074709569,-8.76920359828461,0
 -39.075024266,-8.76976705228469,0
 -39.075434448,-8.77029882928463,0
 -39.075938327,-8.77108113128479,0
 -39.0762848649999,-8.77170698828471,0
 -39.0767259739999,-8.77230207428474,0
 -39.077198889,-8.77280217828473,0
 -39.077765511,-8.7735844832848,0
 -39.078427626,-8.77446081728483,0
 -39.0794043409999,-8.77536876028481,0
 -39.0800182149999,-8.77598188628483,0
 -39.080774818,-8.7764819242849,0
 -39.081085378,-8.77661709428489,0
 -39.081395902,-8.77675224928497,0
 -39.08151711,-8.77754706428493,0
 -39.0815534229999,-8.77778518128491,0
 -39.081585403,-8.77849612828494,0
 -39.081742911,-8.77946574328496,0
 -39.081774989,-8.78062440828499,0
 -39.0819644859999,-8.78225160028507,0
 -39.082153822,-8.78322120728509,0
 -39.08240591,-8.78425411928511,0
 -39.0825325019999,-8.78509982928519,0
 -39.0826354669999,-8.78613275328521,0
 -39.082979956,-8.78710285228518,0
 -39.083000798,-8.78716154528516,0
 -39.083092438,-8.78740183728514,0
 -39.083959382,-8.78967506428529,0
 -39.0840070589999,-8.78980007728524,0
 -39.084020415,-8.7898350992853,0
 -39.084349124,-8.79069701228538,0
 -39.1052445359999,-8.84548718828708,0
 -39.105280237,-8.84558080128701,0
 -39.105293815,-8.84561640328702,0
 -39.105310633,-8.84566050228703,0
 -39.10539869,-8.84589139928704,0
 -39.105507816,-8.84617754128709,0
 -39.1282131689999,-8.8595062272875,0
 -39.130771105,-8.86100780828749,0
 -39.132213043,-8.86185426728762,0
 -39.13256273,-8.86205954328755,0
 -39.14042971,-8.86667768228765,0
 -39.2700665259999,-8.94277816529007,0
 -39.271417269,-8.94357108929013,0
 -39.271110535,-8.94410871529021,0
 -39.271097438,-8.94413167129015,0
 -39.2710823600001,-8.94415809929012,0
 -39.271058621,-8.94419970729018,0
 -39.271023977,-8.94426043029015,0
 -39.270996269,-8.94430899529017,0
 -39.270926138,-8.94443191629012,0
 -39.270835584,-8.94458970729021,0
 -39.270821981,-8.94461341129022,0
 -39.27053458,-8.94511421129018,0
 -39.27052119,-8.94514682229021,0
 -39.270507416,-8.94518037029015,0
 -39.270299429,-8.94568695729014,0
 -39.270264895,-8.94577106729017,0
 -39.269999676,-8.94630997229026,0
 -39.2699688979999,-8.94637251029028,0
 -39.2699678779999,-8.94637458229028,0
 -39.26974834,-8.94717795129023,0
 -39.269650534,-8.94778674629024,0
 -39.269601767,-8.94824988729028,0
 -39.2695283,-8.94856651929027,0
 -39.269356652,-8.94893207029023,0
 -39.2693076859999,-8.94915098829032,0
 -39.2690278779999,-8.94965228929032,0
 -39.268910749,-8.94995448629036,0
 -39.268910971,-8.95025568929033,0
 -39.268747572,-8.95071980229036,0
 -39.268443907,-8.95092897529035,0
 -39.268233811,-8.95099876029035,0
 -39.267719896,-8.95106878329028,0
 -39.267252372,-8.95111615329029,0
 -39.266714881,-8.9513019682903,0
 -39.266247641,-8.95176631729035,0
 -39.265827923,-8.95250921729044,0
 -39.265511039,-8.95332621329045,0
 -39.265148765,-8.95428976829042,0
 -39.264751955,-8.95528771029048,0
 -39.26414528,-8.95665756429049,0
 -39.263678131,-8.95726121129052,0
 -39.2632892420001,-8.95788467929059,0
 -39.263347093,-8.95863990729064,0
 -39.263385018,-8.95951092529059,0
 -39.263511273,-8.96051392029071,0
 -39.263633399,-8.96082859629072,0
 -39.263918625,-8.96148868829071,0
 -39.264089876,-8.96180921129068,0
 -39.264261127,-8.96212973329064,0
 -39.264566493,-8.9629924082907,0
 -39.264795405,-8.96378550629077,0
 -39.264985968,-8.96438866529076,0
 -39.264967364,-8.96506796129075,0
 -39.264873482,-8.96606840829083,0
 -39.2647594389999,-8.96686082529085,0
 -39.264798179,-8.9676160662909,0
 -39.264952535,-8.96846165829088,0
 -39.265143361,-8.96942301929102,0
 -39.2653907279999,-8.970555281291,0
 -39.26554329,-8.97144248029095,0
 -39.265676934,-8.97257391529104,0
 -39.2656403339999,-8.97353634729101,0
 -39.265612365,-8.97447975729099,0
 -39.265584397,-8.97542316729116,0
 -39.265578541,-8.97613231429112,0
 -39.265700335,-8.97723389629123,0
 -39.265755767,-8.97839161829119,0
 -39.265661294,-8.97857983629122,0
 -39.265433304,-8.97907113129119,0
 -39.265243375,-8.97935439129127,0
 -39.2649592599999,-8.98022200829129,0
 -39.264712302,-8.98092045429135,0
 -39.264485496,-8.98178893729135,0
 -39.2642195399999,-8.98260046829126,0
 -39.264087206,-8.98327984429143,0
 -39.264011582,-8.98438973729143,0
 -39.264012101,-8.98510699329135,0
 -39.2640509029999,-8.98591830529142,0
 -39.26414692,-8.98659751829149,0
 -39.264147412,-8.98727679929147,0
 -39.2645467689999,-8.98848402929153,0
 -39.264700925,-8.98904290429158,0
 -39.265062746,-8.9899480502916,0
 -39.265424492,-8.9907220442916,0
 -39.2658051439999,-8.99123099929162,0
 -39.2661476429999,-8.99179698029164,0
 -39.266642207,-8.99255096429167,0
 -39.26696562,-8.99315495129164,0
 -39.267289019,-8.99373991329164,0
 -39.2676553569999,-8.99456456529175,0
 -39.267845764,-8.99492351729178,0
 -39.268092681,-8.9954325672918,0
 -39.268359754,-8.99611165329177,0
 -39.268587602,-8.99665870929182,0
 -39.269006606,-8.99733768529187,0
 -39.269464667,-8.99794516429186,0
 -39.269843649,-8.99862055529188,0
 -39.270167169,-8.99935567129186,0
 -39.2706417569999,-9.00015671529197,0
 -39.270700326,-9.00024034529196,0
 -39.270843138,-9.00058258529194,0
 -39.270931672,-9.0009470382919,0
 -39.271007459,-9.0013087782919,0
 -39.271121988,-9.00240224829196,0
 -39.271134995,-9.00275408629194,0
 -39.2711179050001,-9.00302364329204,0
 -39.271300051,-9.00326410129204,0
 -39.27190644,-9.003895901292,0
 -39.272653137,-9.00477722729209,0
 -39.273031987,-9.00525905629199,0
 -39.273578358,-9.00590536529208,0
 -39.2739417139999,-9.00637092129206,0
 -39.2743970139999,-9.00689700129215,0
 -39.274639252,-9.00718262929207,0
 -39.274836849,-9.00742309229207,0
 -39.275154612,-9.00773852429206,0
 -39.2754887529999,-9.00805485229212,0
 -39.276298892,-9.00858970329214,0
 -39.2777233649999,-9.00937010829214,0
 -39.2786025689999,-9.00979094229215,0
 -39.279087713,-9.01007640229223,0
 -39.279360842,-9.01030141129219,0
 -39.279603022,-9.01052735129224,0
 -39.2798306949999,-9.01081300529216,0
 -39.2799818899999,-9.01103810629222,0
 -39.280103109,-9.01129399929225,0
 -39.280255387,-9.01173979529228,0
 -39.280376704,-9.0121458262923,0
 -39.280513602,-9.01270198229231,0
 -39.280574941,-9.01318313729224,0
 -39.2806198489999,-9.01361997529224,0
 -39.280590237,-9.01414641629236,0
 -39.28045469,-9.01534317729244,0
 -39.280516569,-9.01654701329239,0
 -39.2805478019999,-9.01809640129251,0
 -39.280524876,-9.01905246729248,0
 -39.280517811,-9.01933920729249,0
 -39.280397653,-9.02043735329258,0
 -39.280126199,-9.02237138429255,0
 -39.2800357909999,-9.02312399529265,0
 -39.279884907,-9.02449261629265,0
 -39.279614018,-9.02600514929274,0
 -39.27952413,-9.02743433429278,0
 -39.279510457,-9.02857761529287,0
 -39.279511059,-9.02936001729277,0
 -39.2795741689999,-9.02979050629277,0
 -39.279741077,-9.03030142229286,0
 -39.279907805,-9.03060249729281,0
 -39.280120026,-9.03088814329282,0
 -39.280316722,-9.03109874229284,0
 -39.280832918,-9.03147462829294,0
 -39.281166068,-9.03165437129289,0
 -39.281423636,-9.03175909529285,0
 -39.2814855309999,-9.03177351429289,0
 -39.281742153,-9.0318348182929,0
 -39.282287246,-9.03193933829293,0
 -39.2828978830001,-9.0320763352929,0
 -39.2834430129999,-9.03222697929293,0
 -39.283912654,-9.0324219902929,0
 -39.28447334,-9.03266214629287,0
 -39.285648437,-9.03323650029288,0
 -39.287027392,-9.03385229529294,0
 -39.287740054,-9.03415203129305,0
 -39.288178803,-9.03439227729294,0
 -39.28858847,-9.03466329629298,0
 -39.288830624,-9.03482863729299,0
 -39.288998173,-9.03497864329296,0
 -39.289149323,-9.03512868029303,0
 -39.289377009,-9.035399841293,0
 -39.289699441,-9.03582289929301,0
 -39.289938165,-9.036241485293,0
 -39.290383795,-9.03711126429311,0
 -39.290777327,-9.03768169829315,0
 -39.291383912,-9.03841838229308,0
 -39.2917481879999,-9.03882421529309,0
 -39.292733379,-9.0396808912931,0
 -39.294829408,-9.04146378429317,0
 -39.296861492,-9.04293556829327,0
 -39.298156133,-9.0438580162933,0
 -39.2992475899999,-9.0444441362933,0
 -39.299929312,-9.04469956329321,0
 -39.300238734,-9.04475628929328,0
 -39.300550819,-9.04474336329328,0
 -39.300792823,-9.04471332229328,0
 -39.301256816,-9.0446297312932,0
 -39.3016561969999,-9.04456245729323,0
 -39.302099324,-9.04455214529327,0
 -39.3022958889999,-9.04458182529324,0
 -39.3024324209999,-9.04464232329327,0
 -39.302584457,-9.04474711829332,0
 -39.302751128,-9.04492788629327,0
 -39.303084415,-9.04524327929325,0
 -39.304251839,-9.04634036229334,0
 -39.305480149,-9.04734695629332,0
 -39.306562909,-9.04837808229346,0
 -39.3075182229999,-9.04935503729347,0
 -39.308139376,-9.05004646229348,0
 -39.308868074,-9.05093315029339,0
 -39.309261599,-9.05144385929355,0
 -39.309354522,-9.0515839892935,0
 -39.309447463,-9.05172410029355,0
 -39.309720817,-9.05217520729348,0
 -39.310615683,-9.05372385529354,0
 -39.311192611,-9.05480694729363,0
 -39.31150069,-9.05541269929357,0
 -39.311771397,-9.05594431229359,0
 -39.312409218,-9.05696675729372,0
 -39.3133193469999,-9.05822955929367,0
 -39.314034448,-9.05915424029371,0
 -39.3143068269999,-9.05950042429384,0
 -39.314519144,-9.05984577029381,0
 -39.314819883,-9.0603791512938,0
 -39.314959522,-9.06085298629375,0
 -39.315005313,-9.06119936529381,0
 -39.315066676,-9.0616651352938,0
 -39.315128828,-9.0630145932939,0
 -39.315205106,-9.06387198629388,0
 -39.315221229,-9.06462360229389,0
 -39.315282961,-9.06551086829394,0
 -39.315542666,-9.06697954229396,0
 -39.3157710679999,-9.06800231529403,0
 -39.3159382499999,-9.06876919429406,0
 -39.316120868,-9.06947633829404,0
 -39.316517851,-9.0707920332941,0
 -39.316654895,-9.0714232682941,0
 -39.316867552,-9.0721457602942,0
 -39.31717125,-9.07291252029414,0
 -39.317504866,-9.07355894129415,0
 -39.317808369,-9.07410046729419,0
 -39.317982846,-9.07434814829426,0
 -39.3181573219999,-9.07459582829424,0
 -39.318272578,-9.07475310829428,0
 -39.318387833,-9.07491038729424,0
 -39.318798053,-9.07575211229425,0
 -39.319147202,-9.07644375229419,0
 -39.319953444,-9.07849715429427,0
 -39.320363806,-9.07948992129443,0
 -39.320499726,-9.07985068629444,0
 -39.320507935,-9.07988144729441,0
 -39.3205608869999,-9.08007586629442,0
 -39.320652237,-9.0804674202944,0
 -39.320743641,-9.08091867629443,0
 -39.321247194,-9.08231116329445,0
 -39.321369441,-9.08265656529452,0
 -39.321475349,-9.0830481242945,0
 -39.321596898,-9.08363413529449,0
 -39.32165816,-9.08395065629448,0
 -39.321816873,-9.08437110329454,0
 -39.3219920099999,-9.0848376602945,0
 -39.322357129,-9.08609457929458,0
 -39.322722208,-9.08728277329458,0
 -39.323071614,-9.08826021529462,0
 -39.3233754339999,-9.08913186929471,0
 -39.323602523,-9.0896888322947,0
 -39.323893433,-9.09037781429469,0
 -39.324651893,-9.09185146329476,0
 -39.325092165,-9.09266329129478,0
 -39.32530458,-9.09308368829484,0
 -39.325611044,-9.0938594762949,0
 -39.325778008,-9.0943251492948,0
 -39.3259449,-9.0947311012949,0
 -39.3260206550001,-9.09497164129491,0
 -39.326082153,-9.09554321729486,0
 -39.3261091069999,-9.09616457929485,0
 -39.326144397,-9.09695778129493,0
 -39.326267453,-9.09818417929497,0
 -39.326434556,-9.09879998829494,0
 -39.326555888,-9.09913092129506,0
 -39.3266771529999,-9.09938677629509,0
 -39.326829397,-9.09968784029504,0
 -39.326890556,-9.09988315729504,0
 -39.326905269,-9.10005589829503,0
 -39.326861079,-9.10050727429498,0
 -39.326905884,-9.10073335629504,0
 -39.326997014,-9.10086805429499,0
 -39.327119084,-9.10100361429511,0
 -39.327270278,-9.10115361529499,0
 -39.327437016,-9.10136421229501,0
 -39.3275737640001,-9.10163453929508,0
 -39.327680543,-9.10196548529502,0
 -39.3277865180001,-9.10241672529514,0
 -39.327847788,-9.10273233729514,0
 -39.327878019,-9.10295845029511,0
 -39.327862892,-9.10333472229516,0
 -39.327758129,-9.10421398229517,0
 -39.327411239,-9.10603412429522,0
 -39.326959576,-9.10774582729536,0
 -39.326823851,-9.10860342329535,0
 -39.326778774,-9.10908464129538,0
 -39.326793704,-9.10947628029536,0
 -39.326870439,-9.10980634429532,0
 -39.326875452,-9.10981628729534,0
 -39.3268804660001,-9.10982623029528,0
 -39.326961613,-9.10998716729527,0
 -39.327097375,-9.11015255729528,0
 -39.32724946,-9.11027273329527,0
 -39.32738602,-9.11033229529531,0
 -39.327658191,-9.11039266029534,0
 -39.3279467,-9.1104222432953,0
 -39.328416293,-9.11040735229531,0
 -39.329416286,-9.11022554429528,0
 -39.3300568790001,-9.11012365629528,0
 -39.330436369,-9.11012331229525,0
 -39.33072401,-9.11018275429529,0
 -39.330830075,-9.11022788429529,0
 -39.3309361359999,-9.11027301229529,0
 -39.33110236,-9.11039283929526,0
 -39.3311028,-9.11039315629529,0
 -39.331163591,-9.1104319042953,0
 -39.331645508,-9.1107390782954,0
 -39.331645529,-9.1107390962954,0
 -39.33183039,-9.11088906829537,0
 -39.331982534,-9.11105443829538,0
 -39.332048767,-9.1111201442954,0
 -39.332119165,-9.1111899822954,0
 -39.332224856,-9.11132466629545,0
 -39.332379843,-9.11161757329534,0
 -39.3330325389999,-9.11279009729537,0
 -39.3335483239999,-9.11354217829543,0
 -39.333836289,-9.11394801429552,0
 -39.334064156,-9.11432317429547,0
 -39.334261056,-9.11466940929543,0
 -39.334504501,-9.11515942129548,0
 -39.335081814,-9.11646769829554,0
 -39.335446571,-9.11724883129552,0
 -39.335628046,-9.11764031529558,0
 -39.335795747,-9.11791059129556,0
 -39.3360226359999,-9.11821158029559,0
 -39.336462629,-9.1186625282956,0
 -39.336755037,-9.11894715529561,0
 -39.337077542,-9.11930685029562,0
 -39.337319964,-9.11965304129567,0
 -39.337548737,-9.12001373029567,0
 -39.337710063,-9.12028039929571,0
 -39.337845003,-9.12053353329569,0
 -39.3379389369999,-9.12074689629567,0
 -39.338032896,-9.12098650929569,0
 -39.338100457,-9.12119989729567,0
 -39.338154413,-9.12149291429567,0
 -39.338224978,-9.12200659029571,0
 -39.338252535,-9.12227338329576,0
 -39.338346533,-9.12255369229577,0
 -39.338495105,-9.1227932532957,0
 -39.338682831,-9.12304633729577,0
 -39.338953453,-9.12338798129579,0
 -39.33925269,-9.12366124929575,0
 -39.339513115,-9.1238990732958,0
 -39.339636222,-9.12401149729578,0
 -39.339721274,-9.12408916829572,0
 -39.339777617,-9.1241406222958,0
 -39.339811559,-9.1241716182957,0
 -39.3398142469999,-9.12417407329573,0
 -39.339849781,-9.1242178612958,0
 -39.339880356,-9.12425553829572,0
 -39.339987557,-9.12438763929572,0
 -39.340054099,-9.12446963729576,0
 -39.340203119,-9.12465327229585,0
 -39.340203193,-9.12465336329577,0
 -39.340257978,-9.12472087329585,0
 -39.3403855389999,-9.12488039529581,0
 -39.340513111,-9.12503993029587,0
 -39.340592417,-9.12516911529581,0
 -39.3406074489999,-9.12519360029579,0
 -39.340701786,-9.1253472692959,0
 -39.340849485,-9.12562661929583,0
 -39.341011862,-9.12601359829578,0
 -39.3411323949999,-9.12644040529584,0
 -39.3412540899999,-9.12712769529586,0
 -39.341294615,-9.12762150429595,0
 -39.341267892,-9.12823478129589,0
 -39.341201005,-9.12871513229593,0
 -39.341066954,-9.12940266129598,0
 -39.340826708,-9.13037702129595,0
 -39.340639317,-9.13144448929599,0
 -39.340545426,-9.13224414229598,0
 -39.340465874,-9.13281404929597,0
 -39.340372795,-9.13350787529609,0
 -39.340332351,-9.13404156829611,0
 -39.340346425,-9.13449470529612,0
 -39.340400632,-9.13502830929613,0
 -39.340524231,-9.13579610129606,0
 -39.3406182849999,-9.13612886929615,0
 -39.3407395959999,-9.13640913229616,0
 -39.34083445,-9.13662251329623,0
 -39.340942105,-9.13688923029618,0
 -39.341143674,-9.13734219129618,0
 -39.34130522,-9.13780874829614,0
 -39.3414265069999,-9.1380628002962,0
 -39.34154773,-9.13824901829616,0
 -39.3416962720001,-9.13844877029625,0
 -39.341883958,-9.13864848429617,0
 -39.342802995,-9.13940196629634,0
 -39.3439198349999,-9.14044197029624,0
 -39.344174881,-9.14065429029622,0
 -39.344309725,-9.14081424629631,0
 -39.344417345,-9.14104117229635,0
 -39.344551487,-9.14140103829628,0
 -39.344620022,-9.14168859329627,0
 -39.345024399,-9.14291560129636,0
 -39.3451459469999,-9.14343556229639,0
 -39.345212842,-9.14391578629643,0
 -39.345240657,-9.14444217129637,0
 -39.3452411839999,-9.14498938429644,0
 -39.345200541,-9.14530960829646,0
 -39.345120702,-9.14557652029643,0
 -39.345039899,-9.14579004829652,0
 -39.344798188,-9.14619006029648,0
 -39.344450026,-9.14663087029645,0
 -39.343882834,-9.14741289429659,0
 -39.343359325,-9.14818672529658,0
 -39.3431312559999,-9.14858672329654,0
 -39.342970444,-9.14889440829651,0
 -39.3428497019999,-9.14921470829654,0
 -39.342742603,-9.14953408729659,0
 -39.3427317439999,-9.14958203729656,0
 -39.342528687,-9.15044873829669,0
 -39.342408136,-9.15096892929665,0
 -39.3423275080001,-9.15136969529668,0
 -39.34230156,-9.15183642829666,0
 -39.342274813,-9.15242347529665,0
 -39.342333939,-9.15333785029672,0
 -39.342441893,-9.15391119229673,0
 -39.342535929,-9.15421772929678,0
 -39.342670873,-9.15445818929678,0
 -39.342885922,-9.15472480429673,0
 -39.3431419039999,-9.15495070129677,0
 -39.343531739,-9.15523070929675,0
 -39.343907873,-9.15547095929674,0
 -39.344472419,-9.15572366229677,0
 -39.344970467,-9.15590952029687,0
 -39.3463333339999,-9.15624378029682,0
 -39.346951496,-9.15640329029678,0
 -39.347463119,-9.15649595629681,0
 -39.3485381319999,-9.15658898829678,0
 -39.348791089,-9.15661215129683,0
 -39.349016075,-9.15663275329676,0
 -39.349398101,-9.15666773429681,0
 -39.349398338,-9.15666775629682,0
 -39.3497773839999,-9.15671931329682,0
 -39.349787939,-9.15672074829685,0
 -39.350083761,-9.15678737729677,0
 -39.3500838109999,-9.15678738829677,0
 -39.350197888,-9.15682491129685,0
 -39.3501990750001,-9.1568253012968,0
 -39.3503251,-9.15686675329685,0
 -39.350660094,-9.15699991029685,0
 -39.350661074,-9.1570002992968,0
 -39.350905841,-9.15710583729683,0
 -39.351242923,-9.15725117829686,0
 -39.4377255659999,-8.95918744929065,0
 -39.437745635,-8.95914148829057,0
 -39.451263405,-8.92818290628967,0
 -39.473754599,-8.87667326728798,0
 -39.491575155,-8.8358603872868,0
 -39.465998558,-8.77677808228489,0
 -39.465711336,-8.77611459528488,0
 -39.453773847,-8.7485388242841,0
 -39.453105666,-8.74699531828393,0
 -39.449441582,-8.73853123128367,0
 -39.419279903,-8.66885732328142,0
 -39.407855823,-8.64246753328061,0
 -39.388597916,-8.59798149227928,0
 -39.38793176,-8.59644266227923,0
 -39.373691996,-8.56354860327814,0
 -39.373572006,-8.56327142427812,0
 -39.373350834,-8.56288631227815,0
 -39.372907042,-8.56255659927813,0
 -39.372408946,-8.56241959127816,0
 -39.371937757,-8.56195239627814,0
 -39.371411819,-8.56123743327814,0
 -39.3711068479999,-8.56065974627804,0
 -39.370828883,-8.55983419527812,0
 -39.370468208,-8.55898158527801,0
 -39.3701080389999,-8.55865178727799,0
 -39.369692423,-8.55829488627795,0
 -39.3692776199999,-8.55785479127804,0
 -39.369055526,-8.55746967627797,0
 -39.3686397009999,-8.55689300027795,0
 -39.368556705,-8.55659007627802,0
 -39.368273327,-8.55577625327792,0
 -39.368079445,-8.55544631427789,0
 -39.367968399,-8.55525374727785,0
 -39.367774721,-8.55511642527786,0
 -39.36752563,-8.5550063302779,0
 -39.367275758,-8.55503370527794,0
 -39.3669442719999,-8.55522669227792,0
 -39.3664465899999,-8.5555301682779,0
 -39.366280368,-8.55561262927788,0
 -39.365948584,-8.5554754742779,0
 -39.365477542,-8.55514575827789,0
 -39.36525548,-8.55478870627792,0
 -39.365061541,-8.55437551627793,0
 -39.3650340149999,-8.55410056627792,0
 -39.36486727,-8.55363309327796,0
 -39.364645157,-8.55322083727787,0
 -39.364146803,-8.55283598027782,0
 -39.363455821,-8.55241510627782,0
 -39.363115338,-8.55175425227785,0
 -39.363032107,-8.5511772392778,0
 -39.362865314,-8.55065461727773,0
 -39.362754167,-8.55035168027771,0
 -39.3625321619999,-8.55004888427779,0
 -39.3624219809999,-8.54980205627771,0
 -39.362227247,-8.54952726227771,0
 -39.362144511,-8.54947216527768,0
 -39.362061775,-8.54941706727774,0
 -39.361729223,-8.5494445162777,0
 -39.361286706,-8.54947295727774,0
 -39.360954024,-8.5493629172777,0
 -39.36084353,-8.54926669327773,0
 -39.360733036,-8.54917046927767,0
 -39.360510989,-8.54884053327773,0
 -39.360234246,-8.54829083727772,0
 -39.360094739,-8.54776815227764,0
 -39.359929017,-8.54741011727768,0
 -39.359844991,-8.54697061127764,0
 -39.3597339769999,-8.54680517927763,0
 -39.359540255,-8.54661268627761,0
 -39.359429293,-8.54650245827763,0
 -39.359208437,-8.5464483862776,0
 -39.359042191,-8.54650327127761,0
 -39.358875946,-8.54655815527762,0
 -39.3587381259999,-8.54686128727766,0
 -39.358682892,-8.54708113127764,0
 -39.358577801,-8.54727011527764,0
 -39.358545002,-8.54732909727764,0
 -39.35829604,-8.54732932727766,0
 -39.3582668219999,-8.54732356627763,0
 -39.357880685,-8.54724742627763,0
 -39.357465432,-8.5472749112776,0
 -39.357023018,-8.54741280727764,0
 -39.35680775,-8.54748447327762,0
 -39.356802315,-8.54747809927762,0
 -39.356786008,-8.54745897427764,0</coordinates>
        </LineString>
      </Placemark>
    </Folder>
  </Document>
</kml>