<kml xmlns:xsd="http://schemas.opengis.net/kml/2.2.0/ogckml22.xsd" xmlns:xmlns="http://www.opengis.net/kml/2.2/" version="1.0">
  <Document>
    <name>ADUSTINA</name>
    <open>1</open>
    <Folder>
      <name>2900355</name>
      <Style id="line1">
        <LineStyle>
          <color>#ff000000</color>
          <width>3</width>
        </LineStyle>
        <BalloonStyle>
          <text>$[description]</text>
        </BalloonStyle>
      </Style>
      <Placemark>
        <name>48</name>
        <styleUrl>#line1</styleUrl>
        <LineString>
          <extrude>0</extrude>
          <altitudeMode>clampToGround</altitudeMode>
          <coordinates>-37.914751489,-10.4422780103367,0
 -37.9147511829999,-10.4422785143367,0
 -37.914657477,-10.4424292113367,0
 -37.913344909,-10.4436826053368,0
 -37.911396007,-10.4455993753368,0
 -37.91008483,-10.4464458313369,0
 -37.909672437,-10.4468151783369,0
 -37.909295953,-10.4476277463369,0
 -37.908898523,-10.4486825883369,0
 -37.908767585,-10.449029385337,0
 -37.9080529629999,-10.450396023337,0
 -37.907564878,-10.4509857523369,0
 -37.907076279,-10.451983309337,0
 -37.9067372379999,-10.4527960003371,0
 -37.906659867,-10.4534983613371,0
 -37.9069560199998,-10.4542390783371,0
 -37.908036938,-10.4549833863372,0
 -37.9091665829999,-10.4553797103371,0
 -37.9094175119999,-10.4554682833372,0
 -37.9101250419999,-10.4561371573371,0
 -37.91139017,-10.4577691853372,0
 -37.911872979,-10.4586959133372,0
 -37.911902693,-10.4606564983373,0
 -37.911338142,-10.4619495023373,0
 -37.911111084,-10.4628738063373,0
 -37.911181217,-10.4639835993374,0
 -37.911739078,-10.4648735093374,0
 -37.911745454,-10.4648789573374,0
 -37.913750542,-10.4665451553375,0
 -37.91513619,-10.4674033843375,0
 -37.9158016699999,-10.4678155623375,0
 -37.915913018,-10.4678845283375,0
 -37.916985002,-10.4683900613375,0
 -37.919138868,-10.4694057943376,0
 -37.919216099,-10.4694422153376,0
 -37.919381902,-10.4695204063376,0
 -37.92015214,-10.4698937973376,0
 -37.92049814,-10.4700615283376,0
 -37.920644262,-10.4701323643376,0
 -37.92068713,-10.4701533083376,0
 -37.921320585,-10.4708589873376,0
 -37.921763918,-10.4721183473377,0
 -37.921757142,-10.4740788123377,0
 -37.921378471,-10.4755207663377,0
 -37.9209282249999,-10.4762589443377,0
 -37.9202517919999,-10.4771446573377,0
 -37.91932012,-10.4778594963378,0
 -37.918716408,-10.4783231513378,0
 -37.916432085,-10.4796844663379,0
 -37.913099151,-10.4817448093379,0
 -37.911674543,-10.4831081163379,0
 -37.911071567,-10.4844009823381,0
 -37.910882849,-10.485066791338,0
 -37.911399653,-10.4867333403381,0
 -37.913223048,-10.4889216053382,0
 -37.9149361509999,-10.4905162773381,0
 -37.915718947,-10.4911112523382,0
 -37.916390778,-10.4912989203382,0
 -37.917175639,-10.4913015943382,0
 -37.918895577,-10.4909375963383,0
 -37.920316992,-10.4904984243382,0
 -37.920990639,-10.4904265603382,0
 -37.9223341819999,-10.4908380443382,0
 -37.923675814,-10.4918038423382,0
 -37.9250159389999,-10.4934731633383,0
 -37.926245458,-10.4943653263383,0
 -37.927066516,-10.4947379513383,0
 -37.927587004,-10.4948337533383,0
 -37.9278883389999,-10.4948890273384,0
 -37.928784046,-10.4950774263384,0
 -37.929530313,-10.4954127173384,0
 -37.9300900579999,-10.4957844543384,0
 -37.930313156,-10.4960067553384,0
 -37.930536527,-10.4964153403384,0
 -37.930571425,-10.4968956323384,0
 -37.9305313159999,-10.4979318083385,0
 -37.930116711,-10.4989287433385,0
 -37.929998369,-10.4990657963385,0
 -37.9294782159999,-10.4996672013385,0
 -37.929393081,-10.4997130333385,0
 -37.929067193,-10.4998873653385,0
 -37.9275352679999,-10.4997709703384,0
 -37.9256287379999,-10.4999128313385,0
 -37.924134022,-10.4998706963384,0
 -37.923163763,-10.4995717083385,0
 -37.921893679,-10.4993087763385,0
 -37.920735601,-10.4991565413384,0
 -37.919352763,-10.4992630673385,0
 -37.91799165,-10.4997713903385,0
 -37.917069284,-10.5000518223384,0
 -37.915815969,-10.5006324703386,0
 -37.914219954,-10.5013413983385,0
 -37.9129695589999,-10.5019827763386,0
 -37.91218583,-10.5026944723386,0
 -37.911461591,-10.5033774333386,0
 -37.91112874,-10.5039713073387,0
 -37.91112728,-10.5043881743386,0
 -37.911246119,-10.5048949773387,0
 -37.91145534,-10.5051633613387,0
 -37.912054906,-10.5056419703386,0
 -37.9124145769999,-10.5060012963386,0
 -37.91262336,-10.5066567093388,0
 -37.912770113,-10.5072820673387,0
 -37.912706887,-10.5081164993388,0
 -37.912524486,-10.5088004133388,0
 -37.912100543,-10.5095730223388,0
 -37.9114967959999,-10.5102862353389,0
 -37.910622895,-10.5109080923388,0
 -37.909659049,-10.5113813363388,0
 -37.9091953389999,-10.5115054363388,0
 -37.908989526,-10.5118275563389,0
 -37.908441206,-10.5123664273389,0
 -37.908034451,-10.5129238703389,0
 -37.907856012,-10.5135164613389,0
 -37.907801362,-10.513986497339,0
 -37.90795833,-10.5145630613389,0
 -37.908256018,-10.515140110339,0
 -37.908816809,-10.5157352453391,0
 -37.909274109,-10.516137412339,0
 -37.909580148,-10.5164187903389,0
 -37.9096320959999,-10.516457852339,0
 -37.909818113,-10.516569718339,0
 -37.910752239,-10.517019640339,0
 -37.910939434,-10.517056454339,0
 -37.911127409,-10.517131250339,0
 -37.911313554,-10.517206944339,0
 -37.911500616,-10.517281737339,0
 -37.912062194,-10.517393985339,0
 -37.912146975,-10.517451246339,0
 -37.912174325,-10.517469425339,0
 -37.912360343,-10.517581289339,0
 -37.912547272,-10.517694060339,0
 -37.912734335,-10.517768853339,0
 -37.9129212679999,-10.517880720339,0
 -37.913107287,-10.5179925833391,0
 -37.913517308,-10.5183294753391,0
 -37.9135546429999,-10.5183666783391,0
 -37.91375337,-10.5190256733391,0
 -37.913782066,-10.5194426443391,0
 -37.913690144,-10.5198592013391,0
 -37.91323736,-10.5205132503391,0
 -37.912753822,-10.5210767663392,0
 -37.912332753,-10.5212842093392,0
 -37.911309613,-10.5214588403392,0
 -37.909294212,-10.5216011193392,0
 -37.908512094,-10.5218371563392,0
 -37.907728539,-10.5222214873392,0
 -37.9074874839999,-10.5224286403392,0
 -37.907214278,-10.5232026623392,0
 -37.907117837,-10.5248996553393,0
 -37.907264657,-10.5257637443393,0
 -37.907504115,-10.5262709643392,0
 -37.907952519,-10.5268675233394,0
 -37.9086414289999,-10.5276747013394,0
 -37.9093607099999,-10.5284213973393,0
 -37.909960629,-10.5288104923394,0
 -37.910425614,-10.5293718383394,0
 -37.9113541349999,-10.5303878193394,0
 -37.911983486,-10.5309849953394,0
 -37.912834481,-10.5314400563394,0
 -37.91293382,-10.5315163563394,0
 -37.912943843,-10.5315245293395,0
 -37.91333443,-10.5316750753394,0
 -37.914324115,-10.5324525303395,0
 -37.914833268,-10.5329308283396,0
 -37.915192348,-10.5334682953396,0
 -37.915428604,-10.5343733813396,0
 -37.915244752,-10.5352064953397,0
 -37.91500181,-10.5359507873396,0
 -37.91475981,-10.5364256073396,0
 -37.914216741,-10.5370196643396,0
 -37.913983356,-10.5373823823397,0
 -37.912150014,-10.5392587913397,0
 -37.911950222,-10.5394226823397,0
 -37.911757403,-10.5396824513397,0
 -37.911730254,-10.5398668303397,0
 -37.9117019189999,-10.5401289723397,0
 -37.911781043,-10.5404972853397,0
 -37.912070804,-10.5409974413398,0
 -37.912759457,-10.5413678483398,0
 -37.914288981,-10.5419626873398,0
 -37.914526268,-10.5420521203398,0
 -37.91545682,-10.5425020243398,0
 -37.915846484,-10.5429202313398,0
 -37.9162166369999,-10.5434306073398,0
 -37.916210107,-10.5434685643398,0
 -37.916093403,-10.5441753093399,0
 -37.915941969,-10.5446215033399,0
 -37.91540774,-10.5450356393399,0
 -37.915180713,-10.5451469913399,0
 -37.914992065,-10.5452593783399,0
 -37.914803552,-10.5453328823399,0
 -37.914615167,-10.54537021634,0
 -37.914275866,-10.5454441063399,0
 -37.913070488,-10.5454435843399,0
 -37.912128305,-10.5454421543399,0
 -37.911250007,-10.5457248843399,0
 -37.9107984329999,-10.5460208363399,0
 -37.91052699,-10.5462884713399,0
 -37.910417848,-10.5466597523399,0
 -37.910404895,-10.5467049213399,0
 -37.910388318,-10.5467410353399,0
 -37.909980953,-10.54797758434,0
 -37.909798619,-10.54863165034,0
 -37.909496597,-10.5490176393399,0
 -37.909013105,-10.5495522063399,0
 -37.908501416,-10.5497891693401,0
 -37.907778945,-10.5499349753401,0
 -37.906937593,-10.5498434493401,0
 -37.90620802,-10.54967092334,0
 -37.9041839689999,-10.54962322334,0
 -37.903582334,-10.5497106613401,0
 -37.903010014,-10.5500360233401,0
 -37.902828015,-10.5503328973401,0
 -37.902736274,-10.5506906713401,0
 -37.902825269,-10.5511078493401,0
 -37.902900685,-10.5517465273401,0
 -37.902913104,-10.5518523703401,0
 -37.903122027,-10.5522102833401,0
 -37.903211654,-10.5524493223401,0
 -37.903420471,-10.5528370753401,0
 -37.903540788,-10.5529261113402,0
 -37.904050477,-10.5532561303402,0
 -37.9048019610001,-10.5534368763402,0
 -37.905763632,-10.5536192523402,0
 -37.907114898,-10.5539811153401,0
 -37.9084751629999,-10.5543836953402,0
 -37.908822304,-10.5544219693402,0
 -37.908894372,-10.5544583893402,0
 -37.90936237,-10.5546924033402,0
 -37.910143284,-10.5550821263402,0
 -37.910742516,-10.5556801083403,0
 -37.911131352,-10.5563361433403,0
 -37.911444833,-10.5568508513402,0
 -37.911661141,-10.5571916043403,0
 -37.9118585059999,-10.5574617573402,0
 -37.911984464,-10.5577669323403,0
 -37.912255467,-10.5584071873402,0
 -37.91227179,-10.5584434143404,0
 -37.912298086,-10.5585022833404,0
 -37.91240183,-10.5591473883404,0
 -37.912641421,-10.5596247653403,0
 -37.9129979379999,-10.5606378763403,0
 -37.913146426,-10.5612939863404,0
 -37.913264131,-10.5621281333404,0
 -37.913382177,-10.5626050923405,0
 -37.913265198,-10.5636446063404,0
 -37.913258591,-10.5637042653405,0
 -37.913258585,-10.5637060743404,0
 -37.9130877539999,-10.5649859393405,0
 -37.913174775,-10.5659691853405,0
 -37.913622689,-10.5669826103405,0
 -37.914377069,-10.5681716143406,0
 -37.914488963,-10.5683193963406,0
 -37.914491695,-10.5683221183406,0
 -37.914752167,-10.5685816363406,0
 -37.915351642,-10.5691199313405,0
 -37.915891848,-10.5693596123407,0
 -37.916493388,-10.5695705643406,0
 -37.917094228,-10.5697209283406,0
 -37.9180554369999,-10.5700524763407,0
 -37.9191534239999,-10.5704740133407,0
 -37.9196915709999,-10.5707815013407,0
 -37.920434207,-10.5711557003407,0
 -37.920590764,-10.5713388993407,0
 -37.920604426,-10.5713525103407,0
 -37.92066909,-10.5714169353407,0
 -37.9207370359999,-10.5718503153407,0
 -37.920840501,-10.5723190843407,0
 -37.920837962,-10.5730461143408,0
 -37.920783684,-10.5734094483408,0
 -37.9204668380001,-10.5741100823408,0
 -37.92004598,-10.5744983853408,0
 -37.91936127,-10.5750675433408,0
 -37.918599141,-10.5752991403408,0
 -37.917627357,-10.5756331023408,0
 -37.916971879,-10.5756833013409,0
 -37.9159192589999,-10.5756804273409,0
 -37.9156896209999,-10.5756798003407,0
 -37.914959747,-10.5755742043408,0
 -37.91495518,-10.5755732843408,0
 -37.914965264,-10.5755852433408,0
 -37.915225798,-10.5758942113409,0
 -37.9152506359999,-10.5759236663408,0
 -37.915509793,-10.5762310023409,0
 -37.915510409,-10.5762317333408,0
 -37.9251533029999,-10.5876672853412,0
 -37.939882483,-10.6051346873417,0
 -37.940169854,-10.6054754823418,0
 -37.940498016,-10.6058646503417,0
 -37.941276792,-10.6067882053418,0
 -37.966292026,-10.6364538863427,0
 -37.973338137,-10.6448099013429,0
 -37.977714552,-10.6499999123431,0
 -37.97934283,-10.6519308943432,0
 -37.980074543,-10.6528383653432,0
 -37.980135853,-10.6529144023432,0
 -37.994371176,-10.6705690673438,0
 -37.9945497479999,-10.6707905333437,0
 -37.995215968,-10.6712074263438,0
 -38.028834586,-10.6922445803444,0
 -38.029023295,-10.6923626673444,0
 -38.0290517,-10.6923804423444,0
 -38.0349272,-10.6960570883446,0
 -38.038070311,-10.6980239183446,0
 -38.0415585209999,-10.7002066973447,0
 -38.041797601,-10.7004516203447,0
 -38.042006796,-10.7006659283447,0
 -38.042036681,-10.7006965433447,0
 -38.042079757,-10.7007200453447,0
 -38.0421228329999,-10.7007435473446,0
 -38.047087983,-10.6934987743445,0
 -38.046854394,-10.6940316273444,0
 -38.046718322,-10.6944698343445,0
 -38.046698008,-10.6948317433445,0
 -38.046714816,-10.6954231733445,0
 -38.046809,-10.6960908253445,0
 -38.046826183,-10.6969483513445,0
 -38.047185944,-10.6987230673446,0
 -38.047509271,-10.6999821573446,0
 -38.047546555,-10.7003451633447,0
 -38.047717367,-10.7008979553447,0
 -38.048023343,-10.7014905653447,0
 -38.048137347,-10.7022150353447,0
 -38.048385486,-10.7028449243447,0
 -38.048653251,-10.7033990133448,0
 -38.048958977,-10.7042009893448,0
 -38.0490329409999,-10.7048868493448,0
 -38.049147481,-10.7053452713448,0
 -38.049260402,-10.7059362183449,0
 -38.049490981,-10.7064326443449,0
 -38.049489612,-10.7065093473448,0
 -38.04987291,-10.7070255233449,0
 -38.050353463,-10.7071792183448,0
 -38.051065711,-10.7074673523449,0
 -38.051489019,-10.7075449413449,0
 -38.052083037,-10.7080235333449,0
 -38.052581239,-10.708616048345,0
 -38.052889217,-10.709017719345,0
 -38.0535972719999,-10.7097252803449,0
 -38.054230986,-10.710146513345,0
 -38.054807547,-10.710643446345,0
 -38.055132758,-10.7110651653449,0
 -38.0555552969999,-10.7114471943449,0
 -38.056496262,-10.712079014345,0
 -38.0569763199999,-10.712156790345,0
 -38.057438414,-10.7121769703451,0
 -38.0582652069999,-10.7122753403451,0
 -38.058881715,-10.712505541345,0
 -38.059457525,-10.7126412573451,0
 -38.059611321,-10.712640992345,0
 -38.060266764,-10.7124525983451,0
 -38.0606712699999,-10.712454231345,0
 -38.060804754,-10.712644900345,0
 -38.061188654,-10.712894162345,0
 -38.061669464,-10.712838486345,0
 -38.062054342,-10.712915925345,0
 -38.062113481,-10.712820255345,0
 -38.062381972,-10.7127637033451,0
 -38.062536275,-10.7129929153451,0
 -38.0625927249999,-10.713203342345,0
 -38.062591451,-10.713431861345,0
 -38.062821079,-10.713929141345,0
 -38.063013086,-10.7139674033451,0
 -38.063244282,-10.713872369345,0
 -38.063476619,-10.713892553345,0
 -38.064070492,-10.7142376753451,0
 -38.064455486,-10.714295925345,0
 -38.0649176979999,-10.7142969123451,0
 -38.065070812,-10.7144117763451,0
 -38.065358896,-10.7147749693451,0
 -38.065492431,-10.7151183253451,0
 -38.0657038409999,-10.7152727093452,0
 -38.066011208,-10.7153105533451,0
 -38.066223025,-10.7152355003451,0
 -38.06635824,-10.7151208973451,0
 -38.066685988,-10.7151030363452,0
 -38.067049647,-10.7153713703452,0
 -38.0673374559999,-10.7156202593452,0
 -38.067626472,-10.7156589433452,0
 -38.067876773,-10.7155831683451,0
 -38.068050607,-10.7154312083451,0
 -38.068609681,-10.7151281143452,0
 -38.068879314,-10.7150332243452,0
 -38.0692647179999,-10.7150155863451,0
 -38.0696494869999,-10.7151122113451,0
 -38.070399575,-10.7151902063451,0
 -38.071553327,-10.7152514603451,0
 -38.0719958,-10.7153474393451,0
 -38.072996029,-10.7153697093451,0
 -38.0739016049999,-10.7149720043452,0
 -38.07438253,-10.7148971223452,0
 -38.075364791,-10.7148617853451,0
 -38.075846461,-10.7146534453451,0
 -38.076540564,-10.714426781345,0
 -38.076962353,-10.7144475713451,0
 -38.077481768,-10.7145255233452,0
 -38.078078625,-10.7145078253451,0
 -38.0785028619999,-10.714260873345,0
 -38.079215673,-10.713958341345,0
 -38.079793027,-10.713826250345,0
 -38.080371878,-10.713580805345,0
 -38.081026444,-10.713391439345,0
 -38.081431064,-10.7133738573451,0
 -38.08171928,-10.7133932933451,0
 -38.082166525,-10.713263510345,0
 -38.082376347,-10.7130888733451,0
 -38.0825526249999,-10.7128227133451,0
 -38.082822576,-10.712516668345,0
 -38.082997688,-10.712477306345,0
 -38.0832126879999,-10.712530651345,0
 -38.083374931,-10.712611936345,0
 -38.083495407,-10.7127723083451,0
 -38.083656893,-10.712918996345,0
 -38.0843828119999,-10.713055097345,0
 -38.084786792,-10.713203260345,0
 -38.085326299,-10.713111172345,0
 -38.085944592,-10.713274254345,0
 -38.086508734,-10.7139014773451,0
 -38.086738233,-10.7138892233451,0
 -38.086885905,-10.7137298423451,0
 -38.086940864,-10.7136095213451,0
 -38.087102491,-10.713463042345,0
 -38.087507357,-10.713304113345,0
 -38.087668411,-10.713305065345,0
 -38.088406779,-10.714080479345,0
 -38.088675698,-10.7142551453451,0
 -38.088850707,-10.714269001345,0
 -38.089025121,-10.714242689345,0
 -38.089146866,-10.7141230393451,0
 -38.089484304,-10.7139241383451,0
 -38.089861527,-10.713871167345,0
 -38.090266249,-10.7138858643451,0
 -38.090710425,-10.713847533345,0
 -38.091195332,-10.713715225345,0
 -38.091397434,-10.713582078345,0
 -38.091680977,-10.713449451345,0
 -38.092207298,-10.713518123345,0
 -38.0924884119999,-10.7137727933451,0
 -38.092730318,-10.713853637345,0
 -38.0929865359999,-10.7137868503451,0
 -38.0931617120001,-10.7138146733451,0
 -38.09348517,-10.713962357345,0
 -38.093686003,-10.7139896973451,0
 -38.0938612649999,-10.7138962373451,0
 -38.0941854819999,-10.713550957345,0
 -38.0945357519999,-10.713471347345,0
 -38.094765186,-10.7133918963451,0
 -38.0949540679999,-10.713112374345,0
 -38.0951160719999,-10.712992954345,0
 -38.095412719,-10.712940370345,0
 -38.0955338349999,-10.7130205013451,0
 -38.09561507,-10.713127464345,0
 -38.095802273,-10.713221320345,0
 -38.095963756,-10.7132484663451,0
 -38.0966244319999,-10.713184134345,0
 -38.097352703,-10.712746173345,0
 -38.097609224,-10.712519713345,0
 -38.097987448,-10.7122940063451,0
 -38.0984449539999,-10.712468354345,0
 -38.098659277,-10.7126028103451,0
 -38.09894208,-10.712603640345,0
 -38.099172119,-10.712683896345,0
 -38.0993053849999,-10.712844903345,0
 -38.09953345,-10.712979163345,0
 -38.099815948,-10.7131396623451,0
 -38.100206194,-10.713288013345,0
 -38.10043612,-10.713301947345,0
 -38.1005427880001,-10.7132757833451,0
 -38.100664562,-10.7130357053451,0
 -38.10073223,-10.7128488103451,0
 -38.100894661,-10.712755583345,0
 -38.101124372,-10.7127564173451,0
 -38.101271201,-10.712783712345,0
 -38.102158631,-10.7134940493451,0
 -38.102736829,-10.7137223293451,0
 -38.103545992,-10.7136713983451,0
 -38.104043191,-10.713565846345,0
 -38.104649694,-10.7134874873451,0
 -38.105107192,-10.7135422853451,0
 -38.10590088,-10.7137977453451,0
 -38.106441081,-10.7136925593451,0
 -38.1068718619999,-10.7134938553451,0
 -38.107087967,-10.713321237345,0
 -38.107561084,-10.713015536345,0
 -38.108139652,-10.7128432953451,0
 -38.108584254,-10.712831133345,0
 -38.1090955409999,-10.712872864345,0
 -38.109391624,-10.7129677103451,0
 -38.109741343,-10.713155074345,0
 -38.1099566989999,-10.713355901345,0
 -38.1101305949999,-10.713476151345,0
 -38.110414212,-10.7135302433451,0
 -38.111258,-10.7132767973451,0
 -38.112430474,-10.7132445823451,0
 -38.1127204,-10.7133347613451,0
 -38.112755343,-10.7136741913451,0
 -38.1127350760001,-10.7141217313451,0
 -38.112768209,-10.7152481943452,0
 -38.1128402550001,-10.7153730353451,0
 -38.112930725,-10.7154272263452,0
 -38.113092009,-10.7153382963452,0
 -38.1132736709999,-10.7151421613451,0
 -38.113328151,-10.7149450063452,0
 -38.113419214,-10.7147313243451,0
 -38.113581475,-10.7146241163452,0
 -38.1138526929999,-10.7144821253451,0
 -38.114159427,-10.714429145345,0
 -38.114412075,-10.714411901345,0
 -38.1146297449999,-10.7144496583452,0
 -38.115132033,-10.7149508273451,0
 -38.115257939,-10.7151298043452,0
 -38.115600549,-10.7153988503451,0
 -38.116356272,-10.7159194683451,0
 -38.116662616,-10.7160279093451,0
 -38.117438297,-10.7162266273451,0
 -38.117978968,-10.7163352473452,0
 -38.119006582,-10.7168212433451,0
 -38.119799078,-10.7169623193451,0
 -38.1205010799999,-10.7169811323451,0
 -38.121503083,-10.7173812203452,0
 -38.12202,-10.7177801443453,0
 -38.122369279,-10.7180957753452,0
 -38.1229033299999,-10.7183454433452,0
 -38.123889133,-10.7183808283452,0
 -38.124473777,-10.7183004893452,0
 -38.12489177,-10.7181526133453,0
 -38.12546134,-10.7178062333453,0
 -38.125862793,-10.7176252513452,0
 -38.1265344649999,-10.7170639683451,0
 -38.126817921,-10.7169155803451,0
 -38.1271520239999,-10.7169328763451,0
 -38.127402164,-10.7170996403452,0
 -38.127585547,-10.7172823213452,0
 -38.1279026679999,-10.7175317923452,0
 -38.128536499,-10.7177985783452,0
 -38.128903622,-10.7178489143453,0
 -38.130808493,-10.7180036333453,0
 -38.131393728,-10.7182034483452,0
 -38.132197055,-10.7186216893452,0
 -38.133394099,-10.7190208813452,0
 -38.133952747,-10.7191015733452,0
 -38.134633009,-10.7184307153453,0
 -38.135154772,-10.7180365733452,0
 -38.135673596,-10.7178002483452,0
 -38.136233734,-10.7178015883452,0
 -38.13707089,-10.7178435923453,0
 -38.137829992,-10.7179245243452,0
 -38.13874748,-10.7181249473453,0
 -38.140672841,-10.7183352593453,0
 -38.140983518,-10.7183691953452,0
 -38.141302518,-10.7184293753452,0
 -38.141621517,-10.7184895553452,0
 -38.141981154,-10.7185301303452,0
 -38.14234079,-10.7185707053452,0
 -38.143060064,-10.7186518553453,0
 -38.144137028,-10.7186942783452,0
 -38.144736713,-10.7185378323452,0
 -38.144837103,-10.7183893893452,0
 -38.144937493,-10.7182409463453,0
 -38.144904045,-10.7179247123452,0
 -38.144468622,-10.713847299345,0
 -38.143693046,-10.7065846083449,0
 -38.142648761,-10.6968056563445,0
 -38.142310735,-10.6936403003444,0
 -38.142207459,-10.6926731983445,0
 -38.139613622,-10.6683838443437,0
 -38.137982276,-10.6531075053432,0
 -38.137979817,-10.6530844763431,0
 -38.133715909,-10.613156160342,0
 -38.1301190959999,-10.5794746953409,0
 -38.130079031,-10.579099516341,0
 -38.139126346,-10.5231942903392,0
 -38.139162101,-10.5229733533391,0
 -38.14562746,-10.483022569338,0
 -38.149792428,-10.4572863663372,0
 -38.149609939,-10.4571954523372,0
 -38.14960882,-10.4571946903372,0
 -38.149607624,-10.4571938743371,0
 -38.149606734,-10.4571932663371,0
 -38.14946494,-10.4570964913372,0
 -38.149373795,-10.4570148623372,0
 -38.14927458,-10.4568789403372,0
 -38.149247099,-10.4568232583371,0
 -38.149220057,-10.4567684673371,0
 -38.1491763619999,-10.4567095693371,0
 -38.149076084,-10.4566270103371,0
 -38.148966569,-10.4565814943372,0
 -38.148856944,-10.4565766823371,0
 -38.148739897,-10.4566125413372,0
 -38.148683156,-10.4566506743371,0
 -38.148514725,-10.4567638693371,0
 -38.148411866,-10.4568433083372,0
 -38.148336186,-10.4569017563371,0
 -38.1481877949999,-10.4570406313371,0
 -38.148075209,-10.4571153893371,0
 -38.147981936,-10.4571440803372,0
 -38.14787138,-10.4571464983371,0
 -38.147782842,-10.4571146083372,0
 -38.147701227,-10.4570376633371,0
 -38.14769643,-10.4570331403372,0
 -38.14769626,-10.4570329823372,0
 -38.147696045,-10.4570328323371,0
 -38.1476634879999,-10.4570101103371,0
 -38.147616923,-10.4569776123371,0
 -38.147536604,-10.4569475533372,0
 -38.14747996,-10.4569501163371,0
 -38.147436057,-10.4569653693372,0
 -38.1473563339999,-10.4570510653371,0
 -38.147273198,-10.4572154083371,0
 -38.147269987,-10.4572217563371,0
 -38.147269922,-10.4572219523372,0
 -38.147212299,-10.4573954773372,0
 -38.147208437,-10.4574071053372,0
 -38.147204576,-10.4574187333372,0
 -38.147204497,-10.4574189753372,0
 -38.147200268,-10.4574319873372,0
 -38.147151127,-10.4575831783372,0
 -38.1471299869999,-10.4576346703372,0
 -38.147085088,-10.4576761473373,0
 -38.146967162,-10.4577029633373,0
 -38.146830166,-10.4576845103372,0
 -38.146584806,-10.4575663343372,0
 -38.146584709,-10.4575662873372,0
 -38.14626628,-10.4574035613373,0
 -38.1460024669999,-10.4573214633371,0
 -38.145793237,-10.4573209013372,0
 -38.145411173,-10.4573741403371,0
 -38.145146893,-10.4574629593372,0
 -38.144964065,-10.4574986393372,0
 -38.144827944,-10.4574892333372,0
 -38.144672769,-10.4574345573372,0
 -38.144577452,-10.4573759713373,0
 -38.144482135,-10.4573173853371,0
 -38.1443278810001,-10.4572627093372,0
 -38.144145147,-10.4572622253371,0
 -38.143899248,-10.4573067803372,0
 -38.1438477949999,-10.4574124483372,0
 -38.143806131,-10.4576121983372,0
 -38.143787401,-10.4577794483372,0
 -38.143757905,-10.4578734203372,0
 -38.1436587869999,-10.4580359403372,0
 -38.143400268,-10.4583517563372,0
 -38.143228057,-10.4585122723372,0
 -38.143138346,-10.4585753343372,0
 -38.14303317,-10.4586157443372,0
 -38.142896073,-10.4586307523373,0
 -38.1427335299999,-10.4585968543372,0
 -38.142520932,-10.4584940883373,0
 -38.142304717,-10.4583768543372,0
 -38.14217903,-10.4582318193372,0
 -38.1421108189999,-10.4581158813372,0
 -38.142001717,-10.4579220573373,0
 -38.14187842,-10.4575726513372,0
 -38.141844057,-10.4574414283373,0
 -38.141844303,-10.4573528033372,0
 -38.14186376,-10.4572542843371,0
 -38.141904158,-10.4571820453371,0
 -38.142019502,-10.4571009633372,0
 -38.142181573,-10.4569720803372,0
 -38.142228381,-10.4568953383371,0
 -38.1422578579999,-10.4568067913372,0
 -38.14226544,-10.4567091433372,0
 -38.142221955,-10.4565742843371,0
 -38.14210994,-10.4564401353371,0
 -38.142011573,-10.4563286393371,0
 -38.141959701,-10.4562525343371,0
 -38.141958033,-10.4561955573371,0
 -38.141958334,-10.4560870413371,0
 -38.141944811,-10.4560209833372,0
 -38.141919405,-10.4559557993372,0
 -38.141780858,-10.4558360613371,0
 -38.141666869,-10.4557570693372,0
 -38.1415043339999,-10.4557213663372,0
 -38.141405729,-10.4556966863372,0
 -38.141332799,-10.4556376983372,0
 -38.141252658,-10.4555416273371,0
 -38.141202639,-10.4554582953372,0
 -38.141170948,-10.4553533033372,0
 -38.141163037,-10.4552393343372,0
 -38.141156069,-10.4551154243371,0
 -38.141136186,-10.4550375963372,0
 -38.1410879279999,-10.4549768773372,0
 -38.141019561,-10.4549179053371,0
 -38.140934725,-10.4548715613371,0
 -38.1408187519999,-10.4548486393372,0
 -38.140625987,-10.4548436003371,0
 -38.140431381,-10.4548430733371,0
 -38.140329076,-10.4548337563372,0
 -38.1401839439999,-10.4547836233372,0
 -38.139906182,-10.4547873973372,0
 -38.139686932,-10.4547777643372,0
 -38.139555451,-10.4547457563372,0
 -38.139300858,-10.4546320263372,0
 -38.1389638500001,-10.4545859013372,0
 -38.138499768,-10.4545665613372,0
 -38.138167248,-10.4545484793372,0
 -38.137917037,-10.4545025883371,0
 -38.1376302639999,-10.4544611163372,0
 -38.1372438769999,-10.4544311313371,0
 -38.137083912,-10.4544578303371,0
 -38.136906467,-10.4545287913372,0
 -38.136692299,-10.4546638663371,0
 -38.136564182,-10.4547403853372,0
 -38.136350084,-10.4548474243371,0
 -38.136217709,-10.4548108893371,0
 -38.136058881,-10.4547571083371,0
 -38.135881846,-10.4546797603371,0
 -38.135731408,-10.4545663113372,0
 -38.1353911309999,-10.454379994337,0
 -38.135081842,-10.4542218033371,0
 -38.134763268,-10.454116940337,0
 -38.13439535,-10.454017366337,0
 -38.134140662,-10.4539352873371,0
 -38.133921678,-10.453830694337,0
 -38.133863268,-10.453807932337,0
 -38.133558573,-10.453640701337,0
 -38.133322354,-10.4534908463371,0
 -38.133058873,-10.453287557337,0
 -38.132726944,-10.4530569513371,0
 -38.132518225,-10.4528755183371,0
 -38.132344998,-10.452744823337,0
 -38.132200057,-10.452625057337,0
 -38.13187726,-10.4523944753371,0
 -38.131526862,-10.452235260337,0
 -38.1311717949999,-10.4521167293371,0
 -38.130853951,-10.4520760733371,0
 -38.13059353,-10.4520889323371,0
 -38.1303134989999,-10.452089392337,0
 -38.1302557779999,-10.452089487337,0
 -38.130179651,-10.4520896123371,0
 -38.129796709,-10.4521337843371,0
 -38.12932785,-10.452191287337,0
 -38.129115897,-10.452284508337,0
 -38.128903944,-10.4523777293371,0
 -38.128476479,-10.4524861783371,0
 -38.12811217,-10.4526417803371,0
 -38.127874553,-10.452750748337,0
 -38.127557791,-10.452875159337,0
 -38.127241201,-10.4529369323371,0
 -38.126956248,-10.452998791337,0
 -38.126576471,-10.4530290693371,0
 -38.126261065,-10.4530314243371,0
 -38.125801299,-10.4530112873371,0
 -38.125485061,-10.452947780337,0
 -38.1250899829999,-10.4527901043371,0
 -38.124853467,-10.4525075763371,0
 -38.124585338,-10.4522093073371,0
 -38.124380905,-10.451770280337,0
 -38.124176334,-10.4513782253369,0
 -38.123956116,-10.4509234943369,0
 -38.123862201,-10.450563065337,0
 -38.123673147,-10.4502806703369,0
 -38.123500131,-10.449920026337,0
 -38.123295076,-10.449700225337,0
 -38.123058385,-10.449480342337,0
 -38.122742198,-10.449401178337,0
 -38.122336402,-10.449329790337,0
 -38.122060526,-10.449364275337,0
 -38.121922588,-10.449657393337,0
 -38.121957072,-10.450260872337,0
 -38.1218708609999,-10.4505712333369,0
 -38.121655936,-10.450738237337,0
 -38.1209324939999,-10.4509456513369,0
 -38.1199451429999,-10.450960381337,0
 -38.119187721,-10.450713983337,0
 -38.118405167,-10.450519506337,0
 -38.117922383,-10.450416053337,0
 -38.1171119969999,-10.4503470843369,0
 -38.116577487,-10.450433295337,0
 -38.11568089,-10.450536749337,0
 -38.114870504,-10.450622960337,0
 -38.114370478,-10.4506057183369,0
 -38.1138555219999,-10.450578366337,0
 -38.1132679979999,-10.4506198033369,0
 -38.112745729,-10.4506614283369,0
 -38.11202767,-10.4507024943369,0
 -38.11137533,-10.450755659337,0
 -38.110774326,-10.450838932337,0
 -38.110230459,-10.450950686337,0
 -38.1097721739999,-10.4511476233369,0
 -38.109428315,-10.451344881337,0
 -38.109141432,-10.4516272483371,0
 -38.108996698,-10.452221494337,0
 -38.108892604,-10.4527693773371,0
 -38.10872258,-10.4532695413371,0
 -38.108451971,-10.4535691663371,0
 -38.107911893,-10.453767912337,0
 -38.10733819,-10.4539331863371,0
 -38.1068321150001,-10.4540319013371,0
 -38.1063939549999,-10.4539639203371,0
 -38.105922362,-10.4537957213371,0
 -38.1052489359999,-10.4534600733371,0
 -38.104643041,-10.4530912373371,0
 -38.10410478,-10.452655838337,0
 -38.103634147,-10.452153881337,0
 -38.10323019,-10.4519191123371,0
 -38.10269126,-10.4517173423371,0
 -38.10188258,-10.451514811337,0
 -38.1009727439999,-10.451311994337,0
 -38.100387178,-10.4510790413369,0
 -38.099669553,-10.450969346337,0
 -38.0989959869999,-10.4506659633369,0
 -38.0987369119999,-10.449976131337,0
 -38.0989990919999,-10.4495892523369,0
 -38.099413252,-10.449310479337,0
 -38.09963217,-10.448837334337,0
 -38.099611658,-10.4484065883369,0
 -38.0993949749999,-10.4481044943368,0
 -38.099635522,-10.4476744833369,0
 -38.100050061,-10.4472665023369,0
 -38.100594994,-10.4469019513369,0
 -38.101009338,-10.4465585653369,0
 -38.101271147,-10.4463008893368,0
 -38.101315459,-10.4460210693368,0
 -38.1011421,-10.4457836983367,0
 -38.100968549,-10.4456109363368,0
 -38.100642467,-10.4455238813367,0
 -38.10020767,-10.4454149833368,0
 -38.0998383259999,-10.4452416663368,0
 -38.0995342479999,-10.4450685303368,0
 -38.099142838,-10.4450028263368,0
 -38.098708229,-10.4448293233368,0
 -38.098229674,-10.4448064403368,0
 -38.097773186,-10.4446759443368,0
 -38.097316823,-10.4445023773368,0
 -38.096903908,-10.4443504713368,0
 -38.096447549,-10.4441769013368,0
 -38.096121588,-10.4440467763367,0
 -38.095796073,-10.4437659053368,0
 -38.095611576,-10.4435700063368,0
 -38.09584617,-10.4429374513368,0
 -38.096141967,-10.4425590693367,0
 -38.096172615,-10.4421507643367,0
 -38.095908823,-10.4416541123367,0
 -38.095880951,-10.4410997843367,0
 -38.09567567,-10.4407491553367,0
 -38.095233967,-10.4406312173368,0
 -38.094645502,-10.4403086703367,0
 -38.094233346,-10.4401616513366,0
 -38.093614658,-10.4401015533367,0
 -38.092996983,-10.4396914093366,0
 -38.09255519,-10.4396026393366,0
 -38.091848006,-10.4395714593366,0
 -38.091052924,-10.4393650023366,0
 -38.090228963,-10.4389542643366,0
 -38.08978794,-10.4386029593366,0
 -38.089169674,-10.4383969983366,0
 -38.088522537,-10.4379867643366,0
 -38.0882875489999,-10.4377235533366,0
 -38.0880521310001,-10.4376061983367,0
 -38.087550737,-10.4377506193366,0
 -38.086931959,-10.4377196823366,0
 -38.086431151,-10.4376599083366,0
 -38.085959561,-10.4376877333367,0
 -38.085605842,-10.4377158893366,0
 -38.085134244,-10.4377437093366,0
 -38.084632244,-10.4380923233367,0
 -38.084248037,-10.4384704403366,0
 -38.0834521039999,-10.4385556703366,0
 -38.082774221,-10.4385828973366,0
 -38.081772862,-10.4383758263367,0
 -38.080654057,-10.4380225573367,0
 -38.080241573,-10.4379922013366,0
 -38.0795641229999,-10.4378735653366,0
 -38.078916315,-10.4376966743366,0
 -38.078239209,-10.4374613583366,0
 -38.077591315,-10.4373136313366,0
 -38.0770906819999,-10.4371955023365,0
 -38.076589877,-10.4371357133366,0
 -38.076384112,-10.4369600963365,0
 -38.076443994,-10.4366393893365,0
 -38.0762976,-10.4363180883365,0
 -38.075325893,-10.4360527413366,0
 -38.074677744,-10.4359925223365,0
 -38.074146612,-10.4362243503365,0
 -38.073351811,-10.4359303383365,0
 -38.072763725,-10.4354910733365,0
 -38.072026912,-10.4355181043365,0
 -38.071584186,-10.4357501863365,0
 -38.071376951,-10.4360704593365,0
 -38.071139987,-10.4364781553365,0
 -38.071109135,-10.4369448033366,0
 -38.071403135,-10.4371790223365,0
 -38.071844912,-10.4372678233366,0
 -38.072375447,-10.4372401903366,0
 -38.072817393,-10.4372706393366,0
 -38.073111655,-10.4374173503367,0
 -38.0733467169999,-10.4376513973366,0
 -38.073404358,-10.4380891273367,0
 -38.0731673069999,-10.4385259983366,0
 -38.072900701,-10.4389919553366,0
 -38.072250998,-10.4394568033366,0
 -38.0716612599999,-10.4395717723366,0
 -38.071130119,-10.4398035923367,0
 -38.070333756,-10.4400346433366,0
 -38.06965535,-10.4402368663367,0
 -38.0693308419999,-10.4403525963367,0
 -38.068916155,-10.4403205533367,0
 -38.068622463,-10.4400606043367,0
 -38.0684934239998,-10.4394448853366,0
 -38.0683368579999,-10.4390667643366,0
 -38.068102635,-10.4388284053366,0
 -38.067714975,-10.4386851583366,0
 -38.067184701,-10.4386252683366,0
 -38.066631893,-10.4386670373366,0
 -38.066175658,-10.4387887723366,0
 -38.065905729,-10.4389725843366,0
 -38.0657391,-10.4392592563366,0
 -38.065655057,-10.4396487293366,0
 -38.0655061699999,-10.4403502013367,0
 -38.065319002,-10.4405752803367,0
 -38.064987092,-10.4406973733367,0
 -38.064614045,-10.4407167953367,0
 -38.064324498,-10.4405313423367,0
 -38.063999696,-10.4401922133367,0
 -38.063769839,-10.4398474283366,0
 -38.063568715,-10.4391865913366,0
 -38.0632239299999,-10.4387843423366,0
 -38.0629222429999,-10.4384251913367,0
 -38.062505628,-10.4383964593366,0
 -38.062232674,-10.4385832173366,0
 -38.061810975,-10.4388756473366,0
 -38.061396311,-10.4391020923366,0
 -38.0610115609999,-10.4390572963366,0
 -38.060592916,-10.4385761083366,0
 -38.060203643,-10.4380058193366,0
 -38.059906229,-10.4374813233365,0
 -38.05965474,-10.4369797293365,0
 -38.059494912,-10.4365922413365,0
 -38.0592014409999,-10.4360978943365,0
 -38.059115245,-10.4357962073366,0
 -38.058871022,-10.4355232523365,0
 -38.058526237,-10.4354945203366,0
 -38.05815272,-10.4356094483366,0
 -38.057750471,-10.4358967693365,0
 -38.057391321,-10.4362415543365,0
 -38.056989072,-10.4365576073365,0
 -38.0566652369999,-10.4368570883365,0
 -38.056250912,-10.4369697013365,0
 -38.055952065,-10.4369232833365,0
 -38.055607565,-10.4367629013365,0
 -38.055057377,-10.4361693623365,0
 -38.054621158,-10.4359176473365,0
 -38.054230248,-10.4358937213365,0
 -38.053792928,-10.4360062563365,0
 -38.053332334,-10.4362097873365,0
 -38.052963045,-10.4366412443365,0
 -38.0525201449999,-10.4369588863365,0
 -38.051993052,-10.4373883693366,0
 -38.051563569,-10.4379545063366,0
 -38.051290262,-10.4384815983366,0
 -38.051251218,-10.4390477353367,0
 -38.0510950419999,-10.4396919603366,0
 -38.050685081,-10.4403166623367,0
 -38.0502161660001,-10.4407235963367,0
 -38.049377033,-10.4412066863367,0
 -38.0490458729999,-10.4413463183367,0
 -38.049007135,-10.4413626513367,0
 -38.048679151,-10.4414967833367,0
 -38.047972658,-10.4414819513367,0
 -38.04759049,-10.4414808113367,0
 -38.04707208,-10.4413982053367,0
 -38.046649655,-10.4411104163367,0
 -38.046419787,-10.4408680413366,0
 -38.046176315,-10.4406390493367,0
 -38.045986694,-10.4405444913367,0
 -38.045783307,-10.4405170303367,0
 -38.045579506,-10.4406238383367,0
 -38.0454568069999,-10.4408248813367,0
 -38.045374682,-10.4410663263367,0
 -38.04532885,-10.4412801043367,0
 -38.045332553,-10.4415361583367,0
 -38.045481033,-10.4417782913367,0
 -38.045588975,-10.4419665963367,0
 -38.045660256,-10.4421667873367,0
 -38.045669096,-10.4423830803367,0
 -38.045587213,-10.4425439673367,0
 -38.045383412,-10.4426507763367,0
 -38.045152768,-10.4426635143367,0
 -38.044962737,-10.4427032293367,0
 -38.044786026,-10.4428235453367,0
 -38.044636155,-10.4430379323368,0
 -38.044527264,-10.4431584513368,0
 -38.044242072,-10.4432650183368,0
 -38.043821029,-10.4434383113368,0
 -38.043413342,-10.4436787843368,0
 -38.043073436,-10.4439328813368,0
 -38.042747096,-10.4441870223368,0
 -38.04233949,-10.4444006353368,0
 -38.041848354,-10.4445980693368,0
 -38.041495701,-10.4447735373367,0
 -38.041192131,-10.4448580613368,0
 -38.040673545,-10.4449187913368,0
 -38.040367897,-10.4451202443367,0
 -38.0397902679999,-10.4453089053368,0
 -38.039148975,-10.4453492873368,0
 -38.038927545,-10.4451999983368,0
 -38.038620061,-10.4448131353368,0
 -38.038414776,-10.4445657483368,0
 -38.038117334,-10.4445221663368,0
 -38.037483654,-10.4445524163368,0
 -38.0371198769999,-10.4446530063368,0
 -38.036858401,-10.4447039513368,0
 -38.036614506,-10.4447032173368,0
 -38.036493037,-10.4445476513368,0
 -38.036458776,-10.4443578623368,0
 -38.036581311,-10.4441685453368,0
 -38.036669158,-10.4439273933368,0
 -38.036634955,-10.4437203583368,0
 -38.036496014,-10.4435819873368,0
 -38.036304381,-10.4435814093368,0
 -38.036112858,-10.4435463423367,0
 -38.035973916,-10.4434079673367,0
 -38.0359131509999,-10.4432324713368,0
 -38.035818029,-10.4431143463368,0
 -38.0356440330001,-10.4430448423368,0
 -38.035469717,-10.4430788073368,0
 -38.035277768,-10.4431816903368,0
 -38.035120182,-10.4434398773368,0
 -38.035042916,-10.4437484323367,0
 -38.034926213,-10.4441980373368,0
 -38.0348036269999,-10.4444045963368,0
 -38.034576569,-10.4445935963368,0
 -38.034210088,-10.4447994163368,0
 -38.033878662,-10.4449363663368,0
 -38.033582026,-10.4450906663368,0
 -38.033407178,-10.4452970733368,0
 -38.033284483,-10.4455381163368,0
 -38.03323126,-10.4458483503369,0
 -38.033317514,-10.4461245183369,0
 -38.033333815,-10.4464866943368,0
 -38.033224014,-10.4469180303369,0
 -38.033072252,-10.4476156863369,0
 -38.032968112,-10.4479656003369,0
 -38.032818615,-10.4481861003368,0
 -38.03265469,-10.4482592523369,0
 -38.032414182,-10.4482745733369,0
 -38.032143627,-10.4482348543369,0
 -38.031966631,-10.4482124093369,0
 -38.031753873,-10.4481854283369,0
 -38.031568569,-10.4481823073369,0
 -38.031389854,-10.4482259593368,0
 -38.031255604,-10.4483286623368,0
 -38.031165811,-10.4484904203369,0
 -38.0311204360001,-10.448725967337,0
 -38.031000608,-10.4489760183369,0
 -38.030851522,-10.449063948337,0
 -38.0305983069999,-10.4491368303369,0
 -38.030389783,-10.4491951163369,0
 -38.030210748,-10.449341877337,0
 -38.030076311,-10.4495034943369,0
 -38.029971815,-10.449606295337,0
 -38.029793151,-10.4496352093369,0
 -38.02965944,-10.449561155337,0
 -38.029600467,-10.4493842093369,0
 -38.029541354,-10.449251459337,0
 -38.029422529,-10.449177448337,0
 -38.029243998,-10.449162174337,0
 -38.029035612,-10.449176268337,0
 -38.02884174,-10.449308252337,0
 -38.028394194,-10.449660416337,0
 -38.027962237,-10.449990596337,0
 -38.027422424,-10.4505541943369,0
 -38.026966971,-10.450872428337,0
 -38.0266074159999,-10.451119928337,0
 -38.026248256,-10.451237209337,0
 -38.02591317,-10.451307213337,0
 -38.025578264,-10.451318030337,0
 -38.0251317050001,-10.451246244337,0
 -38.024854119,-10.451032713337,0
 -38.0247687049999,-10.4505842953369,0
 -38.02466194,-10.450135889337,0
 -38.02432469,-10.4499269913369,0
 -38.023935838,-10.4497406783369,0
 -38.023479182,-10.449674678337,0
 -38.023252643,-10.449559358337,0
 -38.023200137,-10.449471445337,0
 -38.023153729,-10.4493937413369,0
 -38.023155748,-10.4487477293369,0
 -38.0229833189999,-10.4482303853369,0
 -38.0226144940001,-10.4479062483369,0
 -38.022201889,-10.4476681083369,0
 -38.0217887439999,-10.4476022413369,0
 -38.021179537,-10.4476219123369,0
 -38.0207002559999,-10.4478357763369,0
 -38.020395819,-10.4477917763369,0
 -38.02000524,-10.4474675693369,0
 -38.019636283,-10.4471864943368,0
 -38.019310096,-10.4471424243368,0
 -38.018847889,-10.4471419553369,0
 -38.018477955,-10.4468193773368,0
 -38.0183060139999,-10.4461512993369,0
 -38.018155416,-10.4456124873368,0
 -38.017917127,-10.4452887443368,0
 -38.0176797210001,-10.4446850653368,0
 -38.017419947,-10.4442751193368,0
 -38.017020338,-10.4439435653367,0
 -38.016540744,-10.4437995373368,0
 -38.016044252,-10.4439405573368,0
 -38.015579213,-10.4442559053368,0
 -38.015097924,-10.4446503973368,0
 -38.01458649,-10.4448249833367,0
 -38.014249252,-10.4448378463367,0
 -38.0139454239999,-10.4447735533367,0
 -38.013752795,-10.4445214483368,0
 -38.013709811,-10.4441047293367,0
 -38.013844229,-10.4436227953367,0
 -38.0140007329999,-10.4431628463368,0
 -38.013957608,-10.4427899873367,0
 -38.013759432,-10.4424166393367,0
 -38.013760815,-10.4419781433367,0
 -38.0136292949999,-10.4415392333367,0
 -38.013386408,-10.4412973033367,0
 -38.013028834,-10.4411277443367,0
 -38.012708459,-10.4412376313367,0
 -38.012355631,-10.4414899633368,0
 -38.0121309159999,-10.4417110143367,0
 -38.011906444,-10.4418528733367,0
 -38.011566303,-10.4418865883367,0
 -38.011298162,-10.4417437803367,0
 -38.011214897,-10.4415536903367,0
 -38.011016862,-10.4411364983366,0
 -38.010574768,-10.4408501003367,0
 -38.010176002,-10.4408707913367,0
 -38.009732104,-10.4411544443367,0
 -38.009376807,-10.4414383693367,0
 -38.009021787,-10.4416345963367,0
 -38.0086230839999,-10.4416333583367,0
 -38.008159334,-10.4411934123367,0
 -38.008116631,-10.4406889983367,0
 -38.007940545,-10.4403376553367,0
 -38.007808553,-10.4400522173366,0
 -38.007565459,-10.4398760533366,0
 -38.007299944,-10.4397875303366,0
 -38.0069894979999,-10.4398961903366,0
 -38.006789178,-10.4402025223367,0
 -38.006410947,-10.4406901783367,0
 -38.006132756,-10.4409683693367,0
 -38.005803983,-10.4412212763367,0
 -38.0054499160001,-10.4414741783367,0
 -38.005019983,-10.4415753383367,0
 -38.004741791,-10.4416006273367,0
 -38.004186061,-10.4417093463367,0
 -38.003864272,-10.4415995763367,0
 -38.003465647,-10.4415764053367,0
 -38.003111319,-10.4415533773367,0
 -38.002813377,-10.4414041433367,0
 -38.002471002,-10.4409155453367,0
 -38.002140643,-10.4403225333367,0
 -38.001987764,-10.4396423773366,0
 -38.001812174,-10.4391375493366,0
 -38.001547639,-10.4387420693366,0
 -38.001149299,-10.4386311983366,0
 -38.000706381,-10.4386078893366,0
 -37.999957018,-10.4386108893367,0
 -37.998304145,-10.4380833543366,0
 -37.996289631,-10.4372586353366,0
 -37.995488661,-10.4363337253365,0
 -37.995215771,-10.4356817673365,0
 -37.9951992439999,-10.4351382273366,0
 -37.99531077,-10.4348311143366,0
 -37.995805304,-10.4344528603365,0
 -37.996318978,-10.4338033733364,0
 -37.9964302269999,-10.4332973113364,0
 -37.996248909,-10.4328626753364,0
 -37.995554558,-10.4328785803365,0
 -37.995279857,-10.4330766633364,0
 -37.993541001,-10.4337584653364,0
 -37.992388323,-10.4339718663364,0
 -37.992004808,-10.4339163983365,0
 -37.991035459,-10.4342208033364,0
 -37.990870438,-10.4344011433365,0
 -37.990685164,-10.4351963463365,0
 -37.990646928,-10.4357216263365,0
 -37.990718963,-10.4360474033366,0
 -37.990697427,-10.4370601563365,0
 -37.9904223689999,-10.4373667513366,0
 -37.990020113,-10.4374559103366,0
 -37.989600403,-10.4372918083366,0
 -37.989198401,-10.4370192453365,0
 -37.988686753,-10.4370357123365,0
 -37.987938048,-10.4369067393365,0
 -37.987208903,-10.4363799323365,0
 -37.986753883,-10.4358359073366,0
 -37.986479432,-10.4356722623365,0
 -37.986187096,-10.4356713353365,0
 -37.985711055,-10.4359772873365,0
 -37.985452916,-10.4366999113366,0
 -37.985452037,-10.4369711993365,0
 -37.9858882569999,-10.4376779403366,0
 -37.986159626,-10.4385116653366,0
 -37.98604789,-10.4391624083366,0
 -37.985846087,-10.4394149733366,0
 -37.9850962060001,-10.4396477103366,0
 -37.984767676,-10.4395381493366,0
 -37.984496131,-10.4387595863366,0
 -37.984131061,-10.4386499093366,0
 -37.9837820559999,-10.4389381763366,0
 -37.9835788409999,-10.4396247993366,0
 -37.98335608,-10.4398601133366,0
 -37.983340493,-10.4398772453366,0
 -37.9825915499999,-10.4398206023366,0
 -37.982445792,-10.4396935363366,0
 -37.982282116,-10.4394578963367,0
 -37.982191937,-10.4390958873366,0
 -37.982211972,-10.4385533703366,0
 -37.9819035419999,-10.4378822993366,0
 -37.981320751,-10.4373016883366,0
 -37.980626657,-10.4369558403365,0
 -37.980189743,-10.4364661223365,0
 -37.980208957,-10.4361768073365,0
 -37.980393316,-10.4356709863365,0
 -37.980358308,-10.4351997333365,0
 -37.9802311189999,-10.4349822953365,0
 -37.979739336,-10.4345104883365,0
 -37.979355884,-10.4344369203365,0
 -37.9788259109999,-10.4344713993365,0
 -37.9783417999999,-10.4347254363365,0
 -37.9780379929999,-10.4348848593366,0
 -37.977433101,-10.4354806673366,0
 -37.977232003,-10.4355161953365,0
 -37.975929326,-10.4371759363366,0
 -37.97521531,-10.4373364213366,0
 -37.9738106949999,-10.4366446443365,0
 -37.973555732,-10.4363906213365,0
 -37.9727169889999,-10.4358634323365,0
 -37.9705808209999,-10.4351141273365,0
 -37.969905097,-10.4350215203365,0
 -37.969172814,-10.4351819323365,0
 -37.968514047,-10.4354881723366,0
 -37.966880999,-10.4373095793365,0
 -37.965911623,-10.4376139043366,0
 -37.965637558,-10.4376130173366,0
 -37.965290828,-10.4374852933366,0
 -37.964961771,-10.4375384853366,0
 -37.964156353,-10.4379880233366,0
 -37.963953677,-10.4382233883366,0
 -37.9633861379999,-10.4385651793366,0
 -37.962709751,-10.4386714993366,0
 -37.961997901,-10.4384521563366,0
 -37.961632241,-10.4385233113366,0
 -37.961210915,-10.4385761993366,0
 -37.960459942,-10.4391344203366,0
 -37.959875329,-10.4391144313366,0
 -37.959455576,-10.4389683773367,0
 -37.959034982,-10.4390755223366,0
 -37.958101223,-10.4393799383366,0
 -37.957041624,-10.4393403093366,0
 -37.95653088,-10.4390854383366,0
 -37.956112034,-10.4386680943366,0
 -37.9556006189999,-10.4383408763366,0
 -37.95497989,-10.4381941593366,0
 -37.954724583,-10.4380477323366,0
 -37.954011771,-10.4381186473366,0
 -37.9530602309999,-10.4385495913366,0
 -37.952619725,-10.4388736933366,0
 -37.95221734,-10.4389989753366,0
 -37.951722691,-10.4393952413366,0
 -37.9512468579999,-10.4396287963366,0
 -37.950477656,-10.4401688453367,0
 -37.949415323,-10.4406717573367,0
 -37.949177128,-10.4408708223367,0
 -37.948884669,-10.4409060323367,0
 -37.947185217,-10.4409727783367,0
 -37.946690498,-10.4411158333367,0
 -37.945154631,-10.4414363093367,0
 -37.944550832,-10.4416875163367,0
 -37.943726315,-10.4421007643368,0
 -37.942645876,-10.4428206223367,0
 -37.941162246,-10.4436295683368,0
 -37.940906201,-10.4437019663368,0
 -37.940594734,-10.4439541343368,0
 -37.939660389,-10.4446925513368,0
 -37.939421821,-10.4449992173368,0
 -37.938854185,-10.4453590473368,0
 -37.938226225,-10.4465343453369,0
 -37.938062569,-10.4468403553369,0
 -37.937476595,-10.4472182063369,0
 -37.937093266,-10.4471084153368,0
 -37.936655983,-10.4467452433369,0
 -37.936163149,-10.4465989153369,0
 -37.935266202,-10.4468129543368,0
 -37.935009602,-10.4470472133368,0
 -37.934187084,-10.4471348963369,0
 -37.933529377,-10.4471146143368,0
 -37.933146358,-10.4469143903369,0
 -37.932635764,-10.4463511203369,0
 -37.932563296,-10.4461700203369,0
 -37.932676133,-10.4452299383368,0
 -37.932385336,-10.4447768213367,0
 -37.932039048,-10.4445224623368,0
 -37.931618996,-10.4444668003368,0
 -37.930887717,-10.4445909523367,0
 -37.930007622,-10.4452210053368,0
 -37.9294596709999,-10.4451649113368,0
 -37.929004377,-10.4447293263368,0
 -37.92896833,-10.4445845193367,0
 -37.928586184,-10.4441310933368,0
 -37.928221196,-10.4440032683368,0
 -37.927107545,-10.4434741373368,0
 -37.926598437,-10.4427489973367,0
 -37.926491231,-10.4420432923367,0
 -37.926017799,-10.4415714713367,0
 -37.9255236129999,-10.4418230093367,0
 -37.9251385560001,-10.4422196003366,0
 -37.925063235,-10.4428704323368,0
 -37.924934095,-10.4432317123368,0
 -37.924805576,-10.4434121373368,0
 -37.924457014,-10.4435556493368,0
 -37.924128881,-10.4433375153368,0
 -37.924001668,-10.4431381433368,0
 -37.924077675,-10.4422883703367,0
 -37.923844506,-10.4410215843367,0
 -37.92318993,-10.4400961013367,0
 -37.921858026,-10.4395490373366,0
 -37.920270484,-10.4386936463366,0
 -37.9199417349999,-10.4386563633366,0
 -37.919173676,-10.4388527083366,0
 -37.918788639,-10.4389780053367,0
 -37.918110119,-10.4396991363366,0
 -37.917028133,-10.4408538573367,0
 -37.916075542,-10.4415740533367,0
 -37.914994387,-10.4422214663367,0
 -37.914751489,-10.4422780103367,0</coordinates>
        </LineString>
      </Placemark>
    </Folder>
  </Document>
</kml>