<kml xmlns:xsd="http://schemas.opengis.net/kml/2.2.0/ogckml22.xsd" xmlns:xmlns="http://www.opengis.net/kml/2.2/" version="1.0">
  <Document>
    <name>IPIRA</name>
    <open>1</open>
    <Folder>
      <name>2914000</name>
      <Style id="line1">
        <LineStyle>
          <color>#ff000000</color>
          <width>3</width>
        </LineStyle>
        <BalloonStyle>
          <text>$[description]</text>
        </BalloonStyle>
      </Style>
      <Placemark>
        <name>55</name>
        <styleUrl>#line1</styleUrl>
        <LineString>
          <extrude>0</extrude>
          <altitudeMode>clampToGround</altitudeMode>
          <coordinates>-39.598602818,-12.0525819973857,0
 -39.598602733,-12.0525819793857,0
 -39.598602648,-12.0525819623858,0
 -39.5967225169999,-12.0521972353857,0
 -39.5862679859999,-12.0500579493858,0
 -39.582542476,-12.0492956063857,0
 -39.582190935,-12.0492236713857,0
 -39.581143637,-12.0490093653857,0
 -39.580264897,-12.0488295513856,0
 -39.571287292,-12.0469924843856,0
 -39.560111435,-12.0447055953856,0
 -39.550313409,-12.0427006483854,0
 -39.534643119,-12.0394940733854,0
 -39.527201586,-12.0379713303853,0
 -39.526810785,-12.0378913613853,0
 -39.5229615719999,-12.0371037053852,0
 -39.522753977,-12.0370612023853,0
 -39.522440129,-12.0369969883853,0
 -39.522363841,-12.0369813143852,0
 -39.5220499929999,-12.0369171003853,0
 -39.5220499739999,-12.0369172483853,0
 -39.522049911,-12.0369173753853,0
 -39.522049297,-12.0369186133853,0
 -39.522049282,-12.0369186423853,0
 -39.5220489179999,-12.0369193763853,0
 -39.5220487729999,-12.0369196693853,0
 -39.522048615,-12.0369199883853,0
 -39.522048313,-12.0369205963853,0
 -39.522047939,-12.0369213503852,0
 -39.522047713,-12.0369218063853,0
 -39.52204767,-12.0369218913853,0
 -39.522047188,-12.0369228643853,0
 -39.522047078,-12.0369230843853,0
 -39.522045724,-12.0369258133854,0
 -39.5220447899999,-12.0369276963853,0
 -39.522043152,-12.0369309973852,0
 -39.522042027,-12.0369332643853,0
 -39.522041934,-12.0369334123853,0
 -39.5220416529999,-12.0369339783853,0
 -39.5220413719999,-12.0369345443853,0
 -39.522040953,-12.0369353863853,0
 -39.522038294,-12.0369407373853,0
 -39.522034596,-12.0369481803853,0
 -39.522029824,-12.0369577823852,0
 -39.522019339,-12.0369788833853,0
 -39.521974616,-12.0370688813853,0
 -39.5219532689999,-12.0371118413853,0
 -39.521923903,-12.0371709353853,0
 -39.521908391,-12.0372021503852,0
 -39.521892354,-12.0372344243853,0
 -39.521868846,-12.0372817323852,0
 -39.521812396,-12.0373953293853,0
 -39.521797821,-12.0374246603852,0
 -39.5216912569999,-12.0376391073853,0
 -39.52089788,-12.0392356823854,0
 -39.5196600299999,-12.0417267043855,0
 -39.518885458,-12.0432854373855,0
 -39.516684564,-12.0477144693857,0
 -39.491159244,-12.0990810763871,0
 -39.491051184,-12.0992985333872,0
 -39.466295005,-12.1491173363887,0
 -39.465148633,-12.1514242703887,0
 -39.464346988,-12.1530374833887,0
 -39.46424481,-12.1532431053887,0
 -39.464032995,-12.1536693573888,0
 -39.463967011,-12.1538021403889,0
 -39.463887714,-12.1539617173889,0
 -39.462731559,-12.1562883383889,0
 -39.4625928959999,-12.1565673813889,0
 -39.462578413,-12.1565965263889,0
 -39.462555668,-12.156642297389,0
 -39.462180738,-12.157396799389,0
 -39.46195292,-12.157855254389,0
 -39.4615639959999,-12.158637917389,0
 -39.461469598,-12.1588278803889,0
 -39.460945202,-12.159883164389,0
 -39.460945189,-12.159883192389,0
 -39.460945007,-12.159883556389,0
 -39.460089035,-12.161606096389,0
 -39.459925221,-12.161935752389,0
 -39.4506478,-12.1806054353896,0
 -39.450647659,-12.1806057203897,0
 -39.450404406,-12.1810952373897,0
 -39.4269550809999,-12.2282841543911,0
 -39.4262583399999,-12.229686261391,0
 -39.424293369,-12.2336405273912,0
 -39.4242894139999,-12.2336484863912,0
 -39.4242555140001,-12.2337167043912,0
 -39.411925772,-12.2585288143919,0
 -39.408164314,-12.2660982903922,0
 -39.4081197639999,-12.2661879423922,0
 -39.4080718389999,-12.2662843853922,0
 -39.4080611629999,-12.2663058693922,0
 -39.408419266,-12.2664775963922,0
 -39.40869356,-12.2667357563922,0
 -39.408729641,-12.2667697143922,0
 -39.40878082,-12.2668004223922,0
 -39.409094787,-12.2669888023922,0
 -39.409144209,-12.2670382253923,0
 -39.409148267,-12.2670422823922,0
 -39.409368647,-12.2672626623922,0
 -39.4095146599999,-12.2678649643922,0
 -39.409514706,-12.2678651533922,0
 -39.409514706,-12.2681038543922,0
 -39.409514706,-12.2683763593922,0
 -39.4097337940001,-12.2686867333923,0
 -39.410409315,-12.2691796813923,0
 -39.410756204,-12.2695630853923,0
 -39.410829233,-12.2698552003923,0
 -39.410829202,-12.2698552293923,0
 -39.4107050109999,-12.2699698673923,0
 -39.410591886,-12.2700742913923,0
 -39.409952882,-12.2702568643923,0
 -39.409368647,-12.2703116363923,0
 -39.4088823099999,-12.2703116363923,0
 -39.4087844129999,-12.2703116363923,0
 -39.408747726,-12.2703208083923,0
 -39.408200178,-12.2704576943923,0
 -39.4078496979999,-12.2707125903923,0
 -39.407803132,-12.2707464563923,0
 -39.407800164,-12.2707486153923,0
 -39.407798585,-12.2707497633923,0
 -39.407798517,-12.2707498123923,0
 -39.407758833,-12.2707866613922,0
 -39.407736542,-12.2708073613924,0
 -39.407465438,-12.2710591003923,0
 -39.40736104,-12.2711560413923,0
 -39.407299457,-12.2712132253923,0
 -39.407287312,-12.2712245023923,0
 -39.406742624,-12.2718012303923,0
 -39.4066665619999,-12.2718817663924,0
 -39.40606407,-12.2723929713924,0
 -39.405987001,-12.2724566373924,0
 -39.4052242329999,-12.2730867503924,0
 -39.404750452,-12.2734876423924,0
 -39.404749543,-12.2734884113924,0
 -39.404238337,-12.2737257563924,0
 -39.4036964809999,-12.2738747673924,0
 -39.4035083759999,-12.2739264963923,0
 -39.403508044,-12.2739265873923,0
 -39.403106383,-12.2739083303923,0
 -39.40257692,-12.2738170433924,0
 -39.402573386,-12.2738152763924,0
 -39.40210223,-12.2735796983923,0
 -39.4016164360001,-12.2733457973923,0
 -39.401609282,-12.2733423523923,0
 -39.401152849,-12.2732510663924,0
 -39.400751187,-12.2732510663924,0
 -39.4004749769999,-12.2733299833924,0
 -39.400367783,-12.2733606103924,0
 -39.39991135,-12.2735249263923,0
 -39.399581162,-12.2737050293924,0
 -39.399308858,-12.2738535583923,0
 -39.398809306,-12.2742674733924,0
 -39.398669852,-12.2743830203924,0
 -39.3981769040001,-12.2748577113925,0
 -39.398118258,-12.2749163583924,0
 -39.3980596119999,-12.2749750043925,0
 -39.397830015,-12.2752046003925,0
 -39.397446611,-12.2755697473925,0
 -39.396862455,-12.2759531003925,0
 -39.396862376,-12.2759531513925,0
 -39.396661545,-12.2763730693924,0
 -39.39666948,-12.2763981963925,0
 -39.396677415,-12.2764233233925,0
 -39.396718159,-12.2765523453925,0
 -39.396771089,-12.2767199593925,0
 -39.396934325,-12.2768274563925,0
 -39.396943834,-12.2768337183925,0
 -39.396946807,-12.2768356753925,0
 -39.39751964,-12.2772129073925,0
 -39.398012588,-12.2774685103926,0
 -39.398688109,-12.2777423703926,0
 -39.399400145,-12.2781257743925,0
 -39.3997470339999,-12.2785639503926,0
 -39.39998438,-12.2790021263925,0
 -39.4002344429999,-12.2798131633926,0
 -39.400890834,-12.2809136433927,0
 -39.40154673,-12.2822899343926,0
 -39.401875419,-12.2831621023927,0
 -39.4022034129999,-12.2835748873927,0
 -39.402765537,-12.2843535683927,0
 -39.40351364,-12.2846743983927,0
 -39.4045896019999,-12.2853148643927,0
 -39.405057801,-12.2860032493927,0
 -39.405715635,-12.2880215793928,0
 -39.406184123,-12.2888935353929,0
 -39.407026957,-12.2898101483929,0
 -39.4077916969999,-12.2907693773929,0
 -39.408587644,-12.2916860543929,0
 -39.409242045,-12.2920522223929,0
 -39.4098033559999,-12.292281075393,0
 -39.410411424,-12.292417617393,0
 -39.411158987,-12.292370376393,0
 -39.412841568,-12.2921842703929,0
 -39.4135893449999,-12.2922753793929,0
 -39.4142914299999,-12.292549225393,0
 -39.415087045,-12.293237095393,0
 -39.415602183,-12.293924485393,0
 -39.416959994,-12.2953910013931,0
 -39.417755262,-12.2958491723931,0
 -39.418223295,-12.2963991753931,0
 -39.418926413,-12.2973159633931,0
 -39.419348278,-12.2983254183932,0
 -39.4200045780001,-12.2992883933932,0
 -39.420567081,-12.3002515113932,0
 -39.421269518,-12.3013066503933,0
 -39.4223153499999,-12.3031660833933,0
 -39.423065254,-12.3039905483933,0
 -39.4240006379999,-12.3046320553934,0
 -39.424749191,-12.3051816103934,0
 -39.4251239649999,-12.3054794453934,0
 -39.42549874,-12.3057772813933,0
 -39.42619988,-12.3060058803933,0
 -39.427041652,-12.3061881393934,0
 -39.427508906,-12.3062335283933,0
 -39.428350977,-12.3065993553933,0
 -39.429146073,-12.3069191333933,0
 -39.4294266409999,-12.3069648123934,0
 -39.430548611,-12.3069630473934,0
 -39.431109821,-12.3070996153935,0
 -39.431390576,-12.3072596853934,0
 -39.43167133,-12.3074197553934,0
 -39.432124191,-12.3076595893935,0
 -39.432124287,-12.3076596153935,0
 -39.432124397,-12.3076596453935,0
 -39.43212705,-12.3076603593935,0
 -39.4321309549999,-12.3076614093935,0
 -39.4321314180001,-12.3076615343935,0
 -39.432132575,-12.3076618453934,0
 -39.432132637,-12.3076618623935,0
 -39.432133564,-12.3076621113934,0
 -39.432133653,-12.3076621353934,0
 -39.43213523,-12.3076625593935,0
 -39.432135905,-12.3076627413935,0
 -39.432138757,-12.3076635093934,0
 -39.432140208,-12.3076638993935,0
 -39.4321440039999,-12.3076649203935,0
 -39.432155188,-12.3076679293935,0
 -39.43443724,-12.3082819833935,0
 -39.437697998,-12.3091593863935,0
 -39.440958755,-12.3100367883934,0
 -39.503475245,-12.327786170394,0
 -39.54518574,-12.3396284143943,0
 -39.560111435,-12.3438660453945,0
 -39.566753836,-12.3457519243946,0
 -39.621313969,-12.3612423743951,0
 -39.67035941,-12.3751671213954,0
 -39.685556377,-12.3794817713956,0
 -39.734580789,-12.3934005463961,0
 -39.797403225,-12.4112367903966,0
 -39.8098886509999,-12.4147815923967,0
 -39.895571935,-12.493819957399,0
 -39.909655703,-12.5068114993994,0
 -39.909656022,-12.5068117943993,0
 -39.924090787,-12.5201271123998,0
 -39.9256897,-12.5216020263998,0
 -39.925689818,-12.5216021353999,0
 -39.925689974,-12.5216020963999,0
 -39.925690242,-12.5216020273999,0
 -39.9257005989999,-12.5215993793998,0
 -39.925724081,-12.5215933753999,0
 -39.925767387,-12.5215823023999,0
 -39.925852249,-12.5215606043998,0
 -39.926032422,-12.5215145353998,0
 -39.927180904,-12.5212208813999,0
 -39.9284020599999,-12.5203856203998,0
 -39.928414768,-12.5203394673997,0
 -39.9290873,-12.5187376213998,0
 -39.929599142,-12.5177502733997,0
 -39.9303944069999,-12.5170142323996,0
 -39.9313983620001,-12.5162186733997,0
 -39.932167599,-12.5159212403997,0
 -39.932656455,-12.5157179053997,0
 -39.933307747,-12.5153856203997,0
 -39.933308297,-12.5153851173997,0
 -39.93331031,-12.5153832763997,0
 -39.933346804,-12.5153499013997,0
 -39.933383944,-12.5153159353996,0
 -39.933471251,-12.5152360903997,0
 -39.93360769,-12.5151113113997,0
 -39.933889319,-12.5148537493996,0
 -39.933909956,-12.5148128683997,0
 -39.93447687,-12.5136898213996,0
 -39.9348087659999,-12.5128287713995,0
 -39.935250019,-12.5119275633996,0
 -39.936172636,-12.5107877823995,0
 -39.936968957,-12.5103555073994,0
 -39.938500227,-12.5095752913995,0
 -39.938948184,-12.5092617763995,0
 -39.9396579209999,-12.5085558423994,0
 -39.939666001,-12.5084970383994,0
 -39.939662097,-12.5084337573994,0
 -39.939767773,-12.5081368063995,0
 -39.939755019,-12.5076639583994,0
 -39.9397828899999,-12.5069748663994,0
 -39.94001553,-12.5064152573994,0
 -39.940115011,-12.5061852423994,0
 -39.940214492,-12.5059552263993,0
 -39.9403473309999,-12.5057902123994,0
 -39.940413787,-12.5055928573993,0
 -39.9404460879999,-12.5053630853993,0
 -39.940445375,-12.5051659653993,0
 -39.940444427,-12.5049037553993,0
 -39.940410581,-12.5047067503993,0
 -39.9402764349999,-12.5045101143993,0
 -39.940141839,-12.5044445673993,0
 -39.939907987,-12.5044128483994,0
 -39.939607064,-12.5044138983993,0
 -39.939439693,-12.5044470183993,0
 -39.938943902,-12.5045075233994,0
 -39.938493854,-12.5044955363994,0
 -39.938109849,-12.5044218213993,0
 -39.937843397,-12.5042871243993,0
 -39.937414071,-12.5041520863994,0
 -39.93696189,-12.5037992083993,0
 -39.9365922879999,-12.5033863783993,0
 -39.936450525,-12.5031146943993,0
 -39.936368145,-12.5027270863992,0
 -39.936416148,-12.5017485803993,0
 -39.936935532,-12.5009195043992,0
 -39.937230636,-12.5002567213992,0
 -39.937230295,-12.4998849193992,0
 -39.937260573,-12.4985854673991,0
 -39.937325073,-12.4980960733991,0
 -39.937473801,-12.4977438263991,0
 -39.937787299,-12.4974063763992,0
 -39.938348972,-12.496731701399,0
 -39.938497052,-12.4964563053991,0
 -39.9386284519999,-12.4961493213991,0
 -39.9386608689999,-12.495951196399,0
 -39.938602977,-12.495717201399,0
 -39.93855258,-12.495522975399,0
 -39.938309548,-12.494730847399,0
 -39.9383072749999,-12.4941006353989,0
 -39.938308966,-12.4940572233991,0
 -39.93830465,-12.493628640399,0
 -39.938403051,-12.4933534363989,0
 -39.938567858,-12.493123185399,0
 -39.938916102,-12.492984532399,0
 -39.939197143,-12.4928307433989,0
 -39.939710818,-12.4926300333989,0
 -39.940008943,-12.492369502399,0
 -39.940124274,-12.492200920399,0
 -39.940140121,-12.4920019263989,0
 -39.940138631,-12.4915896303989,0
 -39.940070896,-12.491176639399,0
 -39.940068744,-12.4905807773989,0
 -39.940117814,-12.4904124263989,0
 -39.940266293,-12.4902437283989,0
 -39.940414975,-12.4901365283989,0
 -39.9407464229999,-12.4899301193988,0
 -39.9408895409999,-12.4898111603989,0
 -39.94125312,-12.4895838433989,0
 -39.941424419,-12.4893680483989,0
 -39.9415726029999,-12.4891233913989,0
 -39.94168749,-12.4888327393989,0
 -39.941653437,-12.4885724593989,0
 -39.941536376,-12.4882672493988,0
 -39.941203566,-12.4878407213988,0
 -39.940870383,-12.4875661153987,0
 -39.94060481,-12.4874142313988,0
 -39.940255637,-12.4872933793987,0
 -39.939890265,-12.4872792833988,0
 -39.939326243,-12.4872966183988,0
 -39.938746469,-12.4872832673988,0
 -39.93823192,-12.4872389303988,0
 -39.937899294,-12.4871180353988,0
 -39.9376504729999,-12.4870122003988,0
 -39.937092241,-12.4865909693988,0
 -39.936894518,-12.4863719413988,0
 -39.936754615,-12.4861066013988,0
 -39.936604453,-12.4858024103988,0
 -39.936507853,-12.4855513653987,0
 -39.936434394,-12.4853364233988,0
 -39.9363992839999,-12.4847858953987,0
 -39.936464171,-12.4844040893987,0
 -39.936529365,-12.4841127233987,0
 -39.936628259,-12.4839749403987,0
 -39.936776995,-12.4838830933987,0
 -39.9371091220001,-12.4838665693987,0
 -39.937689959,-12.4839260303987,0
 -39.938353673,-12.4839996823987,0
 -39.938542264,-12.4839854523987,0
 -39.938785133,-12.4839674413987,0
 -39.939563738,-12.4837513293987,0
 -39.940921535,-12.4831344673987,0
 -39.941732509,-12.4827039473987,0
 -39.942361544,-12.4823500213987,0
 -39.942973811,-12.4819355613986,0
 -39.943222335,-12.4817050333986,0
 -39.943353893,-12.4814450633986,0
 -39.943435,-12.4809709803986,0
 -39.943486633,-12.4807465663986,0
 -39.943614644,-12.4802668933986,0
 -39.943895302,-12.4797622613986,0
 -39.944208771,-12.4794248053986,0
 -39.944589752,-12.4791784423986,0
 -39.944920672,-12.4790859533986,0
 -39.94508711,-12.4790546303986,0
 -39.945219607,-12.4790541663985,0
 -39.9453854,-12.4790996953985,0
 -39.945651611,-12.4791747233985,0
 -39.9460505659999,-12.4795711633986,0
 -39.946367231,-12.4798603023986,0
 -39.946566523,-12.4800124123986,0
 -39.9467653899999,-12.4800424543986,0
 -39.947031215,-12.4800107823986,0
 -39.9473949849999,-12.4798413253986,0
 -39.948190333,-12.4794262113987,0
 -39.948868931,-12.4790413573985,0
 -39.949498335,-12.4787941143986,0
 -39.9501113069999,-12.4785785563985,0
 -39.950524968,-12.4784694923985,0
 -39.950989492,-12.4784226533985,0
 -39.9513214409999,-12.4783600043985,0
 -39.9516027169999,-12.4782821443985,0
 -39.951801138,-12.4781901323985,0
 -39.951917378,-12.4780215433985,0
 -39.95201615,-12.4778530153985,0
 -39.952214289,-12.4776841373985,0
 -39.952296589,-12.4775464073985,0
 -39.952677896,-12.4773922513985,0
 -39.953060417,-12.4773230883985,0
 -39.95327367,-12.4772626523985,0
 -39.953621174,-12.4771719083985,0
 -39.953885718,-12.4770489043985,0
 -39.954051537,-12.4768493983985,0
 -39.954116957,-12.4766203973986,0
 -39.954232159,-12.4764210713985,0
 -39.954479763,-12.4761905373985,0
 -39.954777407,-12.4758079053984,0
 -39.955256505,-12.4752248223985,0
 -39.955519813,-12.4747654623984,0
 -39.955601792,-12.4745355133985,0
 -39.955649859,-12.4740922843984,0
 -39.955731428,-12.4737556373984,0
 -39.955863893,-12.4734956593984,0
 -39.956090089,-12.4731991833983,0
 -39.956137738,-12.4731456643983,0
 -39.95655785,-12.4727897443984,0
 -39.956921042,-12.4724674683983,0
 -39.957218562,-12.4720531873983,0
 -39.957382669,-12.4716402863984,0
 -39.957463748,-12.4711662013983,0
 -39.957578272,-12.4707833273983,0
 -39.9576765889999,-12.4704927293984,0
 -39.957875307,-12.4702325333983,0
 -39.958122939,-12.4700173473982,0
 -39.958401097,-12.4698427553982,0
 -39.958620916,-12.4698175683982,0
 -39.95884796,-12.4697534683982,0
 -39.9590573209999,-12.4696415063983,0
 -39.9592517479999,-12.4694653963983,0
 -39.95941305,-12.4692903293983,0
 -39.959482704,-12.4692150293983,0
 -39.959612796,-12.4690644613982,0
 -39.959662374,-12.4690335453983,0
 -39.959769944,-12.4690101083983,0
 -39.959877514,-12.4689866713983,0
 -39.960059697,-12.4689860233982,0
 -39.960175737,-12.4690163503983,0
 -39.960359293,-12.4691377673983,0
 -39.960475953,-12.4693362713983,0
 -39.9605595039999,-12.4695348923983,0
 -39.960577474,-12.4699164073983,0
 -39.9606612339999,-12.4701765073982,0
 -39.9607610659999,-12.4702982213983,0
 -39.961010579,-12.4703434433983,0
 -39.961159692,-12.4703582823983,0
 -39.961292316,-12.4703885683984,0
 -39.961408467,-12.4704487263984,0
 -39.961542446,-12.4706010583984,0
 -39.961609208,-12.4707382603983,0
 -39.961726154,-12.4710136293984,0
 -39.96180976,-12.4712267133983,0
 -39.961909635,-12.4713647043983,0
 -39.962042408,-12.4714401723983,0
 -39.962292165,-12.4715459823983,0
 -39.962507476,-12.4715452143983,0
 -39.962656589,-12.4715600523984,0
 -39.962790119,-12.4715903163983,0
 -39.962889877,-12.4716966603983,0
 -39.96307291,-12.4719256653984,0
 -39.963190157,-12.4722769933984,0
 -39.963240675,-12.4725055643984,0
 -39.9632581449999,-12.4727505293983,0
 -39.9633260020001,-12.4729338543984,0
 -39.963475511,-12.4730553723984,0
 -39.963707444,-12.4730699323984,0
 -39.963856388,-12.4730386423983,0
 -39.964039553,-12.4730533583983,0
 -39.96417233,-12.4731297513983,0
 -39.964288484,-12.4731899083983,0
 -39.96438849,-12.4733577303985,0
 -39.964548145,-12.4737360153984,0
 -39.964619628,-12.4739057533984,0
 -39.965034226,-12.4750462653985,0
 -39.965401332,-12.4757827763985,0
 -39.965964953,-12.4764127913985,0
 -39.966628033,-12.4768127723985,0
 -39.967244685,-12.4771017183985,0
 -39.96779292,-12.4773013933985,0
 -39.96803215,-12.4773005353985,0
 -39.96827138,-12.4772996763986,0
 -39.968658348,-12.4771861623985,0
 -39.968976981,-12.4770059883985,0
 -39.969250084,-12.4767138523985,0
 -39.969340095,-12.4764223923985,0
 -39.9693572859999,-12.4763427593985,0
 -39.969358536,-12.4759340673985,0
 -39.969340207,-12.4754594293984,0
 -39.9693390699999,-12.4751538153984,0
 -39.969436787,-12.4747104083985,0
 -39.969550726,-12.4741747233985,0
 -39.9697643339999,-12.4737155293984,0
 -39.969962812,-12.4733938283984,0
 -39.970160935,-12.4732249383983,0
 -39.970408731,-12.4730558683983,0
 -39.9707571769999,-12.4729786553984,0
 -39.971089567,-12.4730380503984,0
 -39.971421228,-12.4731444453983,0
 -39.971853385,-12.4733110683983,0
 -39.972656431,-12.4734962423985,0
 -39.97299881,-12.4735203413984,0
 -39.973580101,-12.4737017933984,0
 -39.974127058,-12.4738074083984,0
 -39.974641463,-12.4738200323984,0
 -39.975222165,-12.4738486743984,0
 -39.975703618,-12.4739084133985,0
 -39.976720088,-12.4740756373984,0
 -39.976857237,-12.4740905103984,0
 -39.977080774,-12.4740716093985,0
 -39.977445591,-12.4739482193985,0
 -39.9777432619999,-12.4738241833984,0
 -39.978024992,-12.4736251343985,0
 -39.978140175,-12.4734257993984,0
 -39.978238985,-12.4732726323984,0
 -39.978288369,-12.4731956043984,0
 -39.978320639,-12.4729667193983,0
 -39.9782810999999,-12.4727299653983,0
 -39.978204741,-12.4724834003983,0
 -39.978134037,-12.4717901473983,0
 -39.978222442,-12.4710737083983,0
 -39.978448371,-12.4704679883984,0
 -39.97881072,-12.4699295863983,0
 -39.979288322,-12.4694576703983,0
 -39.979606265,-12.4690984573983,0
 -39.9797423450001,-12.4688294193982,0
 -39.979741506,-12.4686060983982,0
 -39.979603324,-12.4683154453983,0
 -39.9792601039999,-12.4680707553983,0
 -39.978551953,-12.4676700433982,0
 -39.978026825,-12.4674929153982,0
 -39.9775704689999,-12.4674945683983,0
 -39.977069171,-12.4675416023983,0
 -39.976287784,-12.4674847453983,0
 -39.975853748,-12.4673072843981,0
 -39.975327698,-12.4668833133982,0
 -39.975098498,-12.4666155963981,0
 -39.975006238,-12.4663030713982,0
 -39.974981742,-12.4658998983981,0
 -39.975093478,-12.4652728903981,0
 -39.975318326,-12.4643769283981,0
 -39.975360726,-12.463414721398,0
 -39.975244555,-12.462855440398,0
 -39.974923686,-12.4624316343981,0
 -39.974466064,-12.4620969283981,0
 -39.974151079,-12.4620121603981,0
 -39.974021303,-12.4620017763981,0
 -39.973601433,-12.4619164973981,0
 -39.97345187,-12.4617795973981,0
 -39.9733343189999,-12.4615964723981,0
 -39.973283681,-12.461337146398,0
 -39.973298343,-12.460832557398,0
 -39.973195449,-12.459885335398,0
 -39.9730952319999,-12.459656038398,0
 -39.972945423,-12.459457641398,0
 -39.972778451,-12.459336191398,0
 -39.9726455489999,-12.459229970398,0
 -39.972429962,-12.459153897398,0
 -39.972280798,-12.459123676398,0
 -39.972114263,-12.459124275398,0
 -39.972064593,-12.459124454398,0
 -39.971783161,-12.459158020398,0
 -39.971533997,-12.459204137398,0
 -39.971368386,-12.459204732398,0
 -39.971235713,-12.459159988398,0
 -39.9710864349999,-12.459099046398,0
 -39.970919274,-12.458931468398,0
 -39.970819346,-12.458779018398,0
 -39.970719114,-12.458549701398,0
 -39.970685213,-12.4583364423979,0
 -39.970684587,-12.4581682663979,0
 -39.970684019,-12.4580154593979,0
 -39.970617199,-12.4578628903979,0
 -39.9705170430001,-12.4576489613979,0
 -39.970366611,-12.4572823863979,0
 -39.97033133,-12.4569461553979,0
 -39.970333899,-12.4566486763979,0
 -39.970435486,-12.4565027423979,0
 -39.9705761520001,-12.4562246373979,0
 -39.970787116,-12.4560511823979,0
 -39.971122415,-12.4559107423979,0
 -39.971739075,-12.4557186443979,0
 -39.972331342,-12.4556504983979,0
 -39.972931415,-12.4556998733979,0
 -39.97319692,-12.4558381713979,0
 -39.9733743469999,-12.4560454873979,0
 -39.973676227,-12.4565643243979,0
 -39.974120583,-12.4572905843979,0
 -39.974440597,-12.4577397273979,0
 -39.9747728109999,-12.4580043523979,0
 -39.975079698,-12.4581370733979,0
 -39.975228746,-12.4581365353979,0
 -39.975312542,-12.458151603398,0
 -39.975445253,-12.4582116953979,0
 -39.975677231,-12.4582416163979,0
 -39.975809774,-12.4582565073978,0
 -39.976092173,-12.4582401173979,0
 -39.9762904529999,-12.4581173323979,0
 -39.976555602,-12.4579174563979,0
 -39.976835726,-12.4575348663979,0
 -39.977066767,-12.4573197433979,0
 -39.977233013,-12.4572422753979,0
 -39.9772992649999,-12.4572420353979,0
 -39.9774816110001,-12.457287503398,0
 -39.977630773,-12.4573177033979,0
 -39.977880122,-12.4573168013979,0
 -39.977995755,-12.4572395153979,0
 -39.978011861,-12.4571174073979,0
 -39.9779947250001,-12.4569646603979,0
 -39.977977532,-12.4567965443978,0
 -39.977893991,-12.4565979093979,0
 -39.9777260289999,-12.4562169583979,0
 -39.977741332,-12.4558805463979,0
 -39.97782419,-12.4556505703979,0
 -39.97813747,-12.4552823403978,0
 -39.978252649,-12.4550839133978,0
 -39.9782189119999,-12.4549158563978,0
 -39.9781687630001,-12.4547930613978,0
 -39.978085665,-12.4547174203978,0
 -39.977903551,-12.4547334493978,0
 -39.977787915,-12.4548098093978,0
 -39.977536167,-12.4549038643978,0
 -39.977340202,-12.4549045543978,0
 -39.97722409,-12.4548588643978,0
 -39.977107019,-12.4547987163978,0
 -39.977023764,-12.4546760403978,0
 -39.97700663,-12.4545232933978,0
 -39.977022735,-12.4544011663978,0
 -39.9770883379999,-12.4542327503978,0
 -39.977113096,-12.4542096063978,0
 -39.9771378539999,-12.4541864623978,0
 -39.977287654,-12.4541407193978,0
 -39.977535845,-12.4540783243978,0
 -39.977734349,-12.4540161273978,0
 -39.977950035,-12.4538779073978,0
 -39.978164417,-12.4536330123978,0
 -39.978461712,-12.4531735103978,0
 -39.978758599,-12.4528514483978,0
 -39.978973434,-12.4527276933978,0
 -39.9791397949999,-12.4526818893978,0
 -39.97940472,-12.4526655413978,0
 -39.979619997,-12.4526647613978,0
 -39.979753075,-12.4525720603978,0
 -39.979818733,-12.4524190143977,0
 -39.9798013119999,-12.4521903273977,0
 -39.979615999,-12.4515942263977,0
 -39.97942175,-12.4508308863977,0
 -39.979447747,-12.4504021983977,0
 -39.979552313,-12.4500727033977,0
 -39.979657416,-12.4498815333977,0
 -39.979833154,-12.4496385733977,0
 -39.979902683,-12.4492920203977,0
 -39.979812873,-12.4488936023976,0
 -39.979581173,-12.4484432563976,0
 -39.979349685,-12.4478030083976,0
 -39.979153279,-12.4471970213976,0
 -39.978753007,-12.4464470743975,0
 -39.9786425759999,-12.4459501783976,0
 -39.978669109,-12.4456643533975,0
 -39.978709089,-12.4455276763975,0
 -39.978789542,-12.4453908543975,0
 -39.978937334,-12.4453035263975,0
 -39.979125709,-12.4452404393975,0
 -39.979435803,-12.4452519833975,0
 -39.9799342229999,-12.4451877913975,0
 -39.980352071,-12.4449873593976,0
 -39.980606871,-12.4447251133975,0
 -39.980781705,-12.4444884883975,0
 -39.981036675,-12.4442768873976,0
 -39.981184605,-12.4442266303975,0
 -39.981333616,-12.4442134233976,0
 -39.98141104,-12.4442538263975,0
 -39.981614499,-12.4442892533975,0
 -39.981813225,-12.4442885323976,0
 -39.98192874,-12.4441814323975,0
 -39.9820120149999,-12.4440590603976,0
 -39.982044792,-12.4439667043975,0
 -39.982114338,-12.4436255773976,0
 -39.982098739,-12.4433905503974,0
 -39.981961575,-12.4428810873975,0
 -39.981852307,-12.4422033443974,0
 -39.981838138,-12.4421030293975,0
 -39.981871342,-12.4413922153975,0
 -39.982010288,-12.4409070633975,0
 -39.982339344,-12.4405812523974,0
 -39.982679647,-12.4403051573974,0
 -39.982975911,-12.4400680723974,0
 -39.983338736,-12.4396689183973,0
 -39.98349871,-12.4393952733973,0
 -39.983656797,-12.4383747773974,0
 -39.983721973,-12.4376041633973,0
 -39.98377393,-12.4372314533973,0
 -39.983894379,-12.4369696923973,0
 -39.983933702,-12.4366594133973,0
 -39.984053917,-12.4363352853973,0
 -39.984228695,-12.4360859933973,0
 -39.984469767,-12.4358491263973,0
 -39.984752608,-12.4357115663973,0
 -39.985062454,-12.4356607003972,0
 -39.985412978,-12.4356594243972,0
 -39.986128681,-12.4356459663973,0
 -39.986710654,-12.4355398683973,0
 -39.987063669,-12.4354698623973,0
 -39.987274929,-12.4353822993973,0
 -39.987416158,-12.4352606223973,0
 -39.987556117,-12.4350521383973,0
 -39.987519988,-12.4347403383972,0
 -39.987413276,-12.4344974973972,0
 -39.9872702179999,-12.4341345333972,0
 -39.9872518189999,-12.4338922773971,0
 -39.987339388,-12.4336912253972,0
 -39.987496896,-12.4334998623972,0
 -39.987708574,-12.4332739513971,0
 -39.987830932,-12.4330302743972,0
 -39.98784696,-12.4326495643972,0
 -39.987739989,-12.4323380043972,0
 -39.987491071,-12.4319573353972,0
 -39.9870662489999,-12.4315257913971,0
 -39.987004123,-12.4314566183971,0
 -39.986817744,-12.4312490973971,0
 -39.9866433819999,-12.4308781183971,0
 -39.986578805,-12.4305862913971,0
 -39.986577206,-12.4301622393971,0
 -39.986687307,-12.4298408513971,0
 -39.986876903,-12.4296204473971,0
 -39.987082599,-12.4295175163971,0
 -39.9874149679999,-12.4293408863971,0
 -39.9877953950001,-12.429222874397,0
 -39.988222182,-12.4289581983971,0
 -39.98850625,-12.428664192397,0
 -39.988759231,-12.428415519397,0
 -39.9889017159999,-12.428385621397,0
 -39.9889544069999,-12.428374564397,0
 -39.98898444,-12.4283682623969,0
 -39.9890069689999,-12.428363535397,0
 -39.9890255690001,-12.428359632397,0
 -39.989044169,-12.4283557293971,0
 -39.989044201,-12.428355722397,0
 -39.9890854279999,-12.428355572397,0
 -39.989097729,-12.428355527397,0
 -39.989186788,-12.428355201397,0
 -39.989393937,-12.428397831397,0
 -39.989695321,-12.428543206397,0
 -39.989997629,-12.428688595397,0
 -39.990250733,-12.428716594397,0
 -39.990583708,-12.428700914397,0
 -39.99107575,-12.428424751397,0
 -39.991076672,-12.428424233397,0
 -39.991154722,-12.428382357397,0
 -39.991347271,-12.428211659397,0
 -39.991828003,-12.427621276397,0
 -39.9922122319999,-12.427051133397,0
 -39.99252027,-12.426765183397,0
 -39.993021339,-12.426441471397,0
 -39.9934457689999,-12.426287995397,0
 -39.993832007,-12.426248617397,0
 -39.994160148,-12.426171453397,0
 -39.994507383,-12.426037258397,0
 -39.995046369,-12.4255235043969,0
 -39.996562898,-12.4245069843969,0
 -39.996563135,-12.4245068253969,0
 -39.996598054,-12.4244834203969,0
 -39.996598121,-12.4244833683968,0
 -39.996598275,-12.4244832513969,0
 -39.9966491389999,-12.4244443753969,0
 -39.996943356,-12.424219503397,0
 -39.997333027,-12.4239216763969,0
 -39.997344371,-12.4239130063969,0
 -39.997430126,-12.4238474623969,0
 -39.997445589,-12.4238356443969,0
 -39.997445638,-12.4238356073969,0
 -39.9974625699999,-12.4238204113969,0
 -39.997479501,-12.4238052173969,0
 -39.9974796939999,-12.4238050433969,0
 -39.998061731,-12.423282693397,0
 -39.9983116449999,-12.4229598793969,0
 -39.998445001,-12.4224666123968,0
 -39.998462448,-12.4219728663969,0
 -39.998286909,-12.4215376983968,0
 -39.997975359,-12.4208941513969,0
 -39.9977611049999,-12.4204392373968,0
 -39.997874861,-12.4198700833969,0
 -39.997914096,-12.4197885543968,0
 -39.997971333,-12.4195957583967,0
 -39.998065132,-12.4193467573967,0
 -39.998364893,-12.4190680723968,0
 -39.998696997,-12.4188326553968,0
 -39.999301272,-12.4187071373968,0
 -40.000023091,-12.4187196783967,0
 -40.001459264,-12.4180294973967,0
 -40.00186107,-12.4177341553967,0
 -40.003260472,-12.4168220753967,0
 -40.004303468,-12.4162883653966,0
 -40.004905264,-12.4158530253966,0
 -40.005539525,-12.4152475893966,0
 -40.006124067,-12.4146278553967,0
 -40.006875535,-12.4138827283966,0
 -40.007427704,-12.4134638443966,0
 -40.008180178,-12.4129818283965,0
 -40.008781978,-12.4125464803966,0
 -40.009317213,-12.4122669083965,0
 -40.00965166,-12.4119256973965,0
 -40.009852155,-12.4116772033966,0
 -40.009983751,-12.4112128633965,0
 -40.009980415,-12.4103475633964,0
 -40.0099228159999,-12.4099598883964,0
 -40.009881045,-12.4096263923965,0
 -40.00986139,-12.4095369513964,0
 -40.009779029,-12.4089323593965,0
 -40.009754543,-12.4085472823965,0
 -40.0098462420001,-12.4082313633965,0
 -40.0100933129999,-12.4078968103964,0
 -40.010351958,-12.4076960223964,0
 -40.010889359,-12.4075023253964,0
 -40.0111447919999,-12.4074263403964,0
 -40.011924479,-12.4070897813964,0
 -40.012203369,-12.4068925273964,0
 -40.0127417099999,-12.4067087853964,0
 -40.013330742,-12.4065483523964,0
 -40.013858748,-12.4065472873964,0
 -40.0141026539999,-12.4065798183964,0
 -40.014510855,-12.4067573213964,0
 -40.0148246579999,-12.4067905163964,0
 -40.015120816,-12.4067767423964,0
 -40.015596801,-12.4066429483963,0
 -40.016500783,-12.4060979583964,0
 -40.017229387,-12.4056404343964,0
 -40.018006822,-12.4051980753963,0
 -40.019084993,-12.4045059503963,0
 -40.019830605,-12.4041658863963,0
 -40.021464671,-12.4033097993963,0
 -40.022114566,-12.4027214543963,0
 -40.022604003,-12.4020306253963,0
 -40.0228885889999,-12.4014138053962,0
 -40.023027694,-12.4005199353963,0
 -40.02308933,-12.4000504293962,0
 -40.022975517,-12.3994061863962,0
 -40.022734697,-12.3987479403961,0
 -40.022078663,-12.3979954293961,0
 -40.021685006,-12.3977717553962,0
 -40.02078983,-12.3974957283961,0
 -40.020329503,-12.3973925753961,0
 -40.019979234,-12.3972031223961,0
 -40.0197711179999,-12.3969109363961,0
 -40.019753946,-12.3965158713962,0
 -40.019831509,-12.3961195623961,0
 -40.0200995,-12.395488326396,0
 -40.020510174,-12.394886403396,0
 -40.02087506,-12.394577620396,0
 -40.021112676,-12.394414883396,0
 -40.021254103,-12.394121383396,0
 -40.021553998,-12.393416807396,0
 -40.021648165,-12.3932699783961,0
 -40.021791598,-12.393254958396,0
 -40.0219344680001,-12.3933276763961,0
 -40.0221425640001,-12.3936198423961,0
 -40.022637878,-12.394203893396,0
 -40.023164754,-12.394861951396,0
 -40.023531876,-12.395358784396,0
 -40.023835921,-12.395723824396,0
 -40.024186036,-12.395868978396,0
 -40.024503615,-12.3959265543961,0
 -40.024869387,-12.395845604396,0
 -40.025332072,-12.395843857396,0
 -40.026279287,-12.395785132396,0
 -40.027252453,-12.395541834396,0
 -40.027669119,-12.395300658396,0
 -40.027808136,-12.395095772396,0
 -40.0280509430001,-12.394855253396,0
 -40.028152483,-12.3942400293961,0
 -40.02815074,-12.393795169396,0
 -40.02811459,-12.393487895396,0
 -40.02727096,-12.3913382303959,0
 -40.027159621,-12.391096330396,0
 -40.026814521,-12.3903489683959,0
 -40.026357433,-12.3891879193958,0
 -40.026251482,-12.3886756403959,0
 -40.026248944,-12.3880264593958,0
 -40.026454598,-12.3872218513958,0
 -40.02652023,-12.3861284523957,0
 -40.026410004,-12.3845221313957,0
 -40.026433988,-12.3843014223957,0
 -40.026735288,-12.3825552203957,0
 -40.026921151,-12.3818646253957,0
 -40.026985144,-12.3817640173957,0
 -40.027719805,-12.3809935923956,0
 -40.029079187,-12.3795652593956,0
 -40.029354135,-12.3793101573956,0
 -40.029646135,-12.3791860753955,0
 -40.0300353659999,-12.3789929063955,0
 -40.030323682,-12.3786310543956,0
 -40.030458476,-12.3785238443956,0
 -40.030995881,-12.3781203453955,0
 -40.031692526,-12.3777433693955,0
 -40.032731026,-12.3772900603955,0
 -40.03333003,-12.3768836193955,0
 -40.033702293,-12.3765829223955,0
 -40.033992882,-12.3761016933955,0
 -40.034105231,-12.3756672503954,0
 -40.034184286,-12.3751877333954,0
 -40.034134181,-12.3748434413954,0
 -40.034084254,-12.3745443493954,0
 -40.034099043,-12.3740949083954,0
 -40.034260531,-12.3737642733954,0
 -40.034455507,-12.3735239143954,0
 -40.03482824,-12.3731147203954,0
 -40.035412906,-12.3725717813954,0
 -40.035917356,-12.3722091003953,0
 -40.036275228,-12.3719970633954,0
 -40.0367467789999,-12.3716941703953,0
 -40.037169424,-12.3713471683953,0
 -40.037494571,-12.3710005203953,0
 -40.037713697,-12.3705900943953,0
 -40.037741524,-12.3705316673953,0
 -40.03776935,-12.3704732393953,0
 -40.038076927,-12.3698708003953,0
 -40.038320384,-12.3695687753953,0
 -40.038774975,-12.3691610603953,0
 -40.039100592,-12.3689346803952,0
 -40.039360099,-12.3687383833952,0
 -40.039895061,-12.3679542123952,0
 -40.040332628,-12.3672011713953,0
 -40.040461452,-12.3667494973952,0
 -40.04046044,-12.3664936253953,0
 -40.0404120109999,-12.3661077193951,0
 -40.040165018,-12.3658715093951,0
 -40.039765682,-12.3655933833951,0
 -40.038881355,-12.3649535893951,0
 -40.03794011,-12.3643139903951,0
 -40.037391344,-12.3639382493951,0
 -40.036842578,-12.3635625083951,0
 -40.036142405,-12.3630326083951,0
 -40.035631459,-12.362439601395,0
 -40.03545045,-12.362019847395,0
 -40.035326771,-12.3613882013951,0
 -40.035318951,-12.3613482623951,0
 -40.035318123,-12.3613440343951,0
 -40.035320475,-12.361125664395,0
 -40.035321652,-12.3610164803951,0
 -40.035322828,-12.360907295395,0
 -40.035438447,-12.3606021483951,0
 -40.0356968939999,-12.360372398395,0
 -40.036079332,-12.360093364395,0
 -40.0364376009999,-12.3599862093949,0
 -40.036844897,-12.359954827395,0
 -40.037511845,-12.359990247395,0
 -40.0386026149999,-12.359870250395,0
 -40.038613958,-12.359869002395,0
 -40.038882556,-12.3598394533949,0
 -40.038883106,-12.359839354395,0
 -40.0391306,-12.3597945413949,0
 -40.039290625,-12.3597655653949,0
 -40.040088495,-12.3596567283949,0
 -40.040592976,-12.359309391395,0
 -40.040600521,-12.3592994543949,0
 -40.040932418,-12.3588623383949,0
 -40.041457736,-12.357974245395,0
 -40.041702777,-12.3576098263949,0
 -40.041782599,-12.3574424233948,0
 -40.0419964909999,-12.3569938453949,0
 -40.0420861209999,-12.3568678233949,0
 -40.042235612,-12.3565281943949,0
 -40.04257866,-12.3560612193949,0
 -40.042944684,-12.3558265333949,0
 -40.043245844,-12.3556979053948,0
 -40.0435479939999,-12.3555909563949,0
 -40.044172709,-12.3554194783949,0
 -40.044582647,-12.3553537053949,0
 -40.04556387,-12.3553318673949,0
 -40.0459096019999,-12.3553097443949,0
 -40.046101678,-12.3552746383949,0
 -40.046374826,-12.3552735883949,0
 -40.046935303,-12.3551385153949,0
 -40.0474157639999,-12.3550028603949,0
 -40.048100801,-12.3549676713949,0
 -40.048404707,-12.3550659593949,0
 -40.04869933,-12.3551462093948,0
 -40.049297686,-12.3552858603949,0
 -40.049702871,-12.3554171993949,0
 -40.050141958,-12.3555149633949,0
 -40.050546761,-12.3555459563949,0
 -40.05081616,-12.3555259363948,0
 -40.051217404,-12.3553589153948,0
 -40.051296943,-12.3552401703949,0
 -40.051328482,-12.3550772983949,0
 -40.051359725,-12.3548402823948,0
 -40.051422323,-12.3543988053948,0
 -40.051514559,-12.3535403833948,0
 -40.051592639,-12.3528302873948,0
 -40.051749786,-12.3521054413948,0
 -40.051988733,-12.3516018043948,0
 -40.052274755,-12.3511422793947,0
 -40.052610562,-12.3507123943947,0
 -40.052801528,-12.3504006173947,0
 -40.052927707,-12.3499869293947,0
 -40.0530688400001,-12.3491726133947,0
 -40.053131681,-12.3487880943947,0
 -40.05311387,-12.3475557663947,0
 -40.053213329,-12.3471249973946,0
 -40.053380814,-12.3466930583946,0
 -40.053432025,-12.3466223453946,0
 -40.053716473,-12.3462279153946,0
 -40.054265068,-12.3456570643946,0
 -40.055173264,-12.3448587773945,0
 -40.055744339,-12.3441603633946,0
 -40.055839458,-12.3440297793946,0
 -40.05603113,-12.3438961363945,0
 -40.056382817,-12.3437618553945,0
 -40.056976672,-12.3437007783945,0
 -40.057569008,-12.3434914183945,0
 -40.058064362,-12.3431784753945,0
 -40.0587668899999,-12.3424659533944,0
 -40.059373639,-12.3417248963944,0
 -40.0597561389999,-12.3412496203944,0
 -40.060007222,-12.3410253043944,0
 -40.060316787,-12.3409373093944,0
 -40.060444734,-12.3409666433945,0
 -40.060621777,-12.3410835043944,0
 -40.060912448,-12.3415561613945,0
 -40.061363667,-12.3421602053944,0
 -40.06197583,-12.3427645093945,0
 -40.0625062459999,-12.3431611983945,0
 -40.063117936,-12.3436470633945,0
 -40.063631302,-12.3439253413945,0
 -40.064162031,-12.3441746443945,0
 -40.064466851,-12.3442774293945,0
 -40.064723967,-12.3444093433945,0
 -40.064901197,-12.3445714013945,0
 -40.0650621889999,-12.3448076663946,0
 -40.065305447,-12.3453826643945,0
 -40.065597284,-12.3461356103947,0
 -40.065919174,-12.3465927693946,0
 -40.066240969,-12.3467985733946,0
 -40.066594536,-12.3469011653946,0
 -40.066906768,-12.3470147693946,0
 -40.0670236339999,-12.3470324033946,0
 -40.06790071,-12.3469620453946,0
 -40.069268973,-12.3464593943946,0
 -40.0700216,-12.3460911463946,0
 -40.0706788849999,-12.3457974343947,0
 -40.071255278,-12.3455139633946,0
 -40.072198221,-12.3449044573945,0
 -40.073141517,-12.3441611403945,0
 -40.073614725,-12.3436086243946,0
 -40.073700591,-12.3434654243945,0
 -40.073843651,-12.3431402693945,0
 -40.0736981229999,-12.3428596553945,0
 -40.073552297,-12.3425057873944,0
 -40.073294033,-12.3420926993945,0
 -40.073018913,-12.3416055153945,0
 -40.072616953,-12.3411342173944,0
 -40.0722947179999,-12.3408244473944,0
 -40.072069488,-12.3406182893944,0
 -40.071971426,-12.3402497713944,0
 -40.071986355,-12.3398500693944,0
 -40.071888172,-12.3394517003943,0
 -40.071517541,-12.3389947393943,0
 -40.071243089,-12.3386703183943,0
 -40.07119437,-12.3384489853943,0
 -40.071257542,-12.3381530883944,0
 -40.071462989,-12.3373385133944,0
 -40.0716672129999,-12.3364507253943,0
 -40.071616436,-12.3359454913942,0
 -40.071614282,-12.3358695413942,0
 -40.071414293,-12.3350837053942,0
 -40.0714631769999,-12.3348963393943,0
 -40.071543267,-12.3346898703943,0
 -40.071552341,-12.3346609103943,0
 -40.0717522249999,-12.3345127443942,0
 -40.072206509,-12.3345109593943,0
 -40.072346291,-12.3345104093942,0
 -40.072444674,-12.3345045973943,0
 -40.072641591,-12.3345345623942,0
 -40.073085206,-12.3346232373942,0
 -40.073709203,-12.3347419413942,0
 -40.0752804799999,-12.3348822243943,0
 -40.075702832,-12.3349429443943,0
 -40.077026994,-12.3351438733942,0
 -40.077384947,-12.3351985123942,0
 -40.0790385089999,-12.3352181963943,0
 -40.079472269,-12.3351441503943,0
 -40.079868354,-12.3350774753943,0
 -40.0803581819999,-12.3349941703943,0
 -40.0809714,-12.3347295343942,0
 -40.081689399,-12.3342284773943,0
 -40.082299991,-12.3335452273941,0
 -40.0826442009999,-12.3329407683941,0
 -40.083109652,-12.3318530243942,0
 -40.0834528480001,-12.3309981213941,0
 -40.083876921,-12.3303608093941,0
 -40.0843994629999,-12.3297393633941,0
 -40.084840346,-12.3293895033941,0
 -40.08523344,-12.3292667803941,0
 -40.085255494,-12.329262174394,0
 -40.085807734,-12.3291587243941,0
 -40.0862994609999,-12.3290961793941,0
 -40.086923075,-12.329124434394,0
 -40.087474154,-12.3291828273941,0
 -40.08805326,-12.329346879394,0
 -40.088335018,-12.3294361753941,0
 -40.088713934,-12.3296661313941,0
 -40.089009497,-12.3297553723941,0
 -40.089435738,-12.3298703113941,0
 -40.089697443,-12.3297779383941,0
 -40.089842015,-12.3296019463941,0
 -40.0900391719999,-12.329020695394,0
 -40.090264366,-12.3285523253941,0
 -40.09103314,-12.327212893394,0
 -40.0918823769999,-12.326214004394,0
 -40.092813306,-12.325397441394,0
 -40.093011632,-12.3253234113939,0
 -40.093335462,-12.325135848394,0
 -40.093941447,-12.324907379394,0
 -40.094319067,-12.3248299263939,0
 -40.09469824,-12.3249043453939,0
 -40.094829809,-12.324918280394,0
 -40.095123909,-12.325100662394,0
 -40.0953162129999,-12.325350337394,0
 -40.0954534059999,-12.325611992394,0
 -40.0956352689999,-12.326004570394,0
 -40.095950463,-12.326835140394,0
 -40.096281124,-12.327407960394,0
 -40.096413013,-12.327498757394,0
 -40.096724942,-12.327542704394,0
 -40.096986956,-12.3275262823939,0
 -40.097379898,-12.3273737123939,0
 -40.097723927,-12.3271752123939,0
 -40.0983285039999,-12.326613112394,0
 -40.098737094,-12.326460459394,0
 -40.099229609,-12.326368075394,0
 -40.0998034849999,-12.326380225394,0
 -40.1000988439999,-12.326425142394,0
 -40.100377976,-12.326544269394,0
 -40.100805365,-12.326708923394,0
 -40.100969358,-12.326784201394,0
 -40.101117908,-12.3269047603939,0
 -40.101233052,-12.326949515394,0
 -40.101820561,-12.326924534394,0
 -40.102237574,-12.326809821394,0
 -40.10262463,-12.326565940394,0
 -40.103260072,-12.3261275683939,0
 -40.103878382,-12.325772443394,0
 -40.104069216,-12.325668604394,0
 -40.104522976,-12.325546517394,0
 -40.10504681,-12.325468439394,0
 -40.105752131,-12.325465583394,0
 -40.106228591,-12.325493484394,0
 -40.107226836,-12.325615131394,0
 -40.108541646,-12.3257860973939,0
 -40.109048932,-12.325929600394,0
 -40.109366709,-12.3260521893939,0
 -40.109663584,-12.326238136394,0
 -40.110788079,-12.327292341394,0
 -40.111147795,-12.327767380394,0
 -40.111388989,-12.3280439713941,0
 -40.111851323,-12.328646972394,0
 -40.112248274,-12.3294473513941,0
 -40.112404116,-12.3295488813941,0
 -40.112658267,-12.329630124394,0
 -40.112869945,-12.329670852394,0
 -40.113166137,-12.3296904403941,0
 -40.113630525,-12.3296885453941,0
 -40.114412734,-12.3296021683941,0
 -40.114653415,-12.3295424153941,0
 -40.114834297,-12.329476576394,0
 -40.1149819089999,-12.3293719943941,0
 -40.115508472,-12.328850853394,0
 -40.115739369,-12.3284348993941,0
 -40.11594212,-12.327887052394,0
 -40.116137817,-12.327193664394,0
 -40.116338019,-12.326043655394,0
 -40.116363324,-12.325286768394,0
 -40.116340946,-12.324996624394,0
 -40.116372739,-12.3246863663939,0
 -40.116421775,-12.3245396913938,0
 -40.1164884210001,-12.3244254943939,0
 -40.116587251,-12.3243111663939,0
 -40.117132735,-12.3239183363939,0
 -40.117231428,-12.3237714583939,0
 -40.117296874,-12.3235912623939,0
 -40.117312599,-12.3233958983939,0
 -40.117261083,-12.3229566873939,0
 -40.1171431100001,-12.3226759753939,0
 -40.117042558,-12.322383438394,0
 -40.116641015,-12.3215867053938,0
 -40.116507911,-12.3214245013938,0
 -40.1163251519999,-12.3212624993938,0
 -40.116191405,-12.3211653963938,0
 -40.1160587149999,-12.3211008393938,0
 -40.115826714,-12.3210366873938,0
 -40.115063558,-12.3210560803938,0
 -40.11495681,-12.3210375283938,0
 -40.11457121,-12.3209658653938,0
 -40.114393173,-12.3208327763938,0
 -40.114343681,-12.3206539543939,0
 -40.114358622,-12.3204902393938,0
 -40.114423406,-12.3203706253938,0
 -40.114762276,-12.3202643593939,0
 -40.115327418,-12.3201725393938,0
 -40.116264031,-12.3198558723938,0
 -40.117135101,-12.3194797953938,0
 -40.117861069,-12.3191486133938,0
 -40.1185196399999,-12.3187544153937,0
 -40.119168738,-12.3182951543937,0
 -40.119907322,-12.3174711483938,0
 -40.1204544829999,-12.3168278533937,0
 -40.1208558779999,-12.3162891343937,0
 -40.1210159459999,-12.3158716593937,0
 -40.121031231,-12.3155732233936,0
 -40.1209311059999,-12.3149479543936,0
 -40.120848921,-12.3146499183936,0
 -40.120814839,-12.3142024983936,0
 -40.120846074,-12.3139790423937,0
 -40.120974652,-12.3137253493936,0
 -40.121183923,-12.3136349793936,0
 -40.12141006,-12.3136186803936,0
 -40.121669556,-12.3136628233936,0
 -40.122009873,-12.3139001243936,0
 -40.122447595,-12.3141216533936,0
 -40.12303583,-12.3142747523936,0
 -40.1234706679999,-12.3142503603936,0
 -40.123675355,-12.3141636233937,0
 -40.124287394,-12.3136439253936,0
 -40.1245199120001,-12.3131827503936,0
 -40.124951915,-12.3116294323936,0
 -40.1250963450001,-12.3107807353935,0
 -40.1251141609999,-12.3104298483935,0
 -40.1251764319998,-12.3099377283935,0
 -40.1252872439999,-12.3094002003934,0
 -40.125319079,-12.3091026013934,0
 -40.125285149,-12.3089083463934,0
 -40.125202966,-12.3086112153934,0
 -40.125088532,-12.3082979433934,0
 -40.1248137589999,-12.3081200503935,0
 -40.1244410459999,-12.3080474423935,0
 -40.1241652269999,-12.3078397163935,0
 -40.123970263,-12.3076171903934,0
 -40.123791658,-12.3073493883935,0
 -40.123708843,-12.3069030733933,0
 -40.123576469,-12.3062625673934,0
 -40.123574059,-12.3056956683933,0
 -40.1236512999999,-12.3048309723934,0
 -40.1237779689999,-12.3041297273933,0
 -40.123889243,-12.3037006973933,0
 -40.123894657,-12.3036762623932,0
 -40.124068567,-12.3032731963933,0
 -40.124174862,-12.3031868633932,0
 -40.124389283,-12.3030123833933,0
 -40.124613052,-12.3028740303933,0
 -40.124855414,-12.3027835213933,0
 -40.125162328,-12.3027370503933,0
 -40.125437065,-12.3026916163933,0
 -40.125776415,-12.3027046853933,0
 -40.126181113,-12.3027328563933,0
 -40.126488539,-12.3028066353933,0
 -40.126795835,-12.3028496733933,0
 -40.127151202,-12.3029530913933,0
 -40.127248921,-12.3030123623933,0
 -40.127394835,-12.3031609473933,0
 -40.127623126,-12.3036518693933,0
 -40.12775366,-12.3038592873933,0
 -40.127818599,-12.3039937393933,0
 -40.127948628,-12.3040827153933,0
 -40.1281106460001,-12.3041263503933,0
 -40.128417438,-12.3040509433932,0
 -40.128900859,-12.3037804123933,0
 -40.129464174,-12.3032708523933,0
 -40.130253837,-12.3025822353932,0
 -40.130985476,-12.3018721583933,0
 -40.132143083,-12.3007905143932,0
 -40.1329034359999,-12.3001318503932,0
 -40.133161845,-12.2997103453932,0
 -40.13325796,-12.2993953003932,0
 -40.133273224,-12.2990950563932,0
 -40.133125231,-12.2986761393931,0
 -40.132731954,-12.2980927773932,0
 -40.132404623,-12.2974494673931,0
 -40.1323214399999,-12.2971342603931,0
 -40.132352468,-12.2968646923931,0
 -40.1325307989999,-12.2966388183931,0
 -40.133146555,-12.2961416933931,0
 -40.133730125,-12.2956437963932,0
 -40.1339714659999,-12.295103013393,0
 -40.133904663,-12.2945336703931,0
 -40.133573778,-12.293274643393,0
 -40.1331631429999,-12.292286290393,0
 -40.132942967,-12.2917573643929,0
 -40.132731093,-12.2913418763929,0
 -40.132519219,-12.2909263873929,0
 -40.132272938,-12.2903125783929,0
 -40.132139365,-12.2896087903929,0
 -40.132067604,-12.2880937153929,0
 -40.132128139,-12.2869840603928,0
 -40.132191044,-12.2864286463928,0
 -40.132236181,-12.2855884943928,0
 -40.132167249,-12.2847343483927,0
 -40.132034341,-12.2839699783927,0
 -40.132013815,-12.2830396823927,0
 -40.1320615829999,-12.2828148013927,0
 -40.132109351,-12.2825899203927,0
 -40.13223483,-12.2822620953926,0
 -40.1324663299999,-12.2817864543926,0
 -40.1328515729999,-12.2811429073927,0
 -40.133157593,-12.2806787113926,0
 -40.133316851,-12.2800804023926,0
 -40.1333316129999,-12.2796626193926,0
 -40.133249681,-12.2794233563926,0
 -40.133038118,-12.2791855323925,0
 -40.132534852,-12.2788892413925,0
 -40.1317343439999,-12.2785290773926,0
 -40.131586932,-12.2784573533926,0
 -40.131263549,-12.2780852703925,0
 -40.131013239,-12.2778159603925,0
 -40.130968912,-12.2777700313926,0
 -40.1305557389999,-12.2768241753925,0
 -40.130377959,-12.2758836773924,0
 -40.130286755,-12.2751941783924,0
 -40.130313603,-12.2745909923925,0
 -40.130342595,-12.2744905113924,0
 -40.1304595729999,-12.2738941863924,0
 -40.1305881869999,-12.2736549573924,0
 -40.130813463,-12.2734451663924,0
 -40.131266269,-12.2733384143924,0
 -40.131541827,-12.2732776023924,0
 -40.13202713,-12.2732457603924,0
 -40.132561226,-12.2732290873924,0
 -40.132917817,-12.2731977763924,0
 -40.133387231,-12.2731054193923,0
 -40.133903169,-12.2729278773924,0
 -40.134138752,-12.2727641543924,0
 -40.134953853,-12.2718123153924,0
 -40.135677858,-12.2701999113923,0
 -40.136191386,-12.2688180353923,0
 -40.136380599,-12.2681328023922,0
 -40.136635892,-12.2672067883922,0
 -40.136875785,-12.2661198973922,0
 -40.136889886,-12.2659778863923,0
 -40.136969332,-12.2643509733921,0
 -40.136965437,-12.2634423083922,0
 -40.137045565,-12.2619745243921,0
 -40.137109486,-12.260586373392,0
 -40.137260137,-12.2594853863919,0
 -40.137306628,-12.258320635392,0
 -40.137165041,-12.257460461392,0
 -40.136955047,-12.2565119633919,0
 -40.136789778,-12.2561319963919,0
 -40.136496365,-12.2556684733918,0
 -40.136066531,-12.2551205233919,0
 -40.1358214459999,-12.2545636703919,0
 -40.135698695,-12.2540216813918,0
 -40.135712787,-12.2534474813917,0
 -40.135917683,-12.2527766503917,0
 -40.13638046,-12.2517864863918,0
 -40.137051537,-12.2509220423917,0
 -40.138185413,-12.2492907583917,0
 -40.138719169,-12.2487776943917,0
 -40.1390926999999,-12.2484171933917,0
 -40.1397906289999,-12.2476014563916,0
 -40.140256968,-12.2470181453916,0
 -40.1404883009999,-12.2467269493916,0
 -40.140615394,-12.2465663853915,0
 -40.1407405849999,-12.2461770763917,0
 -40.140879011,-12.2460869893916,0
 -40.141017438,-12.2459969023916,0
 -40.141277562,-12.2459356133916,0
 -40.141294785,-12.2459315543916,0
 -40.141665549,-12.2459987293916,0
 -40.1418388129999,-12.2461001793916,0
 -40.1421868650001,-12.2466575023916,0
 -40.142379077,-12.2471033573916,0
 -40.142397339,-12.2475020163916,0
 -40.142280272,-12.2482836973917,0
 -40.14218044,-12.2492253423916,0
 -40.142288641,-12.2502294133917,0
 -40.142428184,-12.2506121963917,0
 -40.142775072,-12.2508973703918,0
 -40.14355502,-12.2511970163918,0
 -40.144350694,-12.2513058153918,0
 -40.145129475,-12.2513342133918,0
 -40.145975596,-12.2512031963918,0
 -40.146891032,-12.2509444003918,0
 -40.147737449,-12.2506696153917,0
 -40.148635481,-12.2504262573917,0
 -40.1490845339999,-12.2503131673917,0
 -40.149603222,-12.2503589153916,0
 -40.150451082,-12.2504186553917,0
 -40.1512281789999,-12.2502716363917,0
 -40.152058299,-12.2502681533917,0
 -40.152940197,-12.2501215943917,0
 -40.153924563,-12.2498615823917,0
 -40.154344894,-12.2496979713917,0
 -40.154787102,-12.2494917723916,0
 -40.1550280399999,-12.2492990783917,0
 -40.155580479,-12.2490734273917,0
 -40.156269366,-12.2487269473917,0
 -40.156531281,-12.2484961893917,0
 -40.156908985,-12.2478336603917,0
 -40.157111353,-12.2472288313916,0
 -40.157169258,-12.2470152073915,0
 -40.157197306,-12.2469120153916,0
 -40.157306847,-12.2467343393916,0
 -40.157464568,-12.2462210183916,0
 -40.1576249299999,-12.2458921343916,0
 -40.157801569,-12.2457123663916,0
 -40.158106919,-12.2453241013916,0
 -40.158266957,-12.2449210773916,0
 -40.15828201,-12.2445783383914,0
 -40.158198903,-12.2440714583915,0
 -40.158148168,-12.2436096483915,0
 -40.158114903,-12.2431486703915,0
 -40.1582296470001,-12.2426888753915,0
 -40.158198644,-12.2421139633915,0
 -40.158020559,-12.2415396713914,0
 -40.1577551050001,-12.2411673743914,0
 -40.1572973899999,-12.2407642413914,0
 -40.157035034,-12.2404696873914,0
 -40.1569378629999,-12.2403209103914,0
 -40.156887911,-12.2400381203914,0
 -40.156887065,-12.2398437303914,0
 -40.15707301,-12.2394794763914,0
 -40.1571623249999,-12.2393018863914,0
 -40.157305982,-12.2387262383913,0
 -40.1573036039999,-12.2381801373913,0
 -40.1572426469999,-12.2376921503913,0
 -40.15715294,-12.2373570863913,0
 -40.157072578,-12.2370572453913,0
 -40.156938452,-12.2366545563913,0
 -40.156969068,-12.2362963813913,0
 -40.157096789,-12.2360725173914,0
 -40.157402583,-12.2357882283912,0
 -40.157869966,-12.2354580513913,0
 -40.158144298,-12.2353375473912,0
 -40.158423229,-12.2352179273912,0
 -40.158431483,-12.2352133713912,0
 -40.158899,-12.2351255063913,0
 -40.1595335879999,-12.2351951613913,0
 -40.159986648,-12.2353758893912,0
 -40.160423479,-12.2354183483913,0
 -40.160859327,-12.2354463453913,0
 -40.161182638,-12.2353853053913,0
 -40.16161751,-12.2351899783912,0
 -40.161891385,-12.2349654943912,0
 -40.1621646079999,-12.2345918273913,0
 -40.162308215,-12.2342178043912,0
 -40.162403377,-12.2336966093912,0
 -40.162529397,-12.2330848683912,0
 -40.162658028,-12.2328600933911,0
 -40.16280268,-12.2327256663911,0
 -40.163045095,-12.2326649673912,0
 -40.163433008,-12.2326633253912,0
 -40.164193005,-12.2328237593912,0
 -40.16493646,-12.2329851663911,0
 -40.1653569389999,-12.2330728953913,0
 -40.165616355,-12.2331160983912,0
 -40.1658091980001,-12.2330709773913,0
 -40.165954963,-12.2329808483911,0
 -40.1660825449999,-12.2327271433912,0
 -40.166161668,-12.2323235553912,0
 -40.166176842,-12.2320106543911,0
 -40.1664004889999,-12.2314437053911,0
 -40.16675407,-12.2309503453911,0
 -40.167267988,-12.2303369563912,0
 -40.167604234,-12.2296646473911,0
 -40.1677034919999,-12.2294508453911,0
 -40.167749056,-12.229360236391,0
 -40.167814471,-12.2291850053911,0
 -40.167865302,-12.2290488403911,0
 -40.1678798860001,-12.2290097733911,0
 -40.167960944,-12.2286287803911,0
 -40.168091589,-12.2284455863911,0
 -40.168453609,-12.2282008313911,0
 -40.168667248,-12.2280778633911,0
 -40.168898821,-12.228061508391,0
 -40.1692611239999,-12.2280907093911,0
 -40.169524869,-12.2280742173911,0
 -40.169690124,-12.2280274023911,0
 -40.169887086,-12.227874666391,0
 -40.162641656,-12.2232444473909,0
 -40.162161481,-12.2229375893909,0
 -40.162035567,-12.2228571233908,0
 -40.162002362,-12.2228359033909,0
 -40.161995095,-12.2228312593909,0
 -40.161994458,-12.2228308523909,0
 -40.066819799,-12.162009118389,0
 -40.065933657,-12.161442825389,0
 -40.065919379,-12.161433701389,0
 -40.050684126,-12.1516975543888,0
 -40.050250916,-12.1508542833887,0
 -40.030105477,-12.1116399093875,0
 -40.029711728,-12.1108734533875,0
 -40.029711712,-12.1108734223875,0
 -40.029680244,-12.1108121673875,0
 -40.0296565799999,-12.1107661033875,0
 -40.029656076,-12.1107651203875,0
 -40.0296557110001,-12.1107644073875,0
 -40.029654834,-12.1107626973874,0
 -40.029642052,-12.1107377663875,0
 -39.995708975,-12.0445481133856,0
 -39.995584267,-12.0443048603855,0
 -39.995458932,-12.0440603823856,0
 -39.995458782,-12.0440600903855,0
 -39.995458632,-12.0440597973855,0
 -39.995457808,-12.0440581913856,0
 -39.995455748,-12.0440541723856,0
 -39.995442025,-12.0440274033856,0
 -39.99542309,-12.0439904693856,0
 -39.99539872,-12.0439429323855,0
 -39.995372254,-12.0438913093855,0
 -39.995358332,-12.0438641523855,0
 -39.99534441,-12.0438369963855,0
 -39.992910246,-12.0390889323854,0
 -39.989982402,-12.0333778983853,0
 -39.98667713,-12.026930654385,0
 -39.981865319,-12.0175447653847,0
 -39.975187375,-12.0045188093842,0
 -39.969930736,-11.994265241384,0
 -39.967868103,-11.9902418813839,0
 -39.967582716,-11.9896852083838,0
 -39.967562503,-11.9896457813839,0
 -39.967542291,-11.9896063553839,0
 -39.967541478,-11.9896047693839,0
 -39.9675406479999,-11.9896031493839,0
 -39.9675400829999,-11.9896020473839,0
 -39.96753939,-11.9896006963839,0
 -39.967538734,-11.9895994173838,0
 -39.967538188,-11.9895983523838,0
 -39.967537666,-11.9895973343838,0
 -39.967537463,-11.9895969373838,0
 -39.967537362,-11.9895967403839,0
 -39.967537082,-11.9895961933838,0
 -39.967536432,-11.9895949263838,0
 -39.967509718,-11.9895428153839,0
 -39.967504167,-11.9895319903839,0
 -39.967503452,-11.9895305963838,0
 -39.967503167,-11.9895300403839,0
 -39.95991168,-11.9747221323835,0
 -39.959079443,-11.9754610163834,0
 -39.958803933,-11.9759855133835,0
 -39.958394928,-11.9766795403835,0
 -39.9584547450001,-11.9769686873835,0
 -39.958430338,-11.9773440303835,0
 -39.958414671,-11.9775895743836,0
 -39.958399003,-11.9778351183835,0
 -39.958403913,-11.9780566383835,0
 -39.958408822,-11.9782781583835,0
 -39.9584124899999,-11.9785340533836,0
 -39.9583599169999,-11.9789926763835,0
 -39.958096847,-11.9796590753836,0
 -39.9575859399999,-11.9803787833836,0
 -39.956756692,-11.9814440763835,0
 -39.956357599,-11.9818261233836,0
 -39.955772649,-11.9826364883837,0
 -39.955398493,-11.9833177453837,0
 -39.955208659,-11.9839205963837,0
 -39.954834746,-11.9844092593837,0
 -39.954454601,-11.9849666463838,0
 -39.95442996,-11.9850092303837,0
 -39.954137275,-11.9853565413838,0
 -39.953668768,-11.9855896363837,0
 -39.952258058,-11.9861252113838,0
 -39.95204889,-11.9861946263838,0
 -39.951261901,-11.9862325773838,0
 -39.951237025,-11.9862082353837,0
 -39.951202918,-11.9861749063838,0
 -39.950742241,-11.9860236553837,0
 -39.950347043,-11.9856849953838,0
 -39.949880282,-11.9856278003838,0
 -39.949628239,-11.9857868953838,0
 -39.948238712,-11.9863368613837,0
 -39.9473000369999,-11.9868599623838,0
 -39.947314882,-11.9869042273838,0
 -39.947486785,-11.9872110723838,0
 -39.947437264,-11.9880214263838,0
 -39.947468579,-11.9883115803839,0
 -39.947632766,-11.9887785063839,0
 -39.94775773,-11.9890502693839,0
 -39.947826618,-11.9893158703838,0
 -39.9478993329999,-11.9901493473839,0
 -39.947725612,-11.9909013243839,0
 -39.947399541,-11.991425965384,0
 -39.946990006,-11.9919825543839,0
 -39.9468663499999,-11.992080621384,0
 -39.9467656649999,-11.9921795353839,0
 -39.946667681,-11.9922657553839,0
 -39.946448774,-11.9924355883839,0
 -39.946193122,-11.9926136933839,0
 -39.945999679,-11.992712013384,0
 -39.945492016,-11.9930500803839,0
 -39.945049071,-11.9932459833839,0
 -39.944385324,-11.993337740384,0
 -39.943486139,-11.9933416793839,0
 -39.943151821,-11.993341897384,0
 -39.942463654,-11.9930159913839,0
 -39.94232837,-11.9929404833839,0
 -39.942109441,-11.9928444603839,0
 -39.9418825289999,-11.9928280573839,0
 -39.941679667,-11.992857665384,0
 -39.941568759,-11.992933075384,0
 -39.941447875,-11.993033871384,0
 -39.941318037,-11.9931997703839,0
 -39.941095166,-11.9932909463839,0
 -39.940856254,-11.993263730384,0
 -39.9408240499999,-11.9932475603839,0
 -39.9405084549999,-11.9930867493839,0
 -39.940154963,-11.9928573613839,0
 -39.939910327,-11.992763219384,0
 -39.9396410209999,-11.992709901384,0
 -39.9394812589999,-11.9927249003839,0
 -39.93924887,-11.9927184383839,0
 -39.938744287,-11.9928946493839,0
 -39.937202891,-11.9931050723839,0
 -39.936336858,-11.9931332833839,0
 -39.935812062,-11.9933023163839,0
 -39.935341905,-11.9935896103839,0
 -39.93517318,-11.993678804384,0
 -39.9343468919999,-11.994045971384,0
 -39.9337124379999,-11.9941086803841,0
 -39.932265521,-11.9942934463841,0
 -39.9312884939999,-11.994363604384,0
 -39.93126925,-11.994374520384,0
 -39.930701129,-11.9947688373841,0
 -39.930378524,-11.995240115384,0
 -39.930197988,-11.9956268103841,0
 -39.930131502,-11.995794328384,0
 -39.929839,-11.996207598384,0
 -39.929416084,-11.9966213563841,0
 -39.9291157609999,-11.9968990403841,0
 -39.928801519,-11.9971333803841,0
 -39.9286768979999,-11.9972214983841,0
 -39.928079447,-11.9973645543841,0
 -39.928019723,-11.9973593263842,0
 -39.9277871729999,-11.9973067443841,0
 -39.927368373,-11.9970495193841,0
 -39.927140655,-11.9968034203841,0
 -39.9270264939999,-11.9967215013842,0
 -39.92687744,-11.9966451423841,0
 -39.926726739,-11.9966266603841,0
 -39.926579843,-11.996647942384,0
 -39.926464284,-11.996696232384,0
 -39.926373573,-11.9967607373841,0
 -39.926119634,-11.9969008373841,0
 -39.92593082,-11.9970136103841,0
 -39.9258235579999,-11.9970790403841,0
 -39.9257353889999,-11.9970838503841,0
 -39.925540523,-11.9970383833841,0
 -39.924776476,-11.9968103133841,0
 -39.92463715,-11.9967868713841,0
 -39.924291049,-11.9967286393841,0
 -39.9242359949999,-11.9967193753841,0
 -39.924180941,-11.9967101123841,0
 -39.924082795,-11.9967511223841,0
 -39.923770886,-11.9968597813842,0
 -39.923509628,-11.9970107373841,0
 -39.923252151,-11.9971951433841,0
 -39.923184256,-11.9972206823842,0
 -39.92242003,-11.9988263983842,0
 -39.9223167769999,-11.9989867943841,0
 -39.9221503369999,-11.9994684023841,0
 -39.922107812,-11.9996584143843,0
 -39.9221045,-11.9997687403842,0
 -39.9221025109999,-12.0002572693842,0
 -39.921889568,-12.0005778433842,0
 -39.921494808,-12.0009073863842,0
 -39.921302778,-12.0011602983842,0
 -39.921175245,-12.0014726643842,0
 -39.9210481149999,-12.0019035123842,0
 -39.920985987,-12.0025420913843,0
 -39.920919963,-12.0031137943843,0
 -39.9207978319999,-12.0039424613843,0
 -39.920756874,-12.0048549733843,0
 -39.920936347,-12.0055063313844,0
 -39.921136371,-12.0059831023844,0
 -39.921292413,-12.0062213123844,0
 -39.921403978,-12.0066124843844,0
 -39.921383185,-12.0069814813844,0
 -39.921185334,-12.0074161543843,0
 -39.92094213,-12.0080173673844,0
 -39.920877242,-12.0083865093843,0
 -39.920900321,-12.0086902683845,0
 -39.920989619,-12.0090163843845,0
 -39.921234348,-12.0094062103845,0
 -39.921722537,-12.0100773473844,0
 -39.922011588,-12.0105330453845,0
 -39.922122858,-12.0108364953845,0
 -39.922123965,-12.0111619933845,0
 -39.922058712,-12.0114235443845,0
 -39.921838242,-12.0116846983846,0
 -39.921287448,-12.0120554413846,0
 -39.920715516,-12.0124226243846,0
 -39.920475862,-12.0127190813845,0
 -39.920362316,-12.0130965503846,0
 -39.920254751,-12.0138781503845,0
 -39.920037374,-12.0150516513847,0
 -39.919894509,-12.0157203483847,0
 -39.91954324,-12.0161501183846,0
 -39.919492947,-12.0162199323846,0
 -39.9192581369999,-12.0165923173846,0
 -39.918875438,-12.0169634113847,0
 -39.9183642849999,-12.0173783163847,0
 -39.9176459409999,-12.0179123463848,0
 -39.917390616,-12.0181944273848,0
 -39.917199388,-12.0184165933848,0
 -39.917037762,-12.0187028483847,0
 -39.91681917,-12.0189829743847,0
 -39.916657069,-12.0191290993847,0
 -39.916638849,-12.0191707523848,0
 -39.9166092299999,-12.0193797213848,0
 -39.9166263169999,-12.0195424253847,0
 -39.9167066819999,-12.0196750893848,0
 -39.916819196,-12.0198076473847,0
 -39.916945675,-12.0199916963848,0
 -39.917000501,-12.0201768693847,0
 -39.917001382,-12.0204372753848,0
 -39.9169514129999,-12.0206029413848,0
 -39.916822502,-12.0207841983848,0
 -39.916598822,-12.0209178593849,0
 -39.916134925,-12.0211852153849,0
 -39.915816116,-12.0214376513848,0
 -39.915529133,-12.0218671873848,0
 -39.915242851,-12.0222370543848,0
 -39.914748373,-12.0226971213848,0
 -39.91447612,-12.0228598653848,0
 -39.91425359,-12.0230676693848,0
 -39.91411017,-12.0233041403849,0
 -39.9139678,-12.0238516653849,0
 -39.913872346,-12.0241476653849,0
 -39.913745963,-12.024532378385,0
 -39.9135388629999,-12.024680445385,0
 -39.9132663899999,-12.0247844113849,0
 -39.912978929,-12.0248007393849,0
 -39.912737859,-12.0246830633849,0
 -39.9126416299999,-12.0244763023849,0
 -39.912608565,-12.0242105373849,0
 -39.912543584,-12.0240037113849,0
 -39.9124154549999,-12.023871202385,0
 -39.912238789,-12.0237831863849,0
 -39.912046739,-12.0237693313849,0
 -39.911871394,-12.0237997563849,0
 -39.911706717,-12.0239983323849,0
 -39.911640986,-12.024116066385,0
 -39.911576084,-12.0244852073849,0
 -39.911554842,-12.0247249083849,0
 -39.911401399,-12.0249858183849,0
 -39.911202498,-12.0251166903849,0
 -39.910760883,-12.0251832233849,0
 -39.910297073,-12.0252064393849,0
 -39.910143099,-12.0253154413849,0
 -39.909944581,-12.0255548313849,0
 -39.909835217,-12.0258164863849,0
 -39.909748063,-12.0261206053849,0
 -39.909594909,-12.026468329385,0
 -39.909352143,-12.026674381385,0
 -39.909064219,-12.026822708385,0
 -39.908456758,-12.027016371385,0
 -39.9078337139999,-12.027225473385,0
 -39.907306665,-12.027567170385,0
 -39.906731897,-12.0279235033851,0
 -39.905961721,-12.028360043385,0
 -39.905726976,-12.0284851303851,0
 -39.90549223,-12.028610216385,0
 -39.905333474,-12.0286577503851,0
 -39.905186639,-12.028711725385,0
 -39.9048619,-12.028831095385,0
 -39.8519422639999,-11.9765119263835,0
 -39.851913149,-11.9764831413835,0
 -39.851807811,-11.9763789983835,0
 -39.8340565800001,-11.958829187383,0
 -39.8339457449999,-11.958719610383,0
 -39.83394555,-11.958719417383,0
 -39.833855951,-11.958630835383,0
 -39.8172621539999,-11.9422253233825,0
 -39.780757815,-11.9061351913814,0
 -39.780755317,-11.9061352053813,0
 -39.761608346,-11.9062422003814,0
 -39.7616078579999,-11.9062422033814,0
 -39.761607491,-11.9062422063814,0
 -39.724550912,-11.9064492793814,0
 -39.7244481509999,-11.9064604513813,0
 -39.723956009,-11.9066371153814,0
 -39.723344446,-11.9066480553813,0
 -39.722848869,-11.9065070773814,0
 -39.722394516,-11.9063456943814,0
 -39.721919159,-11.9060421163814,0
 -39.721093188,-11.9058004003814,0
 -39.720597685,-11.9056797513814,0
 -39.720059979,-11.9054930583813,0
 -39.719467509,-11.9055016523813,0
 -39.7191024059999,-11.9055069473813,0
 -39.718406142,-11.9061037393814,0
 -39.717802483,-11.9066541803814,0
 -39.7161311739999,-11.9076639903814,0
 -39.715214232,-11.9081672933814,0
 -39.7137813159999,-11.9086990123815,0
 -39.713639111,-11.9087436893814,0
 -39.712533443,-11.9090584683815,0
 -39.711673581,-11.9092640973814,0
 -39.711141966,-11.9096343873814,0
 -39.7106007729999,-11.9102126763815,0
 -39.710278838,-11.9106981843815,0
 -39.709629951,-11.9118889483815,0
 -39.709074938,-11.9128045863815,0
 -39.70822388,-11.9139316483815,0
 -39.7076678489999,-11.9144575223817,0
 -39.707034064,-11.9150966523816,0
 -39.706152624,-11.9161966533816,0
 -39.705689261,-11.9167005863817,0
 -39.70489937,-11.9173455113817,0
 -39.704521063,-11.9177099803817,0
 -39.703872602,-11.9180018783817,0
 -39.703130437,-11.9182831563818,0
 -39.702175796,-11.9184247873817,0
 -39.701524008,-11.9185068973817,0
 -39.701439523,-11.9185043853817,0
 -39.6989874090001,-11.9187446983818,0
 -39.698189671,-11.9192123733817,0
 -39.6970978629999,-11.9199349013817,0
 -39.696898202,-11.9201442783817,0
 -39.6964246429999,-11.9206120533818,0
 -39.69563857,-11.9213220603819,0
 -39.695223643,-11.9217444823818,0
 -39.693452124,-11.9231405313819,0
 -39.692744964,-11.9238340573819,0
 -39.692432397,-11.9240572843819,0
 -39.6922984839999,-11.9241209143819,0
 -39.691784124,-11.9244422913819,0
 -39.691441952,-11.9245832893819,0
 -39.690901064,-11.9245819133819,0
 -39.689959686,-11.9245290513819,0
 -39.689225522,-11.9243572263819,0
 -39.687989262,-11.9235391593819,0
 -39.686860979,-11.9229378553818,0
 -39.68664594,-11.9228732833818,0
 -39.686430902,-11.9228087103818,0
 -39.686371132,-11.9228005943818,0
 -39.685527908,-11.9226860863818,0
 -39.684609895,-11.9228058833818,0
 -39.6838911419999,-11.9229125253818,0
 -39.682450225,-11.9232361343819,0
 -39.681169362,-11.9233079623819,0
 -39.679907547,-11.9232811763819,0
 -39.678616829,-11.9234443373819,0
 -39.6777587470001,-11.9236553073819,0
 -39.677207569,-11.9239487083819,0
 -39.676001296,-11.9248441483819,0
 -39.675200056,-11.9257684483819,0
 -39.6751241539999,-11.925898842382,0
 -39.674307573,-11.927299727382,0
 -39.673937227,-11.927940842382,0
 -39.673371684,-11.9287289343819,0
 -39.6729482169999,-11.9290627293821,0
 -39.6728084069999,-11.9291168793821,0
 -39.672172971,-11.9293629903821,0
 -39.670965388,-11.929734823382,0
 -39.67063795,-11.9299092443821,0
 -39.669423616,-11.9312803033821,0
 -39.668590699,-11.931658475382,0
 -39.668092579,-11.9318712473821,0
 -39.667500944,-11.9321593183822,0
 -39.666242181,-11.9330222863822,0
 -39.665968882,-11.9331657953822,0
 -39.6651302729999,-11.9338523263822,0
 -39.6646827399999,-11.9348607673823,0
 -39.6644301819999,-11.9356137493823,0
 -39.66407472,-11.9363416203823,0
 -39.663901744,-11.9365807853823,0
 -39.663206033,-11.9375038793823,0
 -39.663091468,-11.9383523743824,0
 -39.6631385,-11.9399428923824,0
 -39.663122079,-11.9411176043824,0
 -39.663046948,-11.9423349573825,0
 -39.662836526,-11.9430326493825,0
 -39.662828402,-11.9430950803825,0
 -39.6622869019999,-11.9439807503826,0
 -39.661645203,-11.9448494693825,0
 -39.6614429029999,-11.9451140003825,0
 -39.661060289,-11.9456429923825,0
 -39.66086527,-11.9458858013826,0
 -39.6605621909999,-11.9462581873825,0
 -39.659960973,-11.9467759493827,0
 -39.6593980229998,-11.9471597783826,0
 -39.658668424,-11.9473785223826,0
 -39.658276272,-11.9473731073826,0
 -39.656825101,-11.9469442503826,0
 -39.654842089,-11.9464696033825,0
 -39.654685959,-11.9464690593827,0
 -39.653369103,-11.9461320993825,0
 -39.652414432,-11.9459317653825,0
 -39.651513655,-11.9459935433825,0
 -39.6503843639999,-11.9465242703825,0
 -39.649037128,-11.9473050693827,0
 -39.648283123,-11.9476893173827,0
 -39.647257886,-11.9479349203826,0
 -39.6468172739999,-11.9480372383826,0
 -39.645577941,-11.9482453613827,0
 -39.645049397,-11.9488244123826,0
 -39.643391287,-11.9509858493827,0
 -39.643078296,-11.9514504693827,0
 -39.642387425,-11.9525182003828,0
 -39.642112471,-11.9531463923828,0
 -39.641874862,-11.9536434153828,0
 -39.641795499,-11.9538796143828,0
 -39.641667432,-11.9540887913828,0
 -39.641677105,-11.9542985813827,0
 -39.641708841,-11.9545164313828,0
 -39.642127156,-11.9562634713829,0
 -39.642500294,-11.9571488293829,0
 -39.6429799720001,-11.9580348323829,0
 -39.6433809989999,-11.958676866383,0
 -39.644073941,-11.9600308193829,0
 -39.644894302,-11.961279561383,0
 -39.644973111,-11.961587735383,0
 -39.6450407629999,-11.961847117383,0
 -39.645108415,-11.9621064983831,0
 -39.645115538,-11.9623976513831,0
 -39.645114993,-11.9637152263831,0
 -39.644964537,-11.9657239913832,0
 -39.644755226,-11.9669244643831,0
 -39.6444276639999,-11.9690023623832,0
 -39.644335902,-11.9694285103832,0
 -39.644088358,-11.9703884983834,0
 -39.643817155,-11.9710569453833,0
 -39.643545952,-11.9717253923833,0
 -39.642844152,-11.9732416813834,0
 -39.641432986,-11.9754133983834,0
 -39.641405407,-11.9754044233834,0
 -39.641009242,-11.9760600423835,0
 -39.640534638,-11.9769482263835,0
 -39.6404172869998,-11.9774232493835,0
 -39.6403743779999,-11.9779252353835,0
 -39.64032648,-11.9782581273835,0
 -39.640322336,-11.9784471313835,0
 -39.640166495,-11.9797514673837,0
 -39.639587195,-11.9814212033836,0
 -39.639005723,-11.9825700543837,0
 -39.638001792,-11.9841376923837,0
 -39.637262511,-11.9857562283837,0
 -39.636682309,-11.9870615463837,0
 -39.6365583369999,-11.9890331703839,0
 -39.636336551,-11.990807891384,0
 -39.63631635,-11.991595585384,0
 -39.636269582,-11.9924131563839,0
 -39.636405908,-11.994931300384,0
 -39.636494626,-11.996335456384,0
 -39.636496786,-11.9968635623841,0
 -39.636385663,-11.9972644163842,0
 -39.6360001479999,-11.9977458293841,0
 -39.635890174,-11.9978831593841,0
 -39.635615202,-11.9981411893841,0
 -39.63558588,-11.9981687043841,0
 -39.635536013,-11.9982197043841,0
 -39.635297313,-11.9984638253841,0
 -39.635008746,-11.9987589453842,0
 -39.634980618,-11.9987877133842,0
 -39.634375355,-11.9994067213841,0
 -39.634054786,-12.0001995953843,0
 -39.633950316,-12.0002861153842,0
 -39.6331883059999,-12.0008662333842,0
 -39.632388597,-12.0014160233842,0
 -39.631832861,-12.0018115473842,0
 -39.6312544049999,-12.0023156283842,0
 -39.630876928,-12.0027333613843,0
 -39.630633814,-12.0032592973843,0
 -39.630545514,-12.0036094653843,0
 -39.630547755,-12.0045734353843,0
 -39.630503723,-12.0049895273843,0
 -39.6304188539999,-12.0052302533843,0
 -39.630224975,-12.0056041423844,0
 -39.630031843,-12.0059029873844,0
 -39.629241471,-12.0069184853844,0
 -39.628660043,-12.0077291463844,0
 -39.628534046,-12.0080667123844,0
 -39.6283700559999,-12.0082542603844,0
 -39.628095595,-12.0087332433844,0
 -39.627580524,-12.0096459263845,0
 -39.62691945,-12.0109776143845,0
 -39.626693397,-12.0113371273845,0
 -39.626468291,-12.0117165293846,0
 -39.626235087,-12.0121655823846,0
 -39.625663314,-12.0131905273845,0
 -39.625269373,-12.0136498853845,0
 -39.6242957859999,-12.0145066023846,0
 -39.624148327,-12.0147022603847,0
 -39.624104493,-12.0148090693847,0
 -39.624127261,-12.0151291333846,0
 -39.6242363510001,-12.0154273183847,0
 -39.624475992,-12.0157685853846,0
 -39.62458041,-12.0160396493846,0
 -39.624673251,-12.0164545083847,0
 -39.624755233,-12.0169571193846,0
 -39.6247878249999,-12.0175475323848,0
 -39.624741115,-12.0180061133847,0
 -39.6245822309999,-12.0184206463847,0
 -39.6241994879999,-12.0189676873847,0
 -39.624013478,-12.0191634313847,0
 -39.623941087,-12.0192467843848,0
 -39.623795271,-12.0193565243847,0
 -39.622420274,-12.0194373543847,0
 -39.6213367519999,-12.0196477613847,0
 -39.620200206,-12.0199622713847,0
 -39.619392274,-12.0201693373847,0
 -39.618467981,-12.0205095743848,0
 -39.617965785,-12.0206409173849,0
 -39.6173843509999,-12.0206675183848,0
 -39.616062015,-12.0204886643849,0
 -39.615863559,-12.0204764533848,0
 -39.614934735,-12.0204396063848,0
 -39.61448758,-12.0205436903848,0
 -39.6139909679999,-12.0207075523849,0
 -39.613883615,-12.0207647553848,0
 -39.613841392,-12.0207793123848,0
 -39.612494494,-12.0215102273848,0
 -39.6118635299999,-12.0219827363848,0
 -39.6112107179999,-12.0225457423849,0
 -39.61069925,-12.0230487303849,0
 -39.610348613,-12.0235821273849,0
 -39.610093456,-12.0240990373849,0
 -39.609902479,-12.0245434673849,0
 -39.6096958469999,-12.0249870063849,0
 -39.609408189,-12.0253421223849,0
 -39.608897487,-12.0257718603849,0
 -39.6085936759999,-12.025905457385,0
 -39.6081612409999,-12.0260094993849,0
 -39.607901581,-12.026157464385,0
 -39.60788968,-12.0261611013849,0
 -39.6078263429999,-12.0261991863849,0
 -39.607442061,-12.0264830983851,0
 -39.607011124,-12.026852988385,0
 -39.606739143,-12.027237903385,0
 -39.606644598,-12.027681215385,0
 -39.606613671,-12.028228377385,0
 -39.606695103,-12.028892860385,0
 -39.606777466,-12.029175720385,0
 -39.606921662,-12.0295624343851,0
 -39.607289044,-12.0303393223851,0
 -39.607380579,-12.0306004753851,0
 -39.607528948,-12.0312195863851,0
 -39.607529639,-12.0315270513851,0
 -39.60741911,-12.0318067193851,0
 -39.607203576,-12.0323705623851,0
 -39.607133184,-12.0325271523852,0
 -39.606672937,-12.0333555833852,0
 -39.6060540409999,-12.0343100523852,0
 -39.60542644,-12.0350673943852,0
 -39.604792736,-12.0355625073853,0
 -39.604775295,-12.0355706943852,0
 -39.604154809,-12.0358189073852,0
 -39.603998652,-12.0359006373853,0
 -39.603535415,-12.0361430853853,0
 -39.603107134,-12.0364813133853,0
 -39.602742421,-12.0368926503853,0
 -39.602536456,-12.0372312863853,0
 -39.602157399,-12.0382150463854,0
 -39.601714207,-12.0392867093854,0
 -39.601350155,-12.0400064163853,0
 -39.600859765,-12.0409325593853,0
 -39.600526687,-12.0415201523854,0
 -39.600210075,-12.0420932453854,0
 -39.600205513,-12.0421059223855,0
 -39.600037142,-12.0428125403854,0
 -39.6000029629999,-12.0431553423855,0
 -39.599978771,-12.0434375263855,0
 -39.599990434,-12.0437160213855,0
 -39.600097295,-12.0442619973855,0
 -39.600416625,-12.0449114873856,0
 -39.6006556039999,-12.0453784883856,0
 -39.60097332,-12.0457160133855,0
 -39.601109595,-12.0458486553856,0
 -39.601412692,-12.0462278073856,0
 -39.601764107,-12.0468428713856,0
 -39.6018766749999,-12.0474738223856,0
 -39.601799433,-12.0482661383856,0
 -39.601689297,-12.0487357063856,0
 -39.601436383,-12.0494406913857,0
 -39.6009444529999,-12.0500874283857,0
 -39.600711534,-12.0502913893857,0
 -39.600085417,-12.0509094673857,0
 -39.599875543,-12.0511378063857,0
 -39.599267227,-12.0517031183857,0
 -39.599264563,-12.0517055933857,0
 -39.599202568,-12.0517632053857,0
 -39.5991775269999,-12.0517941643857,0
 -39.599127616,-12.0518558713857,0
 -39.598964803,-12.0520571633857,0
 -39.598727037,-12.0523511213857,0
 -39.598602818,-12.0525819973857,0</coordinates>
        </LineString>
      </Placemark>
    </Folder>
  </Document>
</kml>