<kml xmlns:xsd="http://schemas.opengis.net/kml/2.2.0/ogckml22.xsd" xmlns:xmlns="http://www.opengis.net/kml/2.2/" version="1.0">
  <Document>
    <name>PILAO ARCADO</name>
    <open>1</open>
    <Folder>
      <name>2924405</name>
      <Style id="line1">
        <LineStyle>
          <color>#ff000000</color>
          <width>3</width>
        </LineStyle>
        <BalloonStyle>
          <text>$[description]</text>
        </BalloonStyle>
      </Style>
      <Placemark>
        <name>59</name>
        <styleUrl>#line1</styleUrl>
        <LineString>
          <extrude>0</extrude>
          <altitudeMode>clampToGround</altitudeMode>
          <coordinates>-42.769984215,-9.73780164331494,0
 -42.660535508,-9.74015201831499,0
 -42.627231455,-9.74086721131501,0
 -42.627230279,-9.74086805631499,0
 -42.627229103,-9.74086890231498,0
 -42.617649638,-9.74775411731516,0
 -42.606958025,-9.75543868631549,0
 -42.606955499,-9.75544050231547,0
 -42.566718643,-9.78436063731638,0
 -42.56657523,-9.78446371431638,0
 -42.54833358,-9.79757485331682,0
 -42.445244592,-9.87166979331912,0
 -42.444570603,-9.87215422131915,0
 -42.409647506,-9.89725510631989,0
 -42.399007731,-9.90490241732007,0
 -42.3708916450001,-9.92511078032074,0
 -42.370347375,-9.92550197332069,0
 -42.36808916,-9.92712505932078,0
 -42.293413353,-9.9807981003225,0
 -42.250268369,-10.0118084453234,0
 -42.228348656,-10.0275631813239,0
 -42.227015046,-10.0285217093239,0
 -42.226755112,-10.0287085363239,0
 -42.226583627,-10.028831791324,0
 -42.226497019,-10.0288940403239,0
 -42.227972446,-10.0317054713241,0
 -42.228001525,-10.0317608813241,0
 -42.23014161,-10.0358388203242,0
 -42.230859492,-10.0365201303241,0
 -42.231577374,-10.0372014403242,0
 -42.242387424,-10.0474607763246,0
 -42.249982419,-10.0508447203246,0
 -42.257577414,-10.0542286633247,0
 -42.277959301,-10.0544712943247,0
 -42.29249964,-10.0534326973247,0
 -42.312492592,-10.0487590203245,0
 -42.328331158,-10.0401906183242,0
 -42.346506569,-10.0336994013241,0
 -42.35502951,-10.0322366853241,0
 -42.361844877,-10.0362890593242,0
 -42.370098693,-10.0434106003245,0
 -42.376917589,-10.0474508963245,0
 -42.383396173,-10.0493671863246,0
 -42.393158718,-10.0517617753246,0
 -42.399769548,-10.0575676313249,0
 -42.402911103,-10.061756368325,0
 -42.406052659,-10.0659451043251,0
 -42.411578629,-10.0733130703253,0
 -42.414710012,-10.0792074423255,0
 -42.41581279,-10.0837761353257,0
 -42.415814599,-10.0837836283257,0
 -42.415816408,-10.0837911223258,0
 -42.415820025,-10.0838061093257,0
 -42.41582726,-10.0838360823257,0
 -42.415834495,-10.0838660563257,0
 -42.415838112,-10.0838810433257,0
 -42.415839921,-10.0838885363257,0
 -42.41584173,-10.0838960303256,0
 -42.4159993959999,-10.0845492223257,0
 -42.415926566,-10.0893976973259,0
 -42.416883975,-10.0913942353258,0
 -42.4178413840001,-10.0933907733259,0
 -42.4231002449999,-10.1043573153263,0
 -42.424375322,-10.1086790603264,0
 -42.426682945,-10.1123632683266,0
 -42.431547711,-10.1201300383268,0
 -42.4315746419998,-10.1201730343268,0
 -42.431576766,-10.1201764243268,0
 -42.432987266,-10.1224283373269,0
 -42.4330927139999,-10.1225966893268,0
 -42.433092784,-10.1225968003268,0
 -42.433101155,-10.1226239573269,0
 -42.4354691679999,-10.1303060483271,0
 -42.435466134,-10.1303212693271,0
 -42.4344193,-10.1355723593273,0
 -42.433606089,-10.1369954813272,0
 -42.433586896,-10.1370290693273,0
 -42.432044405,-10.1397284323274,0
 -42.431735133,-10.1402696593273,0
 -42.431684182,-10.1403588243274,0
 -42.431472127,-10.1407299203274,0
 -42.426314546,-10.1445981103275,0
 -42.4206043700001,-10.1469926863277,0
 -42.417657193,-10.1506766683277,0
 -42.4130522209999,-10.1644915963282,0
 -42.410595728,-10.1698337863283,0
 -42.408753709,-10.1738396673285,0
 -42.4081392359999,-10.1751759753285,0
 -42.405759742,-10.1840314763288,0
 -42.405467022,-10.1851208613288,0
 -42.404021925,-10.189997648329,0
 -42.403282122,-10.195281955329,0
 -42.402380726,-10.2017205023293,0
 -42.402638268,-10.2097042993295,0
 -42.40374288,-10.2134345673297,0
 -42.404847493,-10.2171648353298,0
 -42.40572877,-10.22258139233,0
 -42.405578607,-10.22598236533,0
 -42.405315204,-10.2319480273302,0
 -42.4050744039999,-10.2331209783303,0
 -42.403693272,-10.2398485473305,0
 -42.402638268,-10.2449875343307,0
 -42.4030245809999,-10.2491082043307,0
 -42.404646696,-10.2530793353309,0
 -42.407493893,-10.256109143331,0
 -42.411459561,-10.2596910373311,0
 -42.413934054,-10.2619260633312,0
 -42.416488869,-10.2642336383312,0
 -42.420279885,-10.2655522523313,0
 -42.424565382,-10.2655522523313,0
 -42.430251906,-10.2666236263313,0
 -42.434867057,-10.2693432683314,0
 -42.437389056,-10.2718900673314,0
 -42.439977929,-10.2757733763316,0
 -42.443082882,-10.2804308063317,0
 -42.447723546,-10.2873918023319,0
 -42.451184909,-10.292583846332,0
 -42.453822138,-10.2954683153321,0
 -42.456259766,-10.3003601723323,0
 -42.458107634,-10.3064292973325,0
 -42.458766941,-10.3107972073327,0
 -42.4582268319999,-10.3160801563329,0
 -42.4572010869999,-10.320439574333,0
 -42.454563858,-10.3316477963334,0
 -42.454151791,-10.3377463873335,0
 -42.454165856,-10.3380686343335,0
 -42.454353601,-10.3423702663336,0
 -42.4544361159999,-10.3442608433337,0
 -42.455949812,-10.352178641334,0
 -42.456017453,-10.352532453334,0
 -42.457202949,-10.3587335083341,0
 -42.458437288,-10.3651900483344,0
 -42.458972975,-10.3679921043344,0
 -42.459508662,-10.3707941593345,0
 -42.460703656,-10.3741731093347,0
 -42.46189865,-10.3775520583347,0
 -42.464486344,-10.3821944293349,0
 -42.46949555,-10.3863445633351,0
 -42.473351022,-10.3892550953351,0
 -42.47886025,-10.3943530733353,0
 -42.48152283,-10.3980768253354,0
 -42.4843843049999,-10.4020787403355,0
 -42.4883829519999,-10.4055334793356,0
 -42.491919328,-10.4085888263357,0
 -42.493766116,-10.4096522783358,0
 -42.495216212,-10.4104873003358,0
 -42.495612903,-10.4107157303357,0
 -42.4979054089999,-10.4120358443358,0
 -42.50079131,-10.4127095353359,0
 -42.505881234,-10.4144814643359,0
 -42.509559849,-10.4175635473359,0
 -42.512463613,-10.420917298336,0
 -42.517813063,-10.4251181763362,0
 -42.5230050049999,-10.4292439463363,0
 -42.5297510499999,-10.4356476263365,0
 -42.5352241529999,-10.4393207893366,0
 -42.537395919,-10.4412228143367,0
 -42.54061423,-10.4445992173368,0
 -42.545729463,-10.4489677523369,0
 -42.549315252,-10.453758306337,0
 -42.549820759,-10.454433654337,0
 -42.549881541,-10.4545148583372,0
 -42.549942323,-10.4545960623371,0
 -42.550063888,-10.4547584713372,0
 -42.550227468,-10.4549770113371,0
 -42.550508226,-10.4553520993372,0
 -42.551110895,-10.4561572553372,0
 -42.5537347719999,-10.4600258493372,0
 -42.555369256,-10.4611215823373,0
 -42.5609175039999,-10.4643062603374,0
 -42.564536808,-10.4661625553375,0
 -42.568161512,-10.4687532893375,0
 -42.569769152,-10.4701509413375,0
 -42.569982399,-10.4703363333376,0
 -42.569999004,-10.4703507693375,0
 -42.5699996799999,-10.4703517913375,0
 -42.572283571,-10.4738025913377,0
 -42.573371167,-10.4763744543378,0
 -42.575195212,-10.4792367223378,0
 -42.575850411,-10.480782576338,0
 -42.577187912,-10.4839382263381,0
 -42.57884506,-10.4883024363381,0
 -42.579814116,-10.4941677253383,0
 -42.579369702,-10.5014743683385,0
 -42.579263978,-10.5032125743385,0
 -42.579062319,-10.5045706583386,0
 -42.57858004,-10.5078185993387,0
 -42.57762184,-10.5150720693389,0
 -42.5787037909999,-10.5281350693394,0
 -42.5807289639999,-10.5345391933395,0
 -42.581674878,-10.5375304163397,0
 -42.585376306,-10.5426066473398,0
 -42.5871974369999,-10.5451041913399,0
 -42.5942167799999,-10.5502106613401,0
 -42.604643266,-10.5573654953403,0
 -42.605856921,-10.5591785383404,0
 -42.6063803670001,-10.5599604993403,0
 -42.607885007,-10.5609792343403,0
 -42.619205031,-10.5686435973406,0
 -42.620500103,-10.5679952313406,0
 -42.942231153,-10.4069233553357,0
 -42.952729034,-10.4016676823355,0
 -43.0550473679999,-10.3504428903338,0
 -43.05738327,-10.3492734413339,0
 -43.139507588,-10.3081586093327,0
 -43.215131754,-10.2702980233314,0
 -43.280418317,-10.2376128683304,0
 -43.2805244870001,-10.2375597153304,0
 -43.280556827,-10.2375435243303,0
 -43.2805574559999,-10.2375435393303,0
 -43.28055817,-10.2375435553303,0
 -43.280559893,-10.2375435953304,0
 -43.280568663,-10.2375437993305,0
 -43.280586207,-10.2375442053304,0
 -43.280615397,-10.2375448823304,0
 -43.280683621,-10.2375464643304,0
 -43.280863703,-10.2375506403304,0
 -43.281273262,-10.2375601373304,0
 -43.384715993,-10.2399559693305,0
 -43.465436246,-10.2348733913303,0
 -43.465436541,-10.2348733733303,0
 -43.467874265,-10.2347198813303,0
 -43.469377429,-10.2345322333303,0
 -43.4703887,-10.2344132603302,0
 -43.4714594570001,-10.2345322333303,0
 -43.472470728,-10.2347106933303,0
 -43.473838918,-10.2353650443303,0
 -43.475088135,-10.2364952883304,0
 -43.475801974,-10.2371496403304,0
 -43.476872731,-10.2382798843304,0
 -43.478895273,-10.2395291013305,0
 -43.480679869,-10.2401834533305,0
 -43.482107546,-10.2408378053305,0
 -43.484189574,-10.2419085623306,0
 -43.485736224,-10.2426224003306,0
 -43.48871055,-10.2435146983306,0
 -43.4906141190001,-10.2437526443305,0
 -43.492101282,-10.2439311043306,0
 -43.493588445,-10.2439905903306,0
 -43.494480743,-10.2442880233307,0
 -43.495610987,-10.2448234013307,0
 -43.496800717,-10.2454777533306,0
 -43.4979904479999,-10.2462510783307,0
 -43.498823259,-10.2469054303306,0
 -43.500131963,-10.2474408093307,0
 -43.501916559,-10.2480951603308,0
 -43.503701154,-10.2486305393307,0
 -43.5050098579999,-10.2488089993308,0
 -43.5067349669999,-10.2489279723307,0
 -43.512469468,-10.2484044903307,0
 -43.515443794,-10.2479285983307,0
 -43.517466336,-10.2469768133307,0
 -43.5203216889999,-10.2460250293306,0
 -43.522820123,-10.2448352983307,0
 -43.526865207,-10.2445973523307,0
 -43.5297205599999,-10.2448352983307,0
 -43.532932833,-10.2449542713307,0
 -43.535193321,-10.2449542713307,0
 -43.539357377,-10.2449542713307,0
 -43.541855812,-10.2449542713307,0
 -43.542170904,-10.2449936573306,0
 -43.54375938,-10.2451922173306,0
 -43.544830138,-10.2455491363307,0
 -43.546138841,-10.2468578403307,0
 -43.546971653,-10.2478096243308,0
 -43.548161383,-10.2501890853308,0
 -43.550421871,-10.2512598433309,0
 -43.553158251,-10.2519736813309,0
 -43.5550618199999,-10.2520926543308,0
 -43.558274093,-10.2524495733309,0
 -43.560653554,-10.2525685463309,0
 -43.5633899340001,-10.2525685463309,0
 -43.568718141,-10.2523958253308,0
 -43.573523307,-10.2519686993309,0
 -43.576192844,-10.2512212293309,0
 -43.578542036,-10.2504737593308,0
 -43.5797166319999,-10.2499398513308,0
 -43.5813183539999,-10.2492991623307,0
 -43.58249295,-10.2487652553308,0
 -43.583667547,-10.2482313483307,0
 -43.5841480629999,-10.2482313483307,0
 -43.58462858,-10.2482313483307,0
 -43.585482831,-10.2484449113307,0
 -43.587084554,-10.2496195073308,0
 -43.588365931,-10.2509008843308,0
 -43.589220183,-10.2517551363308,0
 -43.590074435,-10.2526093883308,0
 -43.591569375,-10.2529297323308,0
 -43.5939185669999,-10.2536772023309,0
 -43.595199945,-10.2553857063309,0
 -43.596801667,-10.256133176331,0
 -43.597655919,-10.257200991331,0
 -43.5977627,-10.258375587331,0
 -43.597228793,-10.2597637463311,0
 -43.596481323,-10.2608315613311,0
 -43.595947415,-10.2620061573312,0
 -43.595840634,-10.2629671903311,0
 -43.596054197,-10.2645689123312,0
 -43.595840634,-10.2663841973313,0
 -43.5959474159999,-10.2678791373314,0
 -43.5963745409999,-10.2685198263314,0
 -43.597655919,-10.2688401713314,0
 -43.598723734,-10.2691605153314,0
 -43.600218674,-10.2700147673314,0
 -43.601606833,-10.2708690183314,0
 -43.602674648,-10.2712961443315,0
 -43.603742463,-10.2722571773314,0
 -43.604917059,-10.2734317743315,0
 -43.605493511,-10.2747829373315,0
 -43.605493511,-10.2767816853316,0
 -43.6062073489999,-10.2776382913316,0
 -43.607777793,-10.2784948973317,0
 -43.6094910049999,-10.2783521293316,0
 -43.6117752879999,-10.2786376643317,0
 -43.614345106,-10.2789231993317,0
 -43.617628762,-10.2792087353317,0
 -43.619484741,-10.2803508763317,0
 -43.621340721,-10.2816357853318,0
 -43.623053933,-10.2830634613318,0
 -43.624053307,-10.2859188153319,0
 -43.624624377,-10.288488633332,0
 -43.625338216,-10.290630147332,0
 -43.626765892,-10.292914430332,0
 -43.627382173,-10.2941834583321,0
 -43.628155498,-10.2951947293322,0
 -43.628809849,-10.2960870273323,0
 -43.629523688,-10.2970388113322,0
 -43.62999958,-10.2978716223322,0
 -43.630237526,-10.2988234073323,0
 -43.630653932,-10.3001321103323,0
 -43.631129824,-10.3009649223324,0
 -43.63136777,-10.3019761933325,0
 -43.631784176,-10.3026305443324,0
 -43.632438528,-10.3032848963325,0
 -43.6326764739999,-10.3034633553324,0
 -43.63291442,-10.3036418153324,0
 -43.634044664,-10.3037013023325,0
 -43.635174908,-10.3037607883325,0
 -43.636721557,-10.3037607883325,0
 -43.6378518009999,-10.3035228423324,0
 -43.6387440989999,-10.3033443833324,0
 -43.639814857,-10.3034633563324,0
 -43.641183047,-10.3038797613325,0
 -43.642908156,-10.3051884653325,0
 -43.644573779,-10.3060807633325,0
 -43.645704023,-10.3067946013325,0
 -43.646834267,-10.3070920343325,0
 -43.647726565,-10.3071515203325,0
 -43.648737836,-10.3069730613325,0
 -43.64951116,-10.3066756283325,0
 -43.6502844849999,-10.3060212763326,0
 -43.6507603770001,-10.3056048703326,0
 -43.651414729,-10.3056048703326,0
 -43.652128567,-10.3060212763326,0
 -43.652782919,-10.3065566553325,0
 -43.653675217,-10.3079843313326,0
 -43.654270082,-10.3090550893326,0
 -43.6549839209999,-10.3098284143326,0
 -43.655578786,-10.3106612253327,0
 -43.656173651,-10.3113750633327,0
 -43.656471084,-10.3122078753327,0
 -43.6568280029999,-10.3132191463328,0
 -43.657006463,-10.3145278493328,0
 -43.657303895,-10.3158960393328,0
 -43.65807722,-10.3175021753329,0
 -43.658791059,-10.3187513923329,0
 -43.6599213029999,-10.320000609333,0
 -43.6617653849999,-10.3211903403329,0
 -43.663431008,-10.3229749363331,0
 -43.664680225,-10.3239862073331,0
 -43.664858684,-10.3255328563331,0
 -43.664680225,-10.3263061813332,0
 -43.664085359,-10.3271389923332,0
 -43.663431008,-10.3276148853331,0
 -43.6617653849999,-10.3294589673332,0
 -43.6606946279999,-10.3310056173333,0
 -43.659921303,-10.3321358613333,0
 -43.6591479779999,-10.3332661053333,0
 -43.658553884,-10.3342562613334,0
 -43.658077221,-10.3350507003334,0
 -43.657482355,-10.3374301623335,0
 -43.6562926249999,-10.3396906503336,0
 -43.655221867,-10.3415942183336,0
 -43.6549839209999,-10.3436167603337,0
 -43.654270083,-10.3459962213338,0
 -43.654508029,-10.3468290323338,0
 -43.654745975,-10.3476618443338,0
 -43.655459814,-10.3499223323338,0
 -43.65688749,-10.352301793334,0
 -43.6584341399999,-10.354800227334,0
 -43.660218736,-10.3567037963341,0
 -43.660813601,-10.3583694183341,0
 -43.66152744,-10.3603919603342,0
 -43.66152744,-10.3630093673343,0
 -43.66152744,-10.3655078023344,0
 -43.661051547,-10.3683631553344,0
 -43.660932574,-10.3706236433344,0
 -43.66106234,-10.3738217513347,0
 -43.661068364,-10.3739702233347,0
 -43.663001676,-10.3759035353347,0
 -43.669356927,-10.3761469883346,0
 -43.67565604,-10.3749178933346,0
 -43.682318531,-10.3741564653346,0
 -43.685744955,-10.3726336103346,0
 -43.689361735,-10.3707300413344,0
 -43.692407445,-10.3684457593344,0
 -43.695072442,-10.3671132603344,0
 -43.698498866,-10.3654000483344,0
 -43.7019252890001,-10.3631157663343,0
 -43.7057324269999,-10.3612121973342,0
 -43.709920278,-10.3598796983342,0
 -43.713727416,-10.3585472003342,0
 -43.716963483,-10.3574050593342,0
 -43.71960992,-10.355430254334,0
 -43.7219955779999,-10.354692869334,0
 -43.723990855,-10.355039874334,0
 -43.726022028,-10.3561834813341,0
 -43.752058247,-10.3776454273347,0
 -43.753565604,-10.3788879583348,0
 -43.76317043,-10.386805324335,0
 -43.770792332,-10.3930881433352,0
 -43.771209248,-10.3930881433352,0
 -43.898361909,-10.3930881403352,0
 -43.915889374,-10.3930848283352,0
 -43.914793323,-10.3841549123349,0
 -43.911606939,-10.3794877183347,0
 -43.910152943,-10.3778922483347,0
 -43.9098186710001,-10.3776454193348,0
 -43.9097893219999,-10.3776237473348,0
 -43.9087945269999,-10.3768891823348,0
 -43.902609621,-10.3723221903346,0
 -43.900785255,-10.3703160983345,0
 -43.898770968,-10.3673195353344,0
 -43.89731518,-10.3636648743343,0
 -43.8950960929999,-10.3544907353341,0
 -43.890346529,-10.3497004483338,0
 -43.886769405,-10.3460926553338,0
 -43.8847153529999,-10.3440209913337,0
 -43.8833922049999,-10.3427756513337,0
 -43.8801976949999,-10.3397689953336,0
 -43.8801373549999,-10.3397122033336,0
 -43.880097162,-10.3396603423336,0
 -43.878795258,-10.3379804903335,0
 -43.877475734,-10.3362779033335,0
 -43.877453819,-10.3362496253334,0
 -43.877453161,-10.3362487763335,0
 -43.877367778,-10.3361627673335,0
 -43.877367496,-10.3361624833334,0
 -43.8773672210001,-10.3361622063334,0
 -43.874568277,-10.3333427313334,0
 -43.871683393,-10.3304366853333,0
 -43.865599534,-10.3264307363332,0
 -43.857000009,-10.322004854333,0
 -43.8503806600001,-10.3183797253329,0
 -43.8477459809999,-10.3163016333329,0
 -43.84261623,-10.3105159093327,0
 -43.838291908,-10.3046260323325,0
 -43.836921625,-10.3022049733325,0
 -43.835346321,-10.2958737793322,0
 -43.8340434209999,-10.2776366003316,0
 -43.834311715,-10.2742497913316,0
 -43.8353992039999,-10.2710610903314,0
 -43.8367080429999,-10.2693607193314,0
 -43.8382932749999,-10.2654612633313,0
 -43.838305814,-10.2652343453312,0
 -43.838746983,-10.257250677331,0
 -43.837954853,-10.2522997313308,0
 -43.837265067,-10.2500682293309,0
 -43.834433344,-10.2456932753306,0
 -43.8270258169999,-10.2378483653303,0
 -43.809090398,-10.22144031533,0
 -43.797847922,-10.2088431683295,0
 -43.784816229,-10.1916780473289,0
 -43.779088591,-10.1804683963287,0
 -43.774870785,-10.1683025303283,0
 -43.7700410899999,-10.1512193443277,0
 -43.768460502,-10.1434502773274,0
 -43.7676806730001,-10.1396171873274,0
 -43.76695691,-10.1360596753273,0
 -43.766788146,-10.1352311653273,0
 -43.76659013,-10.1342590543271,0
 -43.765761142,-10.127595432327,0
 -43.7659721849999,-10.1206920523269,0
 -43.767005349,-10.1146795723265,0
 -43.768758133,-10.1080816273264,0
 -43.772256662,-10.1022922673262,0
 -43.773113522,-10.0987841963261,0
 -43.772535463,-10.095217146326,0
 -43.771315005,-10.0916714663259,0
 -43.768586473,-10.0856695993257,0
 -43.766034458,-10.0800570743255,0
 -43.762125713,-10.0757739503254,0
 -43.762125441,-10.0757738403254,0
 -43.762113034,-10.0757688353255,0
 -43.762066434,-10.0757500363254,0
 -43.7620155709999,-10.0757295173254,0
 -43.760272151,-10.0750261953255,0
 -43.75987146,-10.0748645503254,0
 -43.759681733,-10.0747880113254,0
 -43.7596811989999,-10.0747877963254,0
 -43.759609545,-10.0747588893254,0
 -43.7594544849999,-10.0746963353254,0
 -43.759452855,-10.0746956783253,0
 -43.759228516,-10.0746051763254,0
 -43.750034179,-10.0734022523253,0
 -43.74587669,-10.0728583143253,0
 -43.745875988,-10.0728582233253,0
 -43.745864328,-10.0728566973254,0
 -43.729928015,-10.0722554653254,0
 -43.719936946,-10.0724349873253,0
 -43.6990675329999,-10.0777740253255,0
 -43.69667592,-10.0779508193255,0
 -43.69291495,-10.0773954073254,0
 -43.691644194,-10.0758951003254,0
 -43.690951296,-10.0727714053253,0
 -43.690951323,-10.0727705143254,0
 -43.691059716,-10.0690516633252,0
 -43.692509792,-10.062371296325,0
 -43.6926486969999,-10.0602588943249,0
 -43.692651789,-10.0602119193249,0
 -43.69270488,-10.0594052553248,0
 -43.693009753,-10.0547730513247,0
 -43.692858652,-10.0523953013247,0
 -43.692531854,-10.0508866163246,0
 -43.690281484,-10.0446351293244,0
 -43.685286357,-10.0399933103243,0
 -43.6764475059999,-10.0357155203242,0
 -43.673401815,-10.0339277013241,0
 -43.669480576,-10.030755170324,0
 -43.668464313,-10.0281498463239,0
 -43.6682726200001,-10.0273247953239,0
 -43.667834903,-10.0225824273238,0
 -43.666464227,-10.0173342523236,0
 -43.66509097,-10.0147901803236,0
 -43.663756727,-10.0132231923234,0
 -43.662827135,-10.0118155143235,0
 -43.662131407,-10.0095441973234,0
 -43.6622836069999,-10.0040339303232,0
 -43.6624506069425,-9.99798778740426,0
 -43.662450633,-9.997986897323,0
 -43.6651731169999,-9.99102797032276,0
 -43.666343881,-9.98954025532277,0
 -43.666343904,-9.98954024032276,0
 -43.666346165,-9.98953872732273,0
 -43.669774225,-9.98724462932272,0
 -43.6699233629999,-9.98714482432263,0
 -43.674538291,-9.98492602632255,0
 -43.684676369,-9.98276499632253,0
 -43.687258217,-9.98042784232242,0
 -43.6892970109999,-9.97766271432243,0
 -43.6969008379999,-9.97409261832218,0
 -43.701323638,-9.96885563532212,0
 -43.702952665,-9.96611253132209,0
 -43.703013078,-9.96325766732195,0
 -43.702560263,-9.96107824832193,0
 -43.6904743659999,-9.94165365732126,0
 -43.689564611,-9.93906511932114,0
 -43.690454011,-9.92949920432093,0
 -43.6912291689999,-9.92674000632081,0
 -43.6928385340001,-9.92552695332071,0
 -43.7031950159999,-9.92368179032072,0
 -43.706176754,-9.92205328532063,0
 -43.708203779,-9.91983041332056,0
 -43.709027829,-9.91580174232038,0
 -43.709035343,-9.91321951332033,0
 -43.707532666,-9.90853553932029,0
 -43.705475021,-9.90637988332019,0
 -43.698113863,-9.90285398532013,0
 -43.696424374,-9.90120458231999,0
 -43.6952871669999,-9.89798060231996,0
 -43.695118092,-9.89237359231976,0
 -43.694622513,-9.89125179631975,0
 -43.693034213,-9.89012642331963,0
 -43.689753928,-9.88885116131963,0
 -43.682978319,-9.88751045531954,0
 -43.679783734,-9.88736680531956,0
 -43.6774484830001,-9.88652784531951,0
 -43.676091041,-9.88392690831951,0
 -43.674419348,-9.87896760131925,0
 -43.672119438,-9.8770381133193,0
 -43.669588362,-9.87402160731911,0
 -43.666397443,-9.86904862131896,0
 -43.6659467679999,-9.86047932031879,0
 -43.6652616159999,-9.85587675431855,0
 -43.6630334719999,-9.85308947931851,0
 -43.657361765,-9.84892341431842,0
 -43.6535387189999,-9.84525741931823,0
 -43.652478158,-9.84357028931825,0
 -43.65324499,-9.83905530331807,0
 -43.654896292,-9.83602443931794,0
 -43.6591194939999,-9.83139796531786,0
 -43.6648457379999,-9.82365479031765,0
 -43.671471585,-9.81943662131743,0
 -43.677697951,-9.81792103831744,0
 -43.682871477,-9.81574508431735,0
 -43.684963673,-9.81338138631726,0
 -43.686835102,-9.81002621631712,0
 -43.688505522,-9.80822769831708,0
 -43.693460955,-9.80525768731692,0
 -43.6972554449999,-9.80430086431698,0
 -43.701732132,-9.80468671731702,0
 -43.7063651530001,-9.80585013331709,0
 -43.708396027,-9.80570689831705,0
 -43.711645827,-9.80469798631697,0
 -43.714780855,-9.80298120931695,0
 -43.717817793,-9.80242178231693,0
 -43.718533232,-9.80170400531687,0
 -43.71934346,-9.79966930831683,0
 -43.719881214,-9.79440280331673,0
 -43.7214275549999,-9.79335712331663,0
 -43.725456571,-9.79256261331662,0
 -43.733172573,-9.78982776331656,0
 -43.735399387,-9.78877371131656,0
 -43.749890142,-9.78326074531632,0
 -43.761568441,-9.77788154131613,0
 -43.763532059,-9.77660292031612,0
 -43.765701909,-9.77213122931606,0
 -43.7671769789999,-9.77069556831593,0
 -43.777910227,-9.76659820931584,0
 -43.783154019,-9.76382645831574,0
 -43.784921816,-9.76238501231567,0
 -43.787756543,-9.75433318031551,0
 -43.7906463969999,-9.74880794531531,0
 -43.7945608049999,-9.73502833831481,0
 -43.797662728,-9.72768039531453,0
 -43.797406063,-9.72477982331452,0
 -43.7940660049999,-9.7182151473143,0
 -43.793372721,-9.71522073531425,0
 -43.793372748,-9.71521984431418,0
 -43.793470944,-9.71195297531415,0
 -43.794477345,-9.70504397231386,0
 -43.797260283,-9.69649734431361,0
 -43.799549552,-9.69249388331347,0
 -43.799769772,-9.69219306531354,0
 -43.800023105,-9.69184701631351,0
 -43.805068136,-9.68495556831325,0
 -43.810113166,-9.67806412031308,0
 -43.8141239959999,-9.67184095931288,0
 -43.820215578,-9.6601885193126,0
 -43.826837679,-9.64952997631214,0
 -43.828495152,-9.64744387831211,0
 -43.832205884,-9.64582096431212,0
 -43.837338631,-9.6425378503119,0
 -43.841189925,-9.63876395131184,0
 -43.841952224,-9.63742757931185,0
 -43.842040833,-9.63416353031178,0
 -43.8401715649999,-9.62652317031147,0
 -43.838734575,-9.6250312803114,0
 -43.835871917,-9.62411806331142,0
 -43.83431217,-9.62258699431131,0
 -43.833821392,-9.62118223731134,0
 -43.833774185,-9.6199987873113,0
 -43.83397794,-9.61792914731121,0
 -43.835048125,-9.61683686631116,0
 -43.836533224,-9.61582785931116,0
 -43.84265119,-9.61266981931108,0
 -43.84273288,-9.60971735131095,0
 -43.8408967789999,-9.60132357931064,0
 -43.840480999,-9.59615289231048,0
 -43.841545931,-9.58604803931017,0
 -43.84173879,-9.58545320131016,0
 -43.8419316489999,-9.58485836231015,0
 -43.843761074,-9.5808730993101,0
 -43.849457576,-9.57052471430963,0
 -43.850067006,-9.56773615530965,0
 -43.852581319,-9.56213837030941,0
 -43.851350939,-9.55212923130921,0
 -43.8504805849999,-9.54969630730908,0
 -43.8496932379999,-9.54805237830904,0
 -43.842415802,-9.53758289030868,0
 -43.83789179,-9.52523301330825,0
 -43.834512051,-9.52109094930819,0
 -43.832707674,-9.51960501030808,0
 -43.831086529,-9.51695742230804,0
 -43.829499704,-9.51538777730802,0
 -43.8275308609999,-9.51101997630785,0
 -43.8223379,-9.50276335730753,0
 -43.8210378669999,-9.49992636930754,0
 -43.821037692,-9.49992599030751,0
 -43.818432984,-9.49424188230731,0
 -43.8163081460001,-9.49195681030734,0
 -43.805283658,-9.48534248830701,0
 -43.79944772,-9.47965194830691,0
 -43.793451948,-9.46848196730649,0
 -43.786176279,-9.45764614330628,0
 -43.784247717,-9.45477289130613,0
 -43.78216822,-9.45265416430607,0
 -43.7782904819999,-9.44870090430591,0
 -43.769728807,-9.44205124530568,0
 -43.761308023,-9.43786198730562,0
 -43.7514197759999,-9.43407238830542,0
 -43.735695838,-9.43023551130539,0
 -43.721144652,-9.42779620530527,0
 -43.700648956,-9.42155610230508,0
 -43.693728753,-9.42106933730504,0
 -43.689143798,-9.41968275230498,0
 -43.685759026,-9.417793813305,0
 -43.6823393429999,-9.41530866830491,0
 -43.678919659,-9.41282352230481,0
 -43.6711306,-9.40848301930468,0
 -43.669201614,-9.40704740930464,0
 -43.665120314,-9.40284674330444,0
 -43.658035426,-9.39729801830426,0
 -43.656167152,-9.39520716330428,0
 -43.64640197,-9.38828864630401,0
 -43.638751349,-9.38402987630388,0
 -43.637497228,-9.38263163230383,0
 -43.633844166,-9.38135029830386,0
 -43.627492447,-9.37664030430371,0
 -43.621632603,-9.37153773730341,0
 -43.613857648,-9.36269909230325,0
 -43.6049928989999,-9.35012085530284,0
 -43.602540877,-9.34664177330275,0
 -43.579026566,-9.32039024030184,0
 -43.572823684,-9.31624538130173,0
 -43.564834855,-9.31305131930169,0
 -43.552073133,-9.30935560330161,0
 -43.544319372,-9.30895481530149,0
 -43.540881247,-9.30824505330156,0
 -43.537141762,-9.30747317230156,0
 -43.535910686,-9.30680110430146,0
 -43.535910685,-9.31077152630161,0
 -43.535910685,-9.35456218430297,0
 -43.535910685,-9.35459061930292,0
 -43.535910685,-9.35537603030307,0
 -43.535910685,-9.35537989930303,0
 -43.535910684,-9.43261286330545,0
 -43.535910684,-9.4565597773061,0
 -43.535910684,-9.48108136030696,0
 -43.5359068979999,-9.48108701730689,0
 -43.535825348,-9.48120887630694,0
 -43.533441969,-9.48477031130709,0
 -43.505017213,-9.52724485430835,0
 -43.454517736,-9.60308849831075,0
 -43.454295244,-9.60342265231077,0
 -43.446828439,-9.61463682131111,0
 -43.417187706,-9.65915334531239,0
 -43.4079403759999,-9.67304163231293,0
 -43.373688301,-9.72448379231445,0
 -43.373449535,-9.72484238731454,0
 -43.373449098,-9.72484239631445,0
 -43.363667274,-9.72505245931443,0
 -43.314243868,-9.72611381231458,0
 -43.312537756,-9.72615045131459,0
 -43.312533618,-9.7261505403146,0
 -43.293584505,-9.72655746731461,0
 -43.187530919,-9.72883494031466,0
 -43.187530108,-9.72883495731466,0
 -43.15637045,-9.7295041023147,0
 -43.139607045,-9.72986409231464,0
 -43.138153038,-9.72989531631465,0
 -43.088546517,-9.73096060331468,0
 -43.0664702189999,-9.73143468631474,0
 -43.066368417,-9.73143687231474,0
 -43.066220967,-9.73144003931474,0
 -42.851537339,-9.7360503123149,0
 -42.8511950790001,-9.73605766231488,0
 -42.848882831,-9.73610731731482,0
 -42.847804362,-9.73613047731487,0
 -42.847060572,-9.73614645031486,0
 -42.844517379,-9.73620106431485,0
 -42.837743102,-9.73634654031481,0
 -42.825945774,-9.73659988431481,0
 -42.819642242,-9.7367352513149,0
 -42.819610841,-9.73673592531487,0
 -42.819540256,-9.73673744131482,0
 -42.818923845,-9.73675067831485,0
 -42.810833478,-9.73692441631493,0
 -42.794668816,-9.73727154831496,0
 -42.792902499,-9.73730947931499,0
 -42.791943747,-9.73733006831491,0
 -42.790433979,-9.73736249031493,0
 -42.7895736099999,-9.73738096631495,0
 -42.772809154,-9.73774097831499,0
 -42.772808569,-9.7377409913149,0
 -42.770356519,-9.73779364831499,0
 -42.769984215,-9.73780164331494,0</coordinates>
        </LineString>
      </Placemark>
    </Folder>
  </Document>
</kml>