<kml xmlns:xsd="http://schemas.opengis.net/kml/2.2.0/ogckml22.xsd" xmlns:xmlns="http://www.opengis.net/kml/2.2/" version="1.0">
  <Document>
    <name>SEBASTIAO LARANJEIRAS</name>
    <open>1</open>
    <Folder>
      <name>2930006</name>
      <Style id="line1">
        <LineStyle>
          <color>#ff000000</color>
          <width>3</width>
        </LineStyle>
        <BalloonStyle>
          <text>$[description]</text>
        </BalloonStyle>
      </Style>
      <Placemark>
        <name>61</name>
        <styleUrl>#line1</styleUrl>
        <LineString>
          <extrude>0</extrude>
          <altitudeMode>clampToGround</altitudeMode>
          <coordinates>-42.955075014,-14.3961482674549,0
 -42.954228436,-14.397811450455,0
 -42.9534664759999,-14.399316374455,0
 -42.9529870229999,-14.400263336455,0
 -42.952224569,-14.4012882514551,0
 -42.951355233,-14.402456852455,0
 -42.950634242,-14.4035933834551,0
 -42.950152208,-14.4047821624551,0
 -42.949883982,-14.4054436594552,0
 -42.949050181,-14.4066538314552,0
 -42.947914149,-14.4081717404553,0
 -42.946133235,-14.4098383824553,0
 -42.944155127,-14.4116895914554,0
 -42.941882032,-14.4134060234554,0
 -42.940821992,-14.4139954384555,0
 -42.939362704,-14.4152708754555,0
 -42.93810492,-14.4166356864555,0
 -42.93708801,-14.4173849884555,0
 -42.935562633,-14.4180807804556,0
 -42.934338212,-14.4186392874556,0
 -42.932753031,-14.4198595164557,0
 -42.93190849,-14.4210060134557,0
 -42.9314375769999,-14.4216452954556,0
 -42.93082622,-14.4219552034557,0
 -42.9299635789999,-14.4223924994557,0
 -42.929294072,-14.4227318874557,0
 -42.928979423,-14.4233259484558,0
 -42.928979416,-14.4239682034557,0
 -42.928979423,-14.4247030394557,0
 -42.9291090629999,-14.4252509964558,0
 -42.9296752090001,-14.4263231844558,0
 -42.930264624,-14.4274394414558,0
 -42.930451274,-14.4286246164559,0
 -42.93065831,-14.4299392284559,0
 -42.93056253,-14.431426958456,0
 -42.930476891,-14.432756895456,0
 -42.930357726,-14.434607739456,0
 -42.930307587,-14.4353864474561,0
 -42.930244818,-14.4363613734561,0
 -42.9299421919999,-14.4376388294561,0
 -42.929300556,-14.4390614244561,0
 -42.9260176299999,-14.4441249024564,0
 -42.925779147,-14.4444927324563,0
 -42.925504367,-14.4449165474563,0
 -42.9247467069999,-14.4460851444563,0
 -42.924697148,-14.4461615834563,0
 -42.924263465,-14.4468304794563,0
 -42.9233478369999,-14.4482427134565,0
 -42.9228990339999,-14.4486757334564,0
 -42.922450231,-14.4491087534564,0
 -42.922074916,-14.4497739744565,0
 -42.921597924,-14.4510853874566,0
 -42.921218731,-14.4527095364565,0
 -42.920919114,-14.4539928614566,0
 -42.920620765,-14.4552707324566,0
 -42.920293172,-14.4566738434567,0
 -42.919998789,-14.4579347404567,0
 -42.9195060239999,-14.4585702114567,0
 -42.91894403,-14.4589448564567,0
 -42.917739789,-14.4594265544568,0
 -42.917017247,-14.4599885344567,0
 -42.916562313,-14.4607110914567,0
 -42.916115937,-14.4614200174568,0
 -42.916080603,-14.4621829464568,0
 -42.915732711,-14.4638153564568,0
 -42.915424962,-14.4644041024569,0
 -42.915117213,-14.4649928494569,0
 -42.9140006990001,-14.465900685457,0
 -42.913816777,-14.466625880457,0
 -42.913907392,-14.467742845457,0
 -42.914005311,-14.4689495164571,0
 -42.9136453540001,-14.4699436344571,0
 -42.912628442,-14.4707999914571,0
 -42.911467399,-14.4712167954571,0
 -42.910862212,-14.4721915634572,0
 -42.9103269899999,-14.4735831324571,0
 -42.909871299,-14.4747679054573,0
 -42.909125303,-14.4759646434573,0
 -42.9079384579999,-14.4772756574572,0
 -42.906582475,-14.4787734814573,0
 -42.906186734,-14.4792106164573,0
 -42.906236293,-14.4803189794573,0
 -42.906714244,-14.4808888964574,0
 -42.9069015829999,-14.4817184774574,0
 -42.906741022,-14.4824945474574,0
 -42.905720426,-14.4836278324574,0
 -42.9044732749999,-14.4850126544575,0
 -42.902911358,-14.4867470174575,0
 -42.901275389,-14.4885635824576,0
 -42.900643752,-14.4892649564575,0
 -42.9003183750001,-14.4900144034577,0
 -42.899870114,-14.4910468374576,0
 -42.899141241,-14.4919800064577,0
 -42.897990164,-14.4929581094577,0
 -42.896759159,-14.4935736184578,0
 -42.894912347,-14.4942689784578,0
 -42.893951022,-14.4950516744578,0
 -42.8930064269999,-14.4958207664577,0
 -42.8920759769999,-14.4969990194578,0
 -42.891835119,-14.4979089064579,0
 -42.891581752,-14.4988660874578,0
 -42.891346799,-14.4997536824579,0
 -42.891000023,-14.5004010874579,0
 -42.890004032,-14.5011419584579,0
 -42.889486635,-14.5015268244579,0
 -42.88928759,-14.5016433544579,0
 -42.889149781,-14.5017240324579,0
 -42.88796533,-14.502417458458,0
 -42.8867729079999,-14.502883845458,0
 -42.885840665,-14.503849840458,0
 -42.884556126,-14.504813244458,0
 -42.883485697,-14.5056160734581,0
 -42.883212828,-14.5058790184581,0
 -42.882534844,-14.5065323444581,0
 -42.881959321,-14.5070869204581,0
 -42.881281782,-14.5071924604581,0
 -42.880203211,-14.5069632784581,0
 -42.879211648,-14.5063031034581,0
 -42.878515405,-14.5058395434581,0
 -42.877705304,-14.5056963644581,0
 -42.87700952,-14.5060710024581,0
 -42.875457378,-14.5072485044582,0
 -42.874344276,-14.5078609064581,0
 -42.872555923,-14.5083388024581,0
 -42.871401205,-14.5089293344582,0
 -42.870685112,-14.5095259624582,0
 -42.870331331,-14.5101741714582,0
 -42.86984013,-14.5114947544582,0
 -42.869196214,-14.5132259554583,0
 -42.867746531,-14.5152183874584,0
 -42.866641223,-14.5170025724584,0
 -42.865770461,-14.5184081824585,0
 -42.86490661,-14.5198026084584,0
 -42.864245458,-14.5205027154585,0
 -42.863265939,-14.5224630254586,0
 -42.862177869,-14.5236381284585,0
 -42.8600452659999,-14.5251614124586,0
 -42.859327145,-14.5263800464586,0
 -42.858609024,-14.5275986804587,0
 -42.857145335,-14.5300825074587,0
 -42.85638937,-14.5320379814588,0
 -42.855127221,-14.5333871774589,0
 -42.854607114,-14.533943149459,0
 -42.853404791,-14.5352283924589,0
 -42.852037126,-14.537173627459,0
 -42.851020616,-14.538619412459,0
 -42.8501656470001,-14.5405248614591,0
 -42.849535981,-14.541928204459,0
 -42.847946002,-14.5436149644592,0
 -42.845987489,-14.5451382574591,0
 -42.845417792,-14.5455813534592,0
 -42.84438604,-14.5463838234593,0
 -42.843929351,-14.5468870074592,0
 -42.8430279559999,-14.5478801724593,0
 -42.841461142,-14.5503609514594,0
 -42.841069442,-14.5517971924594,0
 -42.840457799,-14.5526806994594,0
 -42.840286051,-14.5529287854595,0
 -42.840009061,-14.5533288584594,0
 -42.83993786,-14.5541039024594,0
 -42.839825726,-14.5553243544595,0
 -42.838936835,-14.5568893324596,0
 -42.837457077,-14.5586302294597,0
 -42.836559948,-14.5596856994596,0
 -42.836119959,-14.5602842674596,0
 -42.836011443,-14.5604890774596,0
 -42.83568667,-14.5610574234598,0
 -42.835656303,-14.5611228264598,0
 -42.8354947470001,-14.5614707714597,0
 -42.835360571,-14.5617193504597,0
 -42.834100523,-14.5638814184598,0
 -42.832371363,-14.5643137094598,0
 -42.831247393,-14.5654376844598,0
 -42.830728648,-14.5669939374598,0
 -42.829691141,-14.5682043494598,0
 -42.828048429,-14.5688095664599,0
 -42.8264220909999,-14.5690066884599,0
 -42.825195285,-14.5691553964598,0
 -42.823895047,-14.5692263324599,0
 -42.82251061,-14.5690463934599,0
 -42.8209298739999,-14.5693337884599,0
 -42.819432096,-14.5696061214599,0
 -42.817959985,-14.5702439124599,0
 -42.817193557,-14.57129775646,0
 -42.816379239,-14.57326170246,0
 -42.816235532,-14.5751298594601,0
 -42.816128429,-14.5765222884602,0
 -42.8154691089999,-14.5784829454601,0
 -42.814661077,-14.5808858834603,0
 -42.8133135539999,-14.5830335654603,0
 -42.812068129,-14.5843269134603,0
 -42.810439483,-14.5854765444603,0
 -42.810156347,-14.5857981574605,0
 -42.809944083,-14.5864477994604,0
 -42.809980691,-14.5875762504604,0
 -42.81001892,-14.5887545554606,0
 -42.809603781,-14.5897310044605,0
 -42.80885923,-14.5905287444605,0
 -42.8075562759999,-14.5912201124605,0
 -42.805668297,-14.5919380624606,0
 -42.804179185,-14.5928155844606,0
 -42.80290281,-14.5938526344607,0
 -42.801918944,-14.5943046894606,0
 -42.800828704,-14.5944642354606,0
 -42.800117821,-14.5945682674606,0
 -42.799581019,-14.5946468204606,0
 -42.799233226,-14.5951556054606,0
 -42.799100265,-14.5961394814607,0
 -42.798913493,-14.5975215644607,0
 -42.7978114859999,-14.5992983544608,0
 -42.797489943,-14.6002045134608,0
 -42.7969864789999,-14.6016233524608,0
 -42.796128586,-14.6040410354609,0
 -42.796011493,-14.605973322461,0
 -42.796461482,-14.6076233254611,0
 -42.796997568,-14.609588988461,0
 -42.7966864839999,-14.6114483124611,0
 -42.796414209,-14.6130756734612,0
 -42.79591454,-14.6160619984613,0
 -42.795593814,-14.6179789774613,0
 -42.794894964,-14.6204697964614,0
 -42.794512387,-14.6218333804614,0
 -42.7939757530001,-14.6237460634615,0
 -42.7937175379999,-14.6246663774615,0
 -42.793385781,-14.6258488294614,0
 -42.793402803,-14.6272184684616,0
 -42.793708024,-14.6282697594616,0
 -42.7940956899999,-14.6296050574616,0
 -42.794525,-14.6310837994617,0
 -42.794621111,-14.6314148514616,0
 -42.795403662,-14.6327801844617,0
 -42.7962119,-14.6341903164618,0
 -42.796624523,-14.6358662514619,0
 -42.79712706,-14.6379073484618,0
 -42.79730883,-14.638645647462,0
 -42.7979132189999,-14.6400036324619,0
 -42.7984810879999,-14.6412795814619,0
 -42.798889252,-14.6421966434621,0
 -42.79951276,-14.6437390604621,0
 -42.799557874,-14.6438506624621,0
 -42.801060414,-14.6472824684622,0
 -42.8052382549999,-14.6568246684624,0
 -42.805238332,-14.6568248444625,0
 -42.81551379,-14.6802884964631,0
 -42.8487849639999,-14.7562620644653,0
 -42.8521092239999,-14.7638528974654,0
 -42.852114153,-14.7638641524655,0
 -42.852799531,-14.7643574944655,0
 -42.853747508,-14.7647604164655,0
 -42.854461347,-14.7653790764656,0
 -42.85550831,-14.7655218434656,0
 -42.856412505,-14.7654742544656,0
 -42.857364289,-14.7649983624656,0
 -42.858801503,-14.7644104564655,0
 -42.860177968,-14.7629783454655,0
 -42.8612287040001,-14.7625759344655,0
 -42.861827746,-14.7626052224655,0
 -42.862475877,-14.7630274144655,0
 -42.862532163,-14.7630640784655,0
 -42.862696536,-14.7631577664655,0
 -42.862968943,-14.7633138974654,0
 -42.863320654,-14.7634319074654,0
 -42.863691306,-14.7635121414655,0
 -42.864062144,-14.7635734014655,0
 -42.8644132979999,-14.7636534544655,0
 -42.864589717,-14.7637499624655,0
 -42.864763705,-14.7639051824655,0
 -42.8649189559999,-14.7640773964655,0
 -42.865014403,-14.7642879124655,0
 -42.865089425,-14.7645931174655,0
 -42.865086082,-14.7649355474655,0
 -42.865142541,-14.7651447994656,0
 -42.865277914,-14.7653556844655,0
 -42.865452471,-14.7655479564656,0
 -42.865549968,-14.7656437344656,0
 -42.8657057639999,-14.7656650544655,0
 -42.865902237,-14.7656099434656,0
 -42.866000842,-14.7654970014656,0
 -42.866022017,-14.7653255144655,0
 -42.866005295,-14.7650407284656,0
 -42.865949956,-14.7647167304655,0
 -42.865913921,-14.7644127904655,0
 -42.865915223,-14.7641841934655,0
 -42.865936388,-14.7640136094655,0
 -42.866155138,-14.7637689494655,0
 -42.866351606,-14.7636189614655,0
 -42.8665872499999,-14.7635461394655,0
 -42.866803034,-14.7635101824655,0
 -42.86695883,-14.7635315004655,0
 -42.867115193,-14.7635898704655,0
 -42.867269693,-14.7637440044655,0
 -42.8674641229999,-14.7639933844655,0
 -42.867618439,-14.7641664924655,0
 -42.867754933,-14.7642626304655,0
 -42.867930052,-14.7643021984655,0
 -42.868087147,-14.7642855764655,0
 -42.868401711,-14.7641186044655,0
 -42.8687563949999,-14.7639321224655,0
 -42.869051284,-14.7637830394655,0
 -42.869246817,-14.7637288214655,0
 -42.869501413,-14.7637121944654,0
 -42.86991255,-14.7637358654654,0
 -42.870498982,-14.7637810324654,0
 -42.870929803,-14.7637859074655,0
 -42.871105842,-14.7638263854655,0
 -42.871359516,-14.7639046254655,0
 -42.8716949999999,-14.7640685574655,0
 -42.872032051,-14.7644546404655,0
 -42.8720798489999,-14.7646942144655,0
 -42.872080557,-14.7646949494655,0
 -42.87328763,-14.7645680694655,0
 -42.87659304,-14.7678462534655,0
 -42.880800156,-14.7692902044656,0
 -42.8828117719999,-14.7686732304657,0
 -42.8845914959999,-14.7675926894656,0
 -42.885358229,-14.7669692294655,0
 -42.889509319,-14.7668515084656,0
 -42.890411432,-14.7668259264656,0
 -42.891357535,-14.7660047004656,0
 -42.892194165,-14.7652784984655,0
 -42.8928565489999,-14.7647035434655,0
 -42.8961596929999,-14.7629835454655,0
 -42.897495493,-14.7615270814654,0
 -42.8985062309999,-14.7584147294653,0
 -42.899073954,-14.7571015664653,0
 -42.899966108,-14.7558081634652,0
 -42.900686423,-14.7556518924653,0
 -42.9026314399999,-14.7613811154654,0
 -42.903830324,-14.7619561244654,0
 -42.905884741,-14.7610456794654,0
 -42.90710866,-14.7588502494654,0
 -42.907221639,-14.7547457454653,0
 -42.9095496279999,-14.7513637134651,0
 -42.9112201019999,-14.745677824465,0
 -42.912197791,-14.7444719204649,0
 -42.913300563,-14.744617265465,0
 -42.9158907459999,-14.7474549814651,0
 -42.916967858,-14.747484403465,0
 -42.918697481,-14.746610886465,0
 -42.920196096,-14.744237911465,0
 -42.925132896,-14.7445219764649,0
 -42.927053006,-14.7441401884649,0
 -42.92740118,-14.7431143904649,0
 -42.925780312,-14.7406104774649,0
 -42.924999714,-14.7384938184647,0
 -42.924531854,-14.7359890644647,0
 -42.924974993,-14.7338695394646,0
 -42.9262179959999,-14.7320899754646,0
 -42.930328993,-14.7287699284645,0
 -42.932413649,-14.7242171604643,0
 -42.936697904,-14.7217035504644,0
 -42.937411885,-14.7204476564643,0
 -42.93811884,-14.7161846114642,0
 -42.938242341,-14.7154398794642,0
 -42.93852648,-14.7137264824641,0
 -42.938880226,-14.7080295744639,0
 -42.93965871,-14.7076214674639,0
 -42.946135657,-14.7072022744639,0
 -42.952688162,-14.7084022814639,0
 -42.968548518,-14.7023985634637,0
 -42.972455011,-14.6996322134636,0
 -42.977325307,-14.6983871154636,0
 -42.982331284,-14.6996695904636,0
 -42.983947421,-14.7014375714637,0
 -42.985362065,-14.7022302794637,0
 -42.986894145,-14.7009650974637,0
 -42.9970598119999,-14.6994384904637,0
 -43.000564477,-14.6964472134635,0
 -43.002801626,-14.6962900404635,0
 -43.0052773060001,-14.6977191454636,0
 -43.007443739,-14.7000054774636,0
 -43.008173835,-14.7005678374637,0
 -43.009772686,-14.7014143994637,0
 -43.010420845,-14.7015511154637,0
 -43.010630863,-14.7015954144637,0
 -43.010947273,-14.7016621554637,0
 -43.013353439,-14.7004071974637,0
 -43.016004954,-14.6970396014636,0
 -43.0197207330001,-14.6970365124636,0
 -43.023003358,-14.6939427324635,0
 -43.023640465,-14.6937704684635,0
 -43.024831821,-14.6945321494635,0
 -43.026812255,-14.6935489004635,0
 -43.027867054,-14.6909410654634,0
 -43.027803708,-14.6904835914634,0
 -43.02621769,-14.6873580124633,0
 -43.026281316,-14.6866502754633,0
 -43.026889493,-14.6860194474633,0
 -43.03384153,-14.6852289364632,0
 -43.03552523,-14.6843571714631,0
 -43.036667953,-14.6830608704632,0
 -43.038307402,-14.6828078924632,0
 -43.039464592,-14.6838418764632,0
 -43.04214279,-14.6850550084633,0
 -43.0439411599999,-14.6862779864632,0
 -43.046489008,-14.6889714644633,0
 -43.048572508,-14.6902370364633,0
 -43.0556715159999,-14.6909400814634,0
 -43.057167697,-14.6906163004634,0
 -43.059228049,-14.6882815644634,0
 -43.060442962,-14.6875248284633,0
 -43.060328074,-14.6867971714633,0
 -43.0592487179999,-14.6860061194633,0
 -43.059420435,-14.6852908634633,0
 -43.064678645,-14.6807308474631,0
 -43.06638923,-14.680559223463,0
 -43.068077041,-14.6809514194631,0
 -43.069571799,-14.6825952194632,0
 -43.070557141,-14.6867169754632,0
 -43.072274074,-14.6888416874634,0
 -43.074141678,-14.6895971674633,0
 -43.078773675,-14.6899299634633,0
 -43.079332995,-14.6903793154634,0
 -43.079859691,-14.6910709134635,0
 -43.079808754,-14.6930274984634,0
 -43.080396316,-14.6947458744636,0
 -43.0823110389999,-14.6967659034635,0
 -43.083187752,-14.6980582034636,0
 -43.083663467,-14.6981944114636,0
 -43.083936455,-14.6982725734636,0
 -43.086161073,-14.6963098174635,0
 -43.08733173,-14.6937502314634,0
 -43.0884645,-14.6924067934635,0
 -43.089390909,-14.6871749464633,0
 -43.091515849,-14.6833222694632,0
 -43.093999828,-14.6814451364631,0
 -43.098519507,-14.6792687444631,0
 -43.098958238,-14.677748103463,0
 -43.1011076750001,-14.675495055463,0
 -43.1039769740001,-14.6739370984629,0
 -43.108027156,-14.6731675464629,0
 -43.109619032,-14.674566612463,0
 -43.1101655029999,-14.677687064463,0
 -43.111135689,-14.6790094234631,0
 -43.112745333,-14.6793488034631,0
 -43.116304052,-14.6788545374631,0
 -43.1185475,-14.677635849463,0
 -43.121943619,-14.6744256554629,0
 -43.127075657,-14.6663447904628,0
 -43.12749737,-14.6656799944627,0
 -43.129345617,-14.6660978154627,0
 -43.131270976,-14.6674284974627,0
 -43.132995519,-14.6680345774627,0
 -43.13485175,-14.6679019844627,0
 -43.1403263999999,-14.6651596894626,0
 -43.142250817,-14.6660818684627,0
 -43.143722836,-14.6656948494626,0
 -43.144163963,-14.6657786734627,0
 -43.148416663,-14.6665867674627,0
 -43.151496421,-14.6663340584628,0
 -43.155784375,-14.6629850724627,0
 -43.159219967,-14.6620616204626,0
 -43.163188533,-14.6598215764624,0
 -43.164341836,-14.6589454844625,0
 -43.164997881,-14.6573409484624,0
 -43.172358952,-14.6529790344623,0
 -43.17413996,-14.6528417034623,0
 -43.174693642,-14.6523224684623,0
 -43.1749545669999,-14.6510548064623,0
 -43.1763498349999,-14.6505438414623,0
 -43.177326914,-14.6507434074623,0
 -43.178421407,-14.6521158464623,0
 -43.177580488,-14.6581559964625,0
 -43.177835294,-14.6594624164625,0
 -43.179181054,-14.6609780924626,0
 -43.1812597059999,-14.6609122194625,0
 -43.184699994,-14.6586928574625,0
 -43.187590469,-14.6541603494624,0
 -43.190682942,-14.6515662604623,0
 -43.193412099,-14.6501123534622,0
 -43.196201939,-14.6495332754622,0
 -43.198694588,-14.6496249224622,0
 -43.200328013,-14.6501204764621,0
 -43.200807244,-14.6506896684622,0
 -43.201613553,-14.6543360244624,0
 -43.203160959,-14.6561180484623,0
 -43.206133064,-14.6567948994625,0
 -43.207664571,-14.6583546064625,0
 -43.214943633,-14.6578094774625,0
 -43.220557618,-14.6590962464625,0
 -43.225107667,-14.6584253864625,0
 -43.228944984,-14.6605147294626,0
 -43.229828855,-14.6604393274626,0
 -43.232496706,-14.6592828994625,0
 -43.234856951,-14.6567898584625,0
 -43.2356910889999,-14.6565920074624,0
 -43.237948079,-14.6568087384625,0
 -43.239665371,-14.6586758874625,0
 -43.240343357,-14.6586854054625,0
 -43.243465131,-14.6565028034624,0
 -43.245054893,-14.6565110874623,0
 -43.252285075,-14.6588364634625,0
 -43.2560984159999,-14.6614922984626,0
 -43.259226021,-14.6616772634626,0
 -43.261390696,-14.6633529024626,0
 -43.2635854129999,-14.6628171674626,0
 -43.266081626,-14.6614815684626,0
 -43.2666658159999,-14.6617537804626,0
 -43.267144119,-14.6630243104627,0
 -43.268830233,-14.6634169134626,0
 -43.269696713,-14.6647317914626,0
 -43.271609397,-14.6660532654627,0
 -43.2748112739999,-14.6659770854627,0
 -43.276971801,-14.6647765324627,0
 -43.278361378,-14.6661712454626,0
 -43.278664853,-14.6661286774627,0
 -43.28055227,-14.6658639334627,0
 -43.280728644,-14.6661156314627,0
 -43.2824714669999,-14.6686027464627,0
 -43.282475074,-14.6711914054628,0
 -43.283699165,-14.6739093694629,0
 -43.285377956,-14.6751133984629,0
 -43.288324412,-14.676112382463,0
 -43.298142718,-14.6760843204631,0
 -43.300240774,-14.6752091774629,0
 -43.3046717100001,-14.6713267704628,0
 -43.308083497,-14.6700054084628,0
 -43.311227371,-14.6697480954628,0
 -43.313111884,-14.6716298594628,0
 -43.315617403,-14.6726192684629,0
 -43.3161508549999,-14.6740971374629,0
 -43.317530616,-14.6750533824629,0
 -43.318528875,-14.677041033463,0
 -43.3196709119999,-14.6779553624631,0
 -43.321354947,-14.677977291463,0
 -43.3223575979999,-14.6789859024631,0
 -43.323343756,-14.6791943404632,0
 -43.3253588069999,-14.6783044904631,0
 -43.326807975,-14.6782258404631,0
 -43.327939929,-14.6793275394631,0
 -43.3305050239999,-14.6801281774631,0
 -43.3312061299999,-14.6810510334631,0
 -43.33157965,-14.6835552984631,0
 -43.332466602,-14.6854836564632,0
 -43.334280426,-14.6876551514633,0
 -43.336199562,-14.6893097234634,0
 -43.338831921,-14.6905229324634,0
 -43.3446370359999,-14.6923558884634,0
 -43.345386109,-14.6931358154635,0
 -43.34650369,-14.6960691084635,0
 -43.35416169,-14.6980890134636,0
 -43.363744838,-14.6979075224637,0
 -43.3640464159999,-14.6979941454636,0
 -43.3680822969999,-14.6991565874636,0
 -43.368456387,-14.6991525214636,0
 -43.3727734029999,-14.6991056044636,0
 -43.377498426,-14.7013647934637,0
 -43.378976564,-14.7013806994637,0
 -43.380477192,-14.7021535454637,0
 -43.3806279359999,-14.7046222434638,0
 -43.3826369,-14.7060448484638,0
 -43.392441844,-14.7079701964639,0
 -43.395886838,-14.709474376464,0
 -43.399029624,-14.710219637464,0
 -43.402456098,-14.7132090764641,0
 -43.404971788,-14.7161379244642,0
 -43.410136382,-14.7193258454643,0
 -43.412474392,-14.7231167054643,0
 -43.414691053,-14.7242325064643,0
 -43.416697137,-14.7242533344644,0
 -43.419393643,-14.7230033264643,0
 -43.424204048,-14.7200949504643,0
 -43.425313153,-14.7199791804642,0
 -43.426667177,-14.7205413964642,0
 -43.4286681849999,-14.7222110874643,0
 -43.428645167,-14.7229696514643,0
 -43.427516509,-14.7248406174643,0
 -43.427551116,-14.7260951074644,0
 -43.428166145,-14.7263703204644,0
 -43.43075239,-14.7257225284644,0
 -43.4326409829999,-14.7230218844643,0
 -43.4341376689999,-14.7227551844643,0
 -43.434888971,-14.7230382824643,0
 -43.4342793460001,-14.7249807184644,0
 -43.434639407,-14.7264252884644,0
 -43.436277993,-14.7266431764644,0
 -43.438331837,-14.7287952324646,0
 -43.43975185,-14.7281946864645,0
 -43.440474827,-14.7283153234645,0
 -43.441030645,-14.7304179044645,0
 -43.442020511,-14.7319308634646,0
 -43.444751406,-14.7332201304646,0
 -43.445833928,-14.7366875584647,0
 -43.456227346,-14.7401571914649,0
 -43.458332121,-14.743349978465,0
 -43.46127224,-14.746228495465,0
 -43.4615336,-14.7483090624651,0
 -43.460555214,-14.7495760914651,0
 -43.460259907,-14.7513261944651,0
 -43.456751342,-14.7547941894652,0
 -43.456257888,-14.7577474404653,0
 -43.4586978839999,-14.7615788134654,0
 -43.462838594,-14.7658865044656,0
 -43.465139494,-14.7665055244656,0
 -43.466919431,-14.7662327924655,0
 -43.47217239,-14.7623646834655,0
 -43.475293858,-14.7622090644655,0
 -43.476750518,-14.7656757264655,0
 -43.479111777,-14.7655705834655,0
 -43.479614729,-14.7671588834656,0
 -43.481254329,-14.7678977414655,0
 -43.4810266909999,-14.7703029474657,0
 -43.479811544,-14.7725168844658,0
 -43.475308379,-14.7752850064658,0
 -43.473808684,-14.7757208664659,0
 -43.472555698,-14.7777922864659,0
 -43.469363059,-14.7788119954659,0
 -43.468726851,-14.7794834274659,0
 -43.4681242779999,-14.782307192466,0
 -43.4683013720001,-14.7848355854661,0
 -43.469698317,-14.7873484684662,0
 -43.471934799,-14.7893121874662,0
 -43.4763808339999,-14.7917715544664,0
 -43.478376791,-14.7920509554663,0
 -43.479614155,-14.7916959684663,0
 -43.480117747,-14.7914184464663,0
 -43.4825621419999,-14.7896124674661,0
 -43.483526749,-14.7893966074662,0
 -43.486592981,-14.7901805384663,0
 -43.486964285,-14.7902754684663,0
 -43.488808957,-14.7907470884662,0
 -43.4893350449999,-14.7913825904663,0
 -43.489340486,-14.7924551944663,0
 -43.490135852,-14.7926405314663,0
 -43.494257679,-14.7907787404663,0
 -43.495251504,-14.7912428384663,0
 -43.496431328,-14.7931403704664,0
 -43.497360197,-14.7963733674664,0
 -43.498472899,-14.7973763274665,0
 -43.499448472,-14.7973942654665,0
 -43.499784644,-14.7960848894665,0
 -43.500477142,-14.7959574074665,0
 -43.502199971,-14.7976281374664,0
 -43.5033867459999,-14.7976439544665,0
 -43.506947323,-14.7948740664664,0
 -43.511162858,-14.7965745434665,0
 -43.511169072,-14.7994892574666,0
 -43.509443804,-14.8062259074667,0
 -43.50975084,-14.8075998024667,0
 -43.51080644,-14.8078662604667,0
 -43.514008592,-14.8048014344666,0
 -43.515365232,-14.8045950194666,0
 -43.521226254,-14.8059095934668,0
 -43.525249423,-14.8139881224669,0
 -43.528342223,-14.8137480904669,0
 -43.529757037,-14.815944843467,0
 -43.530797035,-14.8155340884669,0
 -43.459060047,-14.607024572461,0
 -43.442722204,-14.5595372724596,0
 -43.442498132,-14.5588859884596,0
 -43.4424665040001,-14.5587940614596,0
 -43.4241719129999,-14.5056193114581,0
 -43.421087457,-14.4966540834579,0
 -43.421087114,-14.4966539974578,0
 -43.421086822,-14.4966539264578,0
 -43.370890317,-14.4839733914575,0
 -43.263020464,-14.4567235374567,0
 -43.262992277,-14.4575457314568,0
 -43.2629901,-14.4578258934567,0
 -43.262936591,-14.4582665534566,0
 -43.262732477,-14.4586328934567,0
 -43.2624278459999,-14.4589243804567,0
 -43.261971844,-14.4592400554567,0
 -43.261651592,-14.4593931444568,0
 -43.261109419,-14.4596973364568,0
 -43.260713826,-14.4597585834568,0
 -43.260410485,-14.4598837774568,0
 -43.260224003,-14.4600098354568,0
 -43.259989033,-14.4601689744567,0
 -43.259208882,-14.4608988984568,0
 -43.259030758,-14.4611425104567,0
 -43.2589030889999,-14.4613385944568,0
 -43.25887652,-14.4615345224568,0
 -43.258874992,-14.4617306354568,0
 -43.258949516,-14.4619273104568,0
 -43.2590233090001,-14.4620986744568,0
 -43.259046626,-14.4623202774567,0
 -43.2590202539999,-14.4624909004569,0
 -43.258918203,-14.4626130614569,0
 -43.258817657,-14.4626611234569,0
 -43.2586913319999,-14.4626845914569,0
 -43.258439063,-14.4626827244569,0
 -43.25811262,-14.4625582964569,0
 -43.257736482,-14.4623837904568,0
 -43.257484981,-14.4622834144568,0
 -43.257333805,-14.4622822954568,0
 -43.257182241,-14.4623308824567,0
 -43.257104726,-14.4623989964569,0
 -43.25692871,-14.4624907844569,0
 -43.256671509,-14.4627645374568,0
 -43.2565532559999,-14.4630610114569,0
 -43.256317318,-14.4634623564569,0
 -43.2561048299999,-14.4639488324568,0
 -43.256088859,-14.4639749244569,0
 -43.255753613,-14.4642652704568,0
 -43.2553827099999,-14.4644893744569,0
 -43.254808543,-14.4647309494569,0
 -43.254424044,-14.4649142794569,0
 -43.254167825,-14.4650615054569,0
 -43.254003858,-14.4652726814569,0
 -43.253954735,-14.4655054954569,0
 -43.2539519169999,-14.4658660894569,0
 -43.253995567,-14.4663336754569,0
 -43.253898742,-14.466736050457,0
 -43.253617511,-14.4671162684569,0
 -43.253429258,-14.467348954457,0
 -43.253032592,-14.4676641454569,0
 -43.252751597,-14.467895238457,0
 -43.2524247219999,-14.468062724457,0
 -43.251843122,-14.4681858384569,0
 -43.251557098,-14.468348204457,0
 -43.251201173,-14.468553431457,0
 -43.250821388,-14.4688443414571,0
 -43.25061955,-14.4689160484571,0
 -43.250468371,-14.468914924457,0
 -43.250291993,-14.468815098457,0
 -43.250090955,-14.468666285457,0
 -43.249940158,-14.468616358457,0
 -43.249788979,-14.468615234457,0
 -43.24952779,-14.468685594457,0
 -43.249274558,-14.4688057224571,0
 -43.24894562,-14.468999397457,0
 -43.248692189,-14.4691448294571,0
 -43.248490543,-14.4691921334571,0
 -43.248239003,-14.4692146634571,0
 -43.248088015,-14.4691891364571,0
 -43.247937218,-14.469139208457,0
 -43.247735792,-14.469040098457,0
 -43.24733442,-14.468889790457,0
 -43.2469833250001,-14.4687154544571,0
 -43.246406154,-14.468392114457,0
 -43.2460554429999,-14.468168974457,0
 -43.245703614,-14.467970228457,0
 -43.245302246,-14.467819917457,0
 -43.244799393,-14.467718557457,0
 -43.2443227399999,-14.467470073457,0
 -43.243941746,-14.467206034457,0
 -43.242890615,-14.466293492457,0
 -43.242382082,-14.465971560457,0
 -43.241941944,-14.4657983594569,0
 -43.241547846,-14.465667980457,0
 -43.2413391670001,-14.465666421457,0
 -43.241059331,-14.465749285457,0
 -43.24054713,-14.4658936784569,0
 -43.240036431,-14.465847381457,0
 -43.239666525,-14.4655897454569,0
 -43.239343415,-14.465396628457,0
 -43.238950659,-14.4650963424569,0
 -43.238557399,-14.4648602214569,0
 -43.238139285,-14.4648354014568,0
 -43.2378371899999,-14.4649180954569,0
 -43.2374642729999,-14.4650427364569,0
 -43.236974247,-14.4653156254569,0
 -43.236647538,-14.4654613984569,0
 -43.236438695,-14.4654806214569,0
 -43.2361602,-14.4653935774568,0
 -43.235975542,-14.4652864504569,0
 -43.235559769,-14.4649651994568,0
 -43.235162403,-14.4647796544568,0
 -43.234828055,-14.4646009084569,0
 -43.234233284,-14.4646307904569,0
 -43.234097753,-14.4646451374568,0
 -43.233826157,-14.4647416124569,0
 -43.233336654,-14.4651826014569,0
 -43.232925931,-14.4657479994569,0
 -43.232625819,-14.466166006457,0
 -43.23235422,-14.466262479457,0
 -43.232057432,-14.466260249457,0
 -43.231919826,-14.466185105457,0
 -43.231879311,-14.466147745457,0
 -43.231674502,-14.465657258457,0
 -43.2314676690001,-14.4654225264568,0
 -43.231258571,-14.4653567864569,0
 -43.231183404,-14.4653616444569,0
 -43.231001919,-14.4654398134569,0
 -43.230815164,-14.465480887457,0
 -43.230764931,-14.465499489457,0
 -43.230413879,-14.465556499457,0
 -43.23025138,-14.465579679457,0
 -43.230062371,-14.465553855457,0
 -43.229874544,-14.4653789164569,0
 -43.229618082,-14.4650868714569,0
 -43.229552827,-14.4650113664568,0
 -43.229484868,-14.4649258994569,0
 -43.229310012,-14.4647528644568,0
 -43.229209306,-14.4647033024569,0
 -43.2288062569999,-14.4646505604568,0
 -43.227975451,-14.4646199044569,0
 -43.227396179,-14.4645667374568,0
 -43.226767607,-14.4644146854568,0
 -43.226081224,-14.4641844694569,0
 -43.2255795689999,-14.4639348584568,0
 -43.225378354,-14.4638113304568,0
 -43.225202139,-14.4638100024569,0
 -43.225000688,-14.4638328844568,0
 -43.224873974,-14.4639051354569,0
 -43.224722017,-14.4640025014569,0
 -43.224586158,-14.4641750034569,0
 -43.224411411,-14.4644556654569,0
 -43.22417786,-14.4646662924569,0
 -43.224060916,-14.4647928434569,0
 -43.22387416,-14.4648339114569,0
 -43.2237118560001,-14.4648326864569,0
 -43.223550565,-14.4647040354569,0
 -43.2234130489999,-14.4643848654569,0
 -43.223346529,-14.4640020634569,0
 -43.2232795,-14.4636834254568,0
 -43.223164244,-14.4635976004569,0
 -43.222932131,-14.4635108924568,0
 -43.222536362,-14.4635928584569,0
 -43.222212266,-14.4635262424569,0
 -43.222027366,-14.4633341474569,0
 -43.222007222,-14.4629516954569,0
 -43.221941381,-14.4624839424569,0
 -43.221804458,-14.4622072544568,0
 -43.221597811,-14.4619508264568,0
 -43.22118224,-14.4616078634568,0
 -43.2208824280001,-14.4612874664567,0
 -43.220745679,-14.4609890884568,0
 -43.220772074,-14.4605862014568,0
 -43.220704718,-14.4603091354568,0
 -43.220612565,-14.4601177404568,0
 -43.220428942,-14.4598822724568,0
 -43.220151555,-14.4597744334568,0
 -43.219849212,-14.4597721474568,0
 -43.2195692139999,-14.4598757714567,0
 -43.219242583,-14.4601281674567,0
 -43.2189855960001,-14.4602536564568,0
 -43.218730214,-14.4602942014568,0
 -43.218602398,-14.4602719954568,0
 -43.218474581,-14.4602497894568,0
 -43.218243228,-14.4601847734568,0
 -43.217964921,-14.4600760214568,0
 -43.217640236,-14.4599678204568,0
 -43.217339333,-14.4599013734568,0
 -43.2170136320001,-14.4599205974568,0
 -43.216780931,-14.4600245774568,0
 -43.216499569,-14.4602990024567,0
 -43.2161481429999,-14.4606361604568,0
 -43.2158457099999,-14.4607613014567,0
 -43.215566048,-14.4608224464568,0
 -43.215287645,-14.4608420264568,0
 -43.214893237,-14.4607540804567,0
 -43.214708354,-14.4605610774568,0
 -43.214385955,-14.4602829784568,0
 -43.214038772,-14.4600887434568,0
 -43.213762747,-14.4598109964568,0
 -43.213625421,-14.4594701334568,0
 -43.213466176,-14.4590866264567,0
 -43.213250618,-14.4589024274567,0
 -43.2129696619999,-14.4586616974567,0
 -43.212512681,-14.4583796834568,0
 -43.212322324,-14.4582369164568,0
 -43.211965405,-14.4581655324567,0
 -43.211489513,-14.4581179434567,0
 -43.211180183,-14.4580465594567,0
 -43.210728085,-14.4579275864566,0
 -43.21044255,-14.4577610244567,0
 -43.210204604,-14.4577610244567,0
 -43.210014247,-14.4578086134567,0
 -43.209895274,-14.4579037914567,0
 -43.209538355,-14.4582845054567,0
 -43.20920523,-14.4584986564567,0
 -43.2088959,-14.4584986564567,0
 -43.208538981,-14.4584034784567,0
 -43.2082121719999,-14.4580245244567,0
 -43.207897531,-14.4577058074567,0
 -43.207822461,-14.4575832264567,0
 -43.207698245,-14.4574593674567,0
 -43.207689007,-14.4574547774567,0
 -43.207533499,-14.4573008554568,0
 -43.207232184,-14.4571711294567,0
 -43.2066985019999,-14.4571038004567,0
 -43.20625825,-14.4569513234567,0
 -43.205982238,-14.4566735694567,0
 -43.2058213999999,-14.4563750014566,0
 -43.205754397,-14.4560563614566,0
 -43.205735984,-14.4554615364566,0
 -43.205809455,-14.4549740574566,0
 -43.2057453529999,-14.4542939294566,0
 -43.205663838,-14.4540501924566,0
 -43.205626757,-14.4539324194566,0
 -43.205526853,-14.4537843424566,0
 -43.205376477,-14.4536846844566,0
 -43.2052257029999,-14.4536347314566,0
 -43.205024066,-14.4536819994566,0
 -43.20467106,-14.4537534174566,0
 -43.203686391,-14.4540640374566,0
 -43.203155663,-14.4542073034566,0
 -43.2029045339999,-14.4541809854566,0
 -43.2027281930001,-14.4540811284565,0
 -43.202603778,-14.4539825714566,0
 -43.202479425,-14.4537611004566,0
 -43.202159545,-14.4528268674565,0
 -43.20181167,-14.4522602564565,0
 -43.2016865329999,-14.4521363874565,0
 -43.201434872,-14.4520612604565,0
 -43.201258668,-14.4520599144565,0
 -43.2010317959999,-14.4521313874565,0
 -43.200752726,-14.4523506804565,0
 -43.200591971,-14.4525039974565,0
 -43.200319363,-14.4529574164566,0
 -43.1997565289999,-14.4536327524567,0
 -43.1992665,-14.4539046564566,0
 -43.1989633099999,-14.4540089824566,0
 -43.198638554,-14.4540272854566,0
 -43.198313206,-14.4540040094566,0
 -43.198035847,-14.4538952424566,0
 -43.197735053,-14.4537022444566,0
 -43.197573618,-14.4535943634567,0
 -43.197295158,-14.4535072774567,0
 -43.1967146099999,-14.4535028334567,0
 -43.196365736,-14.4535218514566,0
 -43.195971184,-14.4534546614567,0
 -43.1957396789999,-14.4534104114566,0
 -43.19546224,-14.4531968024566,0
 -43.194931492,-14.4527679624565,0
 -43.194586398,-14.4523188544565,0
 -43.194194995,-14.4519769394565,0
 -43.1937334629999,-14.4515911054566,0
 -43.193479739,-14.4513126054565,0
 -43.1934371359999,-14.4508459324565,0
 -43.193603201,-14.4503799564565,0
 -43.193700464,-14.4499351434564,0
 -43.193610061,-14.4495304644564,0
 -43.193450172,-14.4492318974564,0
 -43.193150075,-14.4489539454564,0
 -43.192781353,-14.4486754674564,0
 -43.19194813,-14.4482650884564,0
 -43.191207128,-14.4479195824565,0
 -43.190560304,-14.4475115334564,0
 -43.190353708,-14.4472550834565,0
 -43.190216769,-14.4468717374564,0
 -43.189901806,-14.4456808604564,0
 -43.1898982140001,-14.4456663724564,0
 -43.1897209059999,-14.4449998354564,0
 -43.189515344,-14.4446159614563,0
 -43.189191043,-14.4444652514564,0
 -43.188726609,-14.4444408954563,0
 -43.18816859,-14.4445206554563,0
 -43.187493782,-14.4447070644563,0
 -43.187120713,-14.4448524124563,0
 -43.1866405229999,-14.4450556804563,0
 -43.1863993939999,-14.4451704104564,0
 -43.18619083,-14.4453925924564,0
 -43.186180982,-14.4454030834563,0
 -43.186171134,-14.4454135744563,0
 -43.186168323,-14.4454171684563,0
 -43.185906239,-14.4457142974563,0
 -43.1855809759999,-14.4457967474564,0
 -43.18506846,-14.4458687164563,0
 -43.1849061,-14.4458765034563,0
 -43.184534645,-14.4459369044564,0
 -43.184278174,-14.4459990954564,0
 -43.184045822,-14.4460605684563,0
 -43.183835029,-14.4462080654563,0
 -43.183508838,-14.4462905044563,0
 -43.183299926,-14.4463205254564,0
 -43.1830910139999,-14.4463505464563,0
 -43.182463018,-14.4463673934564,0
 -43.182044781,-14.4463641664564,0
 -43.181511491,-14.4462534064563,0
 -43.181048613,-14.4460374484563,0
 -43.180610016,-14.4458008904563,0
 -43.180334161,-14.4453956804563,0
 -43.180083048,-14.4447990634564,0
 -43.179971966,-14.4442035274564,0
 -43.1800791639999,-14.4429960214562,0
 -43.1800763359999,-14.4428875474562,0
 -43.1801263259999,-14.4424423774562,0
 -43.180175259,-14.4422412154563,0
 -43.180177007,-14.4419122584563,0
 -43.180203467,-14.4415093824562,0
 -43.1800898339999,-14.4411135594562,0
 -43.1799537400001,-14.4407428684562,0
 -43.1797957709999,-14.4402111384562,0
 -43.179360926,-14.4394007174562,0
 -43.179039405,-14.4389102004562,0
 -43.178671762,-14.4385033764562,0
 -43.178347824,-14.4383101784561,0
 -43.178070084,-14.4381381244562,0
 -43.177840674,-14.4378390124561,0
 -43.177657976,-14.437497784456,0
 -43.177636279,-14.4372011824561,0
 -43.177663846,-14.4367766254561,0
 -43.177618113,-14.4365846744561,0
 -43.17718109,-14.4361574294561,0
 -43.176694885,-14.4359620714561,0
 -43.176207812,-14.4358733504561,0
 -43.175696342,-14.4359335604561,0
 -43.175114058,-14.436034794456,0
 -43.174206522,-14.4362184614561,0
 -43.173578622,-14.4363410284561,0
 -43.172928578,-14.4363359914561,0
 -43.172464343,-14.4362899164561,0
 -43.17202346,-14.4362232344561,0
 -43.171745728,-14.4360511734561,0
 -43.171400763,-14.4357086834561,0
 -43.170505713,-14.434364172456,0
 -43.169999623,-14.433766473456,0
 -43.169652695,-14.4335513964559,0
 -43.169212691,-14.433378073456,0
 -43.168424953,-14.433202048456,0
 -43.16779909,-14.432963112456,0
 -43.167522115,-14.432812743456,0
 -43.167222769,-14.432449816456,0
 -43.166945802,-14.432298542456,0
 -43.166574477,-14.4322323924559,0
 -43.166086901,-14.4322069114561,0
 -43.165437738,-14.432096121456,0
 -43.1649519019999,-14.431858267456,0
 -43.164443343,-14.4314512334559,0
 -43.163871042,-14.4304490274559,0
 -43.163599644,-14.4296190714559,0
 -43.163416566,-14.4292145694559,0
 -43.163162959,-14.4290426874559,0
 -43.163000285,-14.4289772534559,0
 -43.1627686369999,-14.4289546624559,0
 -43.162445857,-14.4290759634559,0
 -43.162388263,-14.4290881674559,0
 -43.16220559,-14.4290867434559,0
 -43.16191855,-14.4290338964559,0
 -43.161684276,-14.4288793354559,0
 -43.161520698,-14.4286982124559,0
 -43.161262752,-14.4282642054558,0
 -43.161029615,-14.4280843474558,0
 -43.160742792,-14.4280052914559,0
 -43.1605336449999,-14.4279530504558,0
 -43.160272875,-14.4279763214558,0
 -43.160115743,-14.4280266104559,0
 -43.15985196,-14.4283038134558,0
 -43.159586706,-14.4287599484559,0
 -43.1593747289999,-14.4291649854559,0
 -43.159163495,-14.4293666824559,0
 -43.158822018,-14.4296188764559,0
 -43.158506928,-14.4298197614559,0
 -43.157903966,-14.4300690084559,0
 -43.1575366439999,-14.4301935684559,0
 -43.157039295,-14.4303424174559,0
 -43.1566462249999,-14.4304405664559,0
 -43.156384524,-14.4304638254559,0
 -43.156175887,-14.4304621944559,0
 -43.155731506,-14.4304849284559,0
 -43.155469598,-14.4305334904559,0
 -43.1551557619999,-14.4305816464559,0
 -43.154842759,-14.4305285874559,0
 -43.154659792,-14.4304503364559,0
 -43.1543214509999,-14.4303211634559,0
 -43.154165375,-14.4302431224559,0
 -43.1539569470001,-14.4302161854559,0
 -43.1537727139999,-14.4302915624559,0
 -43.153186229,-14.4305662304559,0
 -43.153128447,-14.4306010244559,0
 -43.152605555,-14.4309231844559,0
 -43.152076422,-14.4311025004559,0
 -43.151737794,-14.4311206334559,0
 -43.151416402,-14.4310729264559,0
 -43.151208988,-14.4309230854559,0
 -43.1509537619999,-14.4308361314559,0
 -43.150606914,-14.4307267684559,0
 -43.150259311,-14.430596613456,0
 -43.150052429,-14.4303826084559,0
 -43.149777242,-14.4299301754559,0
 -43.1497657049999,-14.4299112084559,0
 -43.1497541689999,-14.4298922424559,0
 -43.149316648,-14.4294215694559,0
 -43.149182771,-14.4289017644559,0
 -43.149156498,-14.4287144814558,0
 -43.149134494,-14.4283473854557,0
 -43.148956246,-14.4280350954558,0
 -43.148895845,-14.4279379204558,0
 -43.14883187,-14.4278739294557,0
 -43.148525198,-14.4275671834558,0
 -43.148406545,-14.4274496684558,0
 -43.1476596169999,-14.4276146124558,0
 -43.1472868579999,-14.4276116854558,0
 -43.1470326539998,-14.4275138904558,0
 -43.146915967,-14.4273719884558,0
 -43.146889976,-14.4273505044558,0
 -43.1467795789999,-14.4271675734558,0
 -43.1466635589999,-14.4269560874558,0
 -43.146606876,-14.4267459714558,0
 -43.146509379,-14.4266494084558,0
 -43.1464307199999,-14.4266298114558,0
 -43.1462938,-14.4265907774558,0
 -43.146136167,-14.4265895384558,0
 -43.145940045,-14.4266449334558,0
 -43.145801091,-14.4267396394558,0
 -43.145701067,-14.4269485234558,0
 -43.1455421390001,-14.4272156884558,0
 -43.145285565,-14.4274043624558,0
 -43.145167489,-14.4274413914558,0
 -43.145010012,-14.4274211744559,0
 -43.144822034,-14.4273741614558,0
 -43.14477496,-14.4273623894558,0
 -43.1445595449999,-14.4272838764558,0
 -43.144363281,-14.4272443744558,0
 -43.144186945,-14.4272619664558,0
 -43.143910599,-14.4273745684558,0
 -43.1434926919999,-14.4276357494558,0
 -43.14339792,-14.4276949794559,0
 -43.142502547,-14.4282039714558,0
 -43.141911519,-14.4284668264559,0
 -43.141458536,-14.4285210974558,0
 -43.141223012,-14.4285192414558,0
 -43.1410462649999,-14.4284744684559,0
 -43.140987968,-14.4284595484558,0
 -43.140792656,-14.4283052754558,0
 -43.1405985869999,-14.4281130544558,0
 -43.1402682700001,-14.4276893034558,0
 -43.140054912,-14.4273631754558,0
 -43.1398599249999,-14.4271700434558,0
 -43.139644828,-14.4270535704558,0
 -43.13933112,-14.4269751814558,0
 -43.138858911,-14.4268883114558,0
 -43.138740546,-14.4268485164558,0
 -43.138706328,-14.4268374014558,0
 -43.138167981,-14.4266749974558,0
 -43.13791227,-14.4266476734558,0
 -43.13760535,-14.4266452504559,0
 -43.137425978,-14.4266935404559,0
 -43.137142331,-14.4270148424558,0
 -43.136910299,-14.4272624444558,0
 -43.136628101,-14.4274093334559,0
 -43.136499727,-14.4274580254558,0
 -43.1363726929999,-14.4274570214558,0
 -43.136295941,-14.4274311104558,0
 -43.136194357,-14.4273806014559,0
 -43.1360416739999,-14.4272302764558,0
 -43.135916294,-14.4270304614559,0
 -43.135789988,-14.4268306394558,0
 -43.135613931,-14.4264804014558,0
 -43.1354899039999,-14.4260067614558,0
 -43.135264169,-14.4252747494557,0
 -43.1351648639999,-14.4249504234557,0
 -43.135142211,-14.4245525964557,0
 -43.135196728,-14.4241300734557,0
 -43.135275554,-14.4239065674558,0
 -43.135302454,-14.4236826504557,0
 -43.135281141,-14.4232351274557,0
 -43.13518204,-14.4228864014557,0
 -43.13505636,-14.4226115734557,0
 -43.134651182,-14.4221601124557,0
 -43.134373127,-14.4218099714557,0
 -43.134197692,-14.4213856304556,0
 -43.134149177,-14.4210870104556,0
 -43.134186415,-14.4209580694556,0
 -43.134224829,-14.4204649274557,0
 -43.134228455,-14.4200293504556,0
 -43.1342050019999,-14.4191706054556,0
 -43.134142133,-14.4188140324556,0
 -43.134043542,-14.4181815344555,0
 -43.133944345,-14.4177333954556,0
 -43.133692469,-14.4173581564555,0
 -43.133236508,-14.4168818914556,0
 -43.1323221069999,-14.4162275754554,0
 -43.131737573,-14.4158253014555,0
 -43.131458701,-14.4155745644554,0
 -43.131224457,-14.4153097194554,0
 -43.130922834,-14.4147849674554,0
 -43.130745957,-14.4145350364555,0
 -43.130440923,-14.4143084924555,0
 -43.129856819,-14.4138556084555,0
 -43.129631872,-14.4135881254555,0
 -43.129411871,-14.4132836274555,0
 -43.12929053,-14.4128235634553,0
 -43.129117816,-14.4124082804554,0
 -43.128944493,-14.4121773554553,0
 -43.128564687,-14.4118001944554,0
 -43.127835501,-14.4111780604553,0
 -43.127532135,-14.4107527024554,0
 -43.127120827,-14.4100400014554,0
 -43.1267167189999,-14.4094647264553,0
 -43.126337117,-14.4090640674553,0
 -43.125930937,-14.4087373044553,0
 -43.1253460189999,-14.4083847204552,0
 -43.124964556,-14.4082072694553,0
 -43.124454421,-14.4080043954553,0
 -43.124074411,-14.4076534364553,0
 -43.123846763,-14.4073777944552,0
 -43.123670111,-14.4071025564552,0
 -43.123520454,-14.4067037204552,0
 -43.123324085,-14.4056818354552,0
 -43.123227086,-14.4050845944552,0
 -43.123077227,-14.4047101584551,0
 -43.122823836,-14.4044090054552,0
 -43.122311387,-14.4040407244552,0
 -43.12172753,-14.4035634264551,0
 -43.121422725,-14.4033124734551,0
 -43.121245874,-14.4030616344552,0
 -43.121146173,-14.4027879114551,0
 -43.121048143,-14.4023144744552,0
 -43.120974527,-14.4019153394551,0
 -43.12087441,-14.4016913184551,0
 -43.120723309,-14.401465988455,0
 -43.120688403,-14.4014268504551,0
 -43.12054394,-14.4012946584551,0
 -43.120220668,-14.4009242634552,0
 -43.119820025,-14.400714119455,0
 -43.119269565,-14.400457594455,0
 -43.118768021,-14.400338826455,0
 -43.118217958,-14.400035308455,0
 -43.117828015,-14.399655342455,0
 -43.117748933,-14.399576991455,0
 -43.117597836,-14.399351659455,0
 -43.117422031,-14.398977014455,0
 -43.1172705179999,-14.398801385455,0
 -43.117117236,-14.398726057455,0
 -43.116734963,-14.398648000455,0
 -43.115879509,-14.398607743455,0
 -43.1150878659999,-14.3984767144551,0
 -43.114680972,-14.398349655455,0
 -43.114426346,-14.3981976034551,0
 -43.114324985,-14.398122688455,0
 -43.114249082,-14.397997366455,0
 -43.1142281909999,-14.397945686455,0
 -43.1140931710001,-14.3976834284549,0
 -43.1140702559999,-14.3974311024549,0
 -43.114123987,-14.3969950254549,0
 -43.114177907,-14.3965363564549,0
 -43.114193488,-14.3961162414549,0
 -43.114087696,-14.395906634455,0
 -43.113961212,-14.3957321064549,0
 -43.11378291,-14.395655673455,0
 -43.113375817,-14.3955530134549,0
 -43.112484081,-14.3951979544549,0
 -43.112077111,-14.3949705764549,0
 -43.1115677429999,-14.3947920864549,0
 -43.111261494,-14.3947155324549,0
 -43.1109293859999,-14.3947372794549,0
 -43.1106728739999,-14.3948102394549,0
 -43.110339297,-14.3950063954549,0
 -43.109978712,-14.3953270504549,0
 -43.1094384469999,-14.3958450894549,0
 -43.10900049,-14.3962148284549,0
 -43.108832591,-14.3963345864549,0
 -43.108601389,-14.3964845634549,0
 -43.108399429,-14.3965751284549,0
 -43.108224396,-14.3965511334549,0
 -43.108025154,-14.3963190864549,0
 -43.10788625,-14.3961887394549,0
 -43.107827524,-14.3961159704549,0
 -43.107677373,-14.395999994455,0
 -43.107376063,-14.3959975814549,0
 -43.106492273,-14.3962408374549,0
 -43.106264334,-14.3962236474549,0
 -43.105944194,-14.396145168455,0
 -43.105670007,-14.396114955455,0
 -43.105518181,-14.3958679224549,0
 -43.1053732199999,-14.3952467974549,0
 -43.105578754,-14.3941829414548,0
 -43.105672578,-14.3937218844548,0
 -43.105675177,-14.3934137314548,0
 -43.105586727,-14.3932376984548,0
 -43.105295621,-14.3929055014549,0
 -43.104959648,-14.3926163244548,0
 -43.104689124,-14.3924822104549,0
 -43.1041001419999,-14.3924006704549,0
 -43.103535734,-14.3923735494548,0
 -43.102702838,-14.3920812864548,0
 -43.102162904,-14.3917913724548,0
 -43.10178206,-14.3914367624548,0
 -43.10155883,-14.3910825144548,0
 -43.101360625,-14.3905097624547,0
 -43.101142036,-14.3897163364547,0
 -43.10074155,-14.3889440424548,0
 -43.100409303,-14.3882156764546,0
 -43.100121374,-14.3875093544547,0
 -43.0998794229999,-14.3867383334546,0
 -43.099530592,-14.3852308154546,0
 -43.099200585,-14.3842385754545,0
 -43.098938622,-14.3832035034545,0
 -43.098715148,-14.3823314124545,0
 -43.098537722,-14.3819341514545,0
 -43.098292057,-14.3816032174544,0
 -43.09806583,-14.3812760554545,0
 -43.0978557009999,-14.3810186094545,0
 -43.097734053,-14.3806037214544,0
 -43.097587611,-14.3800512674545,0
 -43.097492148,-14.3795001264545,0
 -43.097220557,-14.3789466654544,0
 -43.097100074,-14.3783944204543,0
 -43.0971326830001,-14.3774990834544,0
 -43.0970811,-14.3765831874544,0
 -43.097065889,-14.3764086444544,0
 -43.096980618,-14.3758584894543,0
 -43.096849365,-14.3753739374543,0
 -43.096693453,-14.3750645104543,0
 -43.096470796,-14.3747545474543,0
 -43.096158586,-14.3742911324543,0
 -43.095644119,-14.3737366204542,0
 -43.094993186,-14.3732045064544,0
 -43.0945449029999,-14.3728267524543,0
 -43.094186349,-14.3724723144542,0
 -43.093739371,-14.3719409364542,0
 -43.093468785,-14.3714896024542,0
 -43.093223329,-14.3711360734542,0
 -43.092953397,-14.3709359824542,0
 -43.092459323,-14.3707114914542,0
 -43.09178392,-14.3704430624542,0
 -43.091581844,-14.3703311784542,0
 -43.091379769,-14.3701099424542,0
 -43.0910666549999,-14.3697549634541,0
 -43.0906189380001,-14.3693121394541,0
 -43.090148046,-14.3689784804541,0
 -43.089855688,-14.3687998944541,0
 -43.089518266,-14.3686878204541,0
 -43.089044402,-14.3685954304541,0
 -43.088519966,-14.3685631814541,0
 -43.087932635,-14.3685141564541,0
 -43.087414085,-14.3684439954541,0
 -43.086985076,-14.3684188394542,0
 -43.0866016809999,-14.3683714594542,0
 -43.0861960399999,-14.3683238974541,0
 -43.085857695,-14.3682118114542,0
 -43.085601278,-14.3680588154541,0
 -43.085283957,-14.3678727934541,0
 -43.085134229,-14.3677107184541,0
 -43.0851119379999,-14.3673888114541,0
 -43.085191714,-14.366838182454,0
 -43.085145564,-14.366378715454,0
 -43.085021791,-14.366216851454,0
 -43.084696131,-14.366030760454,0
 -43.0842885329999,-14.3659958324541,0
 -43.083885335,-14.365879604454,0
 -43.083570546,-14.3657234234541,0
 -43.08323445,-14.365456815454,0
 -43.082964726,-14.365234122454,0
 -43.082697231,-14.364858717454,0
 -43.082385255,-14.364372697454,0
 -43.082051041,-14.363885594454,0
 -43.081772854,-14.3636772914539,0
 -43.081345544,-14.3634542244539,0
 -43.080895432,-14.363296040454,0
 -43.080624203,-14.3632504634539,0
 -43.080489615,-14.3631617114539,0
 -43.080400825,-14.3630290474539,0
 -43.0803563439999,-14.362918432454,0
 -43.080201197,-14.362631597454,0
 -43.080002709,-14.361991958454,0
 -43.0796726199999,-14.3610222964539,0
 -43.0794281370001,-14.3605585104539,0
 -43.079092431,-14.3602476184539,0
 -43.078867752,-14.3600704734539,0
 -43.078327179,-14.3598681724538,0
 -43.077832021,-14.3597755904539,0
 -43.077177421,-14.3596826164539,0
 -43.076748811,-14.3596131654538,0
 -43.07616337,-14.3594547784538,0
 -43.075624292,-14.3591865124538,0
 -43.075128766,-14.3590288534539,0
 -43.074347822,-14.3588598364539,0
 -43.072314338,-14.3584935584539,0
 -43.0717975839999,-14.3582173324539,0
 -43.071441524,-14.3579035544538,0
 -43.070809526,-14.3571212084538,0
 -43.070017849,-14.3562589364537,0
 -43.069307812,-14.3552816514537,0
 -43.068847982,-14.3547465164537,0
 -43.068584777,-14.3544154174536,0
 -43.068273018,-14.3541254924537,0
 -43.0681415079999,-14.3540033224536,0
 -43.0677604059999,-14.3538004924537,0
 -43.066999883,-14.3533071854537,0
 -43.066365653,-14.3526802524537,0
 -43.0659714200001,-14.3521718554537,0
 -43.065736031,-14.3516249924536,0
 -43.065581888,-14.3507923124536,0
 -43.065309306,-14.3499351684535,0
 -43.0650329799999,-14.3496220334536,0
 -43.064635492,-14.3493856284536,0
 -43.0636402429999,-14.3490268584535,0
 -43.06260606,-14.3486686684536,0
 -43.061928656,-14.3484299724535,0
 -43.061416842,-14.3483381264535,0
 -43.061233581,-14.3481983594536,0
 -43.061066475,-14.3481201764535,0
 -43.060901789,-14.3477609574535,0
 -43.060906843,-14.3471735824535,0
 -43.060994438,-14.3466890024535,0
 -43.061082959,-14.3462044294535,0
 -43.06111494,-14.3457193944535,0
 -43.060954212,-14.3449002154534,0
 -43.06081843,-14.3444138094534,0
 -43.060711824,-14.3438761284534,0
 -43.0605210909999,-14.3433124564534,0
 -43.060490851,-14.3430564564534,0
 -43.060483926,-14.3429994664535,0
 -43.059660708,-14.3423655514533,0
 -43.058905548,-14.3420096334534,0
 -43.058389853,-14.3416168134534,0
 -43.0579146849999,-14.3411466054534,0
 -43.05743818,-14.3408318244533,0
 -43.0568026,-14.3404759754533,0
 -43.056049797,-14.3398480504533,0
 -43.055497274,-14.3391051854532,0
 -43.0545496519999,-14.3378529994532,0
 -43.054311869,-14.3376956104533,0
 -43.05350757,-14.3375588774532,0
 -43.052510708,-14.3373952564533,0
 -43.05191365,-14.3371960554532,0
 -43.051398652,-14.3367255094532,0
 -43.050924516,-14.3361387194532,0
 -43.050491508,-14.3355125024531,0
 -43.050007243,-14.3346246184531,0
 -43.050007139,-14.3346244274531,0
 -43.048780069,-14.3325803914531,0
 -43.048716284,-14.3324741394531,0
 -43.048714999,-14.3324719994531,0
 -43.048201383,-14.3329494424531,0
 -43.046552914,-14.3340733964532,0
 -43.045703682,-14.3350724854531,0
 -43.044864855,-14.3360593494532,0
 -43.043355864,-14.3372954274532,0
 -43.0418822239999,-14.3380946964532,0
 -43.039759179,-14.3387441014533,0
 -43.037486269,-14.3389189334532,0
 -43.035113468,-14.3388689734532,0
 -43.033638245,-14.3388379274532,0
 -43.032116226,-14.3390438234532,0
 -43.030022424,-14.3393270634532,0
 -43.0280578319999,-14.3395928274533,0
 -43.0264085029999,-14.3398159494533,0
 -43.024822964,-14.3403426284534,0
 -43.023798902,-14.3411169074533,0
 -43.022674944,-14.3422658424533,0
 -43.021797973,-14.3431623024534,0
 -43.0200273799999,-14.3441641004534,0
 -43.0176295889999,-14.3457626134535,0
 -43.015731354,-14.3467117504535,0
 -43.014032922,-14.3471363534535,0
 -43.012309511,-14.3473861114535,0
 -43.010910793,-14.3479605854535,0
 -43.009975154,-14.3483448744535,0
 -43.008289305,-14.3490372624536,0
 -43.007756024,-14.3495973454536,0
 -43.006711451,-14.3509214974535,0
 -43.00609025,-14.3523815174537,0
 -43.005415874,-14.3554037154538,0
 -43.00479144,-14.3569522984537,0
 -43.002807708,-14.3589424554539,0
 -43.000117831,-14.3611175334539,0
 -42.998680144,-14.362768963454,0
 -42.998210383,-14.364077233454,0
 -42.998090656,-14.364410683454,0
 -42.997832904,-14.3651285454541,0
 -42.9969245149999,-14.365918310454,0
 -42.9969237040001,-14.3659190154541,0
 -42.99554998,-14.366518456454,0
 -42.99408171,-14.366783470454,0
 -42.9928774439999,-14.3673926564541,0
 -42.991903337,-14.3681919144541,0
 -42.990454672,-14.3687913594541,0
 -42.9888487769999,-14.3691831534541,0
 -42.987657247,-14.3696905314541,0
 -42.986283531,-14.3709144084542,0
 -42.984909784,-14.3724879584542,0
 -42.983990358,-14.3735411214543,0
 -42.982861687,-14.3743362534543,0
 -42.981413022,-14.3748607664543,0
 -42.979264994,-14.3752604024543,0
 -42.9777111379999,-14.3756476014544,0
 -42.9762927469999,-14.3762594784544,0
 -42.974753424,-14.3769235134544,0
 -42.97398636,-14.3778198344544,0
 -42.973787857,-14.3786382614544,0
 -42.9738603379999,-14.3793319684544,0
 -42.973967644,-14.3803588974544,0
 -42.9743358,-14.3813243964545,0
 -42.974781749,-14.3823291254545,0
 -42.975493483,-14.3829782774545,0
 -42.975643345,-14.3835527524546,0
 -42.975493473,-14.3841272094546,0
 -42.974939245,-14.3845187184546,0
 -42.974490573,-14.3849642734546,0
 -42.974057309,-14.3855746344546,0
 -42.974088287,-14.3864354894547,0
 -42.974116165,-14.3872100854546,0
 -42.974238154,-14.3880226784546,0
 -42.974338396,-14.3886905454547,0
 -42.974219654,-14.3895222304547,0
 -42.973894952,-14.3901466564547,0
 -42.973674799,-14.3905700184547,0
 -42.973045733,-14.3909209534547,0
 -42.971846842,-14.3911457314548,0
 -42.970588663,-14.3911559354547,0
 -42.969239626,-14.3913485614548,0
 -42.967930011,-14.3915355474548,0
 -42.96717826,-14.3918287164549,0
 -42.966459296,-14.3922147034548,0
 -42.965549377,-14.3928132924548,0
 -42.965001815,-14.3931735034549,0
 -42.964737762,-14.3934899804548,0
 -42.964289799,-14.3937719064548,0
 -42.964284831,-14.3937750384548,0
 -42.963760005,-14.3940446724548,0
 -42.962635818,-14.3944074274548,0
 -42.961336173,-14.3944887954549,0
 -42.960344735,-14.3945508874549,0
 -42.9588832499999,-14.394919321455,0
 -42.956746124,-14.395276640455,0
 -42.955735625,-14.3955849264549,0
 -42.955075014,-14.3961482674549,0</coordinates>
        </LineString>
      </Placemark>
    </Folder>
  </Document>
</kml>